ID,時間,事件說明,工程師
0,2017/9/8 下午 01:13:28,進入系統事件,admin
1,2017/9/8 下午 01:13:18,進入歷史警報,admin
2,2017/9/8 下午 01:12:58,進入系統事件,admin
3,2017/9/8 下午 01:12:56,登入,admin
4,2017/9/8 下午 01:12:53,程式啟動,
5,2017/9/8 下午 01:12:53,風扇GO2-01-33發生警報:255,
6,2017/9/8 下午 01:12:53,風扇GO2-01-34發生警報:255,
7,2017/9/8 下午 01:12:53,風扇GO2-01-35發生警報:255,
8,2017/9/8 下午 01:12:53,風扇GO2-01-36發生警報:255,
9,2017/9/8 下午 01:12:53,風扇GO2-01-30發生警報:255,
10,2017/9/8 下午 01:12:53,風扇GO2-01-31發生警報:255,
11,2017/9/8 下午 01:12:53,風扇GO2-01-32發生警報:255,
12,2017/9/8 下午 01:12:53,風扇GO2-01-28發生警報:255,
13,2017/9/8 下午 01:12:53,風扇GO2-01-29發生警報:255,
14,2017/9/8 下午 01:12:53,192.168.107.178連線成功,
15,2017/9/8 下午 01:12:53,192.168.107.179連線成功,
16,2017/9/8 下午 01:11:48,風扇GO2-04-52警報消失:0,admin
17,2017/9/8 下午 01:11:48,風扇GO2-04-51警報消失:0,admin
18,2017/9/8 下午 01:11:48,風扇GO2-04-48警報消失:0,admin
19,2017/9/8 下午 01:11:48,風扇GO2-04-49警報消失:0,admin
20,2017/9/8 下午 01:11:48,風扇GO2-04-50警報消失:0,admin
21,2017/9/8 下午 01:11:48,風扇GO2-04-45警報消失:0,admin
22,2017/9/8 下午 01:11:48,風扇GO2-04-46警報消失:0,admin
23,2017/9/8 下午 01:11:48,風扇GO2-04-47警報消失:0,admin
24,2017/9/8 下午 01:11:48,風扇GO2-04-42警報消失:0,admin
25,2017/9/8 下午 01:11:48,風扇GO2-04-43警報消失:0,admin
26,2017/9/8 下午 01:11:48,風扇GO2-04-44警報消失:0,admin
27,2017/9/8 下午 01:11:48,風扇GO2-04-39警報消失:0,admin
28,2017/9/8 下午 01:11:48,風扇GO2-04-40警報消失:0,admin
29,2017/9/8 下午 01:11:48,風扇GO2-04-41警報消失:0,admin
30,2017/9/8 下午 01:11:48,風扇GO2-04-37警報消失:0,admin
31,2017/9/8 下午 01:11:48,風扇GO2-04-38警報消失:0,admin
32,2017/9/8 下午 01:11:48,風扇GO2-04-34警報消失:0,admin
33,2017/9/8 下午 01:11:48,風扇GO2-04-35警報消失:0,admin
34,2017/9/8 下午 01:11:48,風扇GO2-04-36警報消失:0,admin
35,2017/9/8 下午 01:11:48,風扇GO2-04-31警報消失:0,admin
36,2017/9/8 下午 01:11:48,風扇GO2-04-32警報消失:0,admin
37,2017/9/8 下午 01:11:48,風扇GO2-04-33警報消失:0,admin
38,2017/9/8 下午 01:11:48,風扇GO2-04-29警報消失:0,admin
39,2017/9/8 下午 01:11:48,風扇GO2-04-30警報消失:0,admin
40,2017/9/8 下午 01:11:48,風扇GO2-04-28警報消失:0,admin
41,2017/9/8 下午 01:11:48,風扇GO2-04-27警報消失:0,admin
42,2017/9/8 下午 01:11:48,風扇GO2-04-26警報消失:0,admin
43,2017/9/8 下午 01:11:48,風扇GO2-04-23警報消失:0,admin
44,2017/9/8 下午 01:11:48,風扇GO2-04-24警報消失:0,admin
45,2017/9/8 下午 01:11:48,風扇GO2-04-25警報消失:0,admin
46,2017/9/8 下午 01:11:48,風扇GO2-04-19警報消失:0,admin
47,2017/9/8 下午 01:11:48,風扇GO2-04-20警報消失:0,admin
48,2017/9/8 下午 01:11:48,風扇GO2-04-21警報消失:0,admin
49,2017/9/8 下午 01:11:48,風扇GO2-04-22警報消失:0,admin
50,2017/9/8 下午 01:11:48,風扇GO2-04-17警報消失:0,admin
51,2017/9/8 下午 01:11:48,風扇GO2-04-18警報消失:0,admin
52,2017/9/8 下午 01:11:48,風扇GO2-04-14警報消失:0,admin
53,2017/9/8 下午 01:11:48,風扇GO2-04-15警報消失:0,admin
54,2017/9/8 下午 01:11:48,風扇GO2-04-16警報消失:0,admin
55,2017/9/8 下午 01:11:48,風扇GO2-04-10警報消失:0,admin
56,2017/9/8 下午 01:11:48,風扇GO2-04-11警報消失:0,admin
57,2017/9/8 下午 01:11:48,風扇GO2-04-12警報消失:0,admin
58,2017/9/8 下午 01:11:48,風扇GO2-04-13警報消失:0,admin
59,2017/9/8 下午 01:11:48,風扇GO2-04-08警報消失:0,admin
60,2017/9/8 下午 01:11:48,風扇GO2-04-09警報消失:0,admin
61,2017/9/8 下午 01:11:48,風扇GO2-04-05警報消失:0,admin
62,2017/9/8 下午 01:11:48,風扇GO2-04-06警報消失:0,admin
63,2017/9/8 下午 01:11:48,風扇GO2-04-07警報消失:0,admin
64,2017/9/8 下午 01:11:48,風扇GO2-04-03警報消失:0,admin
65,2017/9/8 下午 01:11:48,風扇GO2-04-04警報消失:0,admin
66,2017/9/8 下午 01:11:48,風扇GO2-04-01警報消失:0,admin
67,2017/9/8 下午 01:11:48,風扇GO2-04-02警報消失:0,admin
68,2017/9/8 下午 01:11:48,風扇GO2-03-56警報消失:0,admin
69,2017/9/8 下午 01:11:48,風扇GO2-03-52警報消失:0,admin
70,2017/9/8 下午 01:11:48,風扇GO2-03-53警報消失:0,admin
71,2017/9/8 下午 01:11:48,風扇GO2-03-54警報消失:0,admin
72,2017/9/8 下午 01:11:48,風扇GO2-03-55警報消失:0,admin
73,2017/9/8 下午 01:11:48,風扇GO2-03-50警報消失:0,admin
74,2017/9/8 下午 01:11:48,風扇GO2-03-51警報消失:0,admin
75,2017/9/8 下午 01:11:48,風扇GO2-03-47警報消失:0,admin
76,2017/9/8 下午 01:11:48,風扇GO2-03-48警報消失:0,admin
77,2017/9/8 下午 01:11:48,風扇GO2-03-49警報消失:0,admin
78,2017/9/8 下午 01:11:48,風扇GO2-03-43警報消失:0,admin
79,2017/9/8 下午 01:11:48,風扇GO2-03-44警報消失:0,admin
80,2017/9/8 下午 01:11:48,風扇GO2-03-45警報消失:0,admin
81,2017/9/8 下午 01:11:48,風扇GO2-03-46警報消失:0,admin
82,2017/9/8 下午 01:11:48,風扇GO2-03-41警報消失:0,admin
83,2017/9/8 下午 01:11:48,風扇GO2-03-42警報消失:0,admin
84,2017/9/8 下午 01:11:48,風扇GO2-03-38警報消失:0,admin
85,2017/9/8 下午 01:11:48,風扇GO2-03-39警報消失:0,admin
86,2017/9/8 下午 01:11:48,風扇GO2-03-40警報消失:0,admin
87,2017/9/8 下午 01:11:48,風扇GO2-03-34警報消失:0,admin
88,2017/9/8 下午 01:11:48,風扇GO2-03-35警報消失:0,admin
89,2017/9/8 下午 01:11:48,風扇GO2-03-36警報消失:0,admin
90,2017/9/8 下午 01:11:48,風扇GO2-03-37警報消失:0,admin
91,2017/9/8 下午 01:11:48,風扇GO2-03-32警報消失:0,admin
92,2017/9/8 下午 01:11:48,風扇GO2-03-33警報消失:0,admin
93,2017/9/8 下午 01:11:48,風扇GO2-03-31警報消失:0,admin
94,2017/9/8 下午 01:11:48,風扇GO2-03-27警報消失:0,admin
95,2017/9/8 下午 01:11:48,風扇GO2-03-28警報消失:0,admin
96,2017/9/8 下午 01:11:48,風扇GO2-03-29警報消失:0,admin
97,2017/9/8 下午 01:11:48,風扇GO2-03-30警報消失:0,admin
98,2017/9/8 下午 01:11:48,風扇GO2-03-24警報消失:0,admin
99,2017/9/8 下午 01:11:48,風扇GO2-03-25警報消失:0,admin
100,2017/9/8 下午 01:11:48,風扇GO2-03-26警報消失:0,admin
101,2017/9/8 下午 01:11:48,風扇GO2-03-21警報消失:0,admin
102,2017/9/8 下午 01:11:48,風扇GO2-03-22警報消失:0,admin
103,2017/9/8 下午 01:11:48,風扇GO2-03-23警報消失:0,admin
104,2017/9/8 下午 01:11:48,風扇GO2-03-19警報消失:0,admin
105,2017/9/8 下午 01:11:48,風扇GO2-03-20警報消失:0,admin
106,2017/9/8 下午 01:11:48,風扇GO2-03-16警報消失:0,admin
107,2017/9/8 下午 01:11:48,風扇GO2-03-17警報消失:0,admin
108,2017/9/8 下午 01:11:48,風扇GO2-03-18警報消失:0,admin
109,2017/9/8 下午 01:11:48,風扇GO2-03-13警報消失:0,admin
110,2017/9/8 下午 01:11:48,風扇GO2-03-14警報消失:0,admin
111,2017/9/8 下午 01:11:48,風扇GO2-03-15警報消失:0,admin
112,2017/9/8 下午 01:11:48,風扇GO2-03-11警報消失:0,admin
113,2017/9/8 下午 01:11:48,風扇GO2-03-12警報消失:0,admin
114,2017/9/8 下午 01:11:48,風扇GO2-03-08警報消失:0,admin
115,2017/9/8 下午 01:11:48,風扇GO2-03-09警報消失:0,admin
116,2017/9/8 下午 01:11:48,風扇GO2-03-10警報消失:0,admin
117,2017/9/8 下午 01:11:48,風扇GO2-03-07警報消失:0,admin
118,2017/9/8 下午 01:11:48,風扇GO2-03-04警報消失:0,admin
119,2017/9/8 下午 01:11:48,風扇GO2-03-05警報消失:0,admin
120,2017/9/8 下午 01:11:48,風扇GO2-03-06警報消失:0,admin
121,2017/9/8 下午 01:11:48,風扇GO2-03-01警報消失:0,admin
122,2017/9/8 下午 01:11:48,風扇GO2-03-02警報消失:0,admin
123,2017/9/8 下午 01:11:48,風扇GO2-03-03警報消失:0,admin
124,2017/9/8 下午 01:11:48,風扇GO2-02-51警報消失:0,admin
125,2017/9/8 下午 01:11:48,風扇GO2-02-48警報消失:0,admin
126,2017/9/8 下午 01:11:48,風扇GO2-02-49警報消失:0,admin
127,2017/9/8 下午 01:11:48,風扇GO2-02-50警報消失:0,admin
128,2017/9/8 下午 01:11:48,風扇GO2-02-45警報消失:0,admin
129,2017/9/8 下午 01:11:48,風扇GO2-02-46警報消失:0,admin
130,2017/9/8 下午 01:11:48,風扇GO2-02-47警報消失:0,admin
131,2017/9/8 下午 01:11:48,風扇GO2-02-42警報消失:0,admin
132,2017/9/8 下午 01:11:48,風扇GO2-02-43警報消失:0,admin
133,2017/9/8 下午 01:11:48,風扇GO2-02-44警報消失:0,admin
134,2017/9/8 下午 01:11:48,風扇GO2-02-39警報消失:0,admin
135,2017/9/8 下午 01:11:48,風扇GO2-02-40警報消失:0,admin
136,2017/9/8 下午 01:11:48,風扇GO2-02-41警報消失:0,admin
137,2017/9/8 下午 01:11:48,風扇GO2-02-36警報消失:0,admin
138,2017/9/8 下午 01:11:48,風扇GO2-02-37警報消失:0,admin
139,2017/9/8 下午 01:11:48,風扇GO2-02-38警報消失:0,admin
140,2017/9/8 下午 01:11:48,風扇GO2-02-34警報消失:0,admin
141,2017/9/8 下午 01:11:48,風扇GO2-02-35警報消失:0,admin
142,2017/9/8 下午 01:11:48,風扇GO2-02-33警報消失:0,admin
143,2017/9/8 下午 01:11:48,風扇GO2-02-32警報消失:0,admin
144,2017/9/8 下午 01:11:48,風扇GO2-02-29警報消失:0,admin
145,2017/9/8 下午 01:11:48,風扇GO2-02-30警報消失:0,admin
146,2017/9/8 下午 01:11:48,風扇GO2-02-31警報消失:0,admin
147,2017/9/8 下午 01:11:48,風扇GO2-02-26警報消失:0,admin
148,2017/9/8 下午 01:11:48,風扇GO2-02-27警報消失:0,admin
149,2017/9/8 下午 01:11:48,風扇GO2-02-28警報消失:0,admin
150,2017/9/8 下午 01:11:48,風扇GO2-02-23警報消失:0,admin
151,2017/9/8 下午 01:11:48,風扇GO2-02-24警報消失:0,admin
152,2017/9/8 下午 01:11:48,風扇GO2-02-25警報消失:0,admin
153,2017/9/8 下午 01:11:48,風扇GO2-02-21警報消失:0,admin
154,2017/9/8 下午 01:11:48,風扇GO2-02-22警報消失:0,admin
155,2017/9/8 下午 01:11:48,風扇GO2-02-18警報消失:0,admin
156,2017/9/8 下午 01:11:48,風扇GO2-02-19警報消失:0,admin
157,2017/9/8 下午 01:11:48,風扇GO2-02-20警報消失:0,admin
158,2017/9/8 下午 01:11:48,風扇GO2-02-15警報消失:0,admin
159,2017/9/8 下午 01:11:48,風扇GO2-02-16警報消失:0,admin
160,2017/9/8 下午 01:11:48,風扇GO2-02-17警報消失:0,admin
161,2017/9/8 下午 01:11:48,風扇GO2-02-13警報消失:0,admin
162,2017/9/8 下午 01:11:48,風扇GO2-02-14警報消失:0,admin
163,2017/9/8 下午 01:11:48,風扇GO2-02-10警報消失:0,admin
164,2017/9/8 下午 01:11:48,風扇GO2-02-11警報消失:0,admin
165,2017/9/8 下午 01:11:48,風扇GO2-02-12警報消失:0,admin
166,2017/9/8 下午 01:11:48,風扇GO2-02-08警報消失:0,admin
167,2017/9/8 下午 01:11:48,風扇GO2-02-09警報消失:0,admin
168,2017/9/8 下午 01:11:48,風扇GO2-02-07警報消失:0,admin
169,2017/9/8 下午 01:11:48,風扇GO2-02-04警報消失:0,admin
170,2017/9/8 下午 01:11:48,風扇GO2-02-05警報消失:0,admin
171,2017/9/8 下午 01:11:48,風扇GO2-02-06警報消失:0,admin
172,2017/9/8 下午 01:11:48,風扇GO2-02-01警報消失:0,admin
173,2017/9/8 下午 01:11:48,風扇GO2-02-02警報消失:0,admin
174,2017/9/8 下午 01:11:48,風扇GO2-02-03警報消失:0,admin
175,2017/9/8 下午 01:11:48,風扇GO2-01-52警報消失:0,admin
176,2017/9/8 下午 01:11:48,風扇GO2-01-48警報消失:0,admin
177,2017/9/8 下午 01:11:48,風扇GO2-01-49警報消失:0,admin
178,2017/9/8 下午 01:11:48,風扇GO2-01-50警報消失:0,admin
179,2017/9/8 下午 01:11:48,風扇GO2-01-51警報消失:0,admin
180,2017/9/8 下午 01:11:48,風扇GO2-01-43警報消失:0,admin
181,2017/9/8 下午 01:11:48,風扇GO2-01-44警報消失:0,admin
182,2017/9/8 下午 01:11:48,風扇GO2-01-45警報消失:0,admin
183,2017/9/8 下午 01:11:48,風扇GO2-01-46警報消失:0,admin
184,2017/9/8 下午 01:11:48,風扇GO2-01-47警報消失:0,admin
185,2017/9/8 下午 01:11:48,風扇GO2-01-39警報消失:0,admin
186,2017/9/8 下午 01:11:48,風扇GO2-01-40警報消失:0,admin
187,2017/9/8 下午 01:11:48,風扇GO2-01-41警報消失:0,admin
188,2017/9/8 下午 01:11:48,風扇GO2-01-42警報消失:0,admin
189,2017/9/8 下午 01:11:48,風扇GO2-01-36警報消失:0,admin
190,2017/9/8 下午 01:11:48,風扇GO2-01-37警報消失:0,admin
191,2017/9/8 下午 01:11:48,風扇GO2-01-38警報消失:0,admin
192,2017/9/8 下午 01:11:48,風扇GO2-01-32警報消失:0,admin
193,2017/9/8 下午 01:11:48,風扇GO2-01-33警報消失:0,admin
194,2017/9/8 下午 01:11:48,風扇GO2-01-34警報消失:0,admin
195,2017/9/8 下午 01:11:48,風扇GO2-01-35警報消失:0,admin
196,2017/9/8 下午 01:11:48,風扇GO2-01-29警報消失:0,admin
197,2017/9/8 下午 01:11:48,風扇GO2-01-30警報消失:0,admin
198,2017/9/8 下午 01:11:48,風扇GO2-01-31警報消失:0,admin
199,2017/9/8 下午 01:11:48,風扇GO2-01-28警報消失:0,admin
200,2017/9/8 下午 01:11:48,關閉程式,admin
201,2017/9/8 下午 01:11:40,進入系統事件,admin
202,2017/9/8 下午 01:11:35,登入,admin
203,2017/9/8 下午 01:11:32,程式啟動,
204,2017/9/8 下午 01:11:31,192.168.107.178連線成功,
205,2017/9/8 下午 01:11:31,192.168.107.179連線成功,
206,2017/9/8 下午 12:19:31,程式啟動,
207,2017/9/8 下午 12:19:31,192.168.107.178連線成功,
208,2017/9/8 下午 12:19:31,192.168.107.179連線成功,
209,2017/9/8 下午 12:19:15,關閉程式,
210,2017/9/8 上午 08:38:26,程式啟動,
211,2017/9/8 上午 08:38:26,192.168.107.178連線成功,
212,2017/9/8 上午 08:38:26,192.168.107.179連線成功,
213,2017/9/8 上午 08:37:06,關閉程式,admin
214,2017/9/7 下午 02:38:04,進入Gateway通訊,admin
215,2017/9/7 下午 02:37:48,風扇GO1-01-03修改群組ID:9,admin
216,2017/9/7 下午 02:37:48,風扇GO1-01-02修改群組ID:9,admin
217,2017/9/7 下午 02:37:48,風扇GO1-01-01修改群組ID:9,admin
218,2017/9/7 下午 02:37:48,風扇GO2-04-52修改群組ID:9,admin
219,2017/9/7 下午 02:37:48,風扇GO2-04-51修改群組ID:9,admin
220,2017/9/7 下午 02:37:48,風扇GO2-04-50修改群組ID:9,admin
221,2017/9/7 下午 02:37:48,風扇GO2-04-49修改群組ID:9,admin
222,2017/9/7 下午 02:37:48,風扇GO2-04-48修改群組ID:9,admin
223,2017/9/7 下午 02:37:48,風扇GO2-04-47修改群組ID:9,admin
224,2017/9/7 下午 02:37:48,風扇GO2-04-46修改群組ID:9,admin
225,2017/9/7 下午 02:37:48,風扇GO2-04-45修改群組ID:9,admin
226,2017/9/7 下午 02:37:48,風扇GO2-04-44修改群組ID:9,admin
227,2017/9/7 下午 02:37:48,風扇GO2-04-43修改群組ID:9,admin
228,2017/9/7 下午 02:37:48,風扇GO2-04-42修改群組ID:9,admin
229,2017/9/7 下午 02:37:48,風扇GO2-04-41修改群組ID:9,admin
230,2017/9/7 下午 02:37:48,風扇GO2-04-40修改群組ID:9,admin
231,2017/9/7 下午 02:37:48,風扇GO2-04-39修改群組ID:9,admin
232,2017/9/7 下午 02:37:48,風扇GO2-04-38修改群組ID:9,admin
233,2017/9/7 下午 02:37:48,風扇GO2-04-37修改群組ID:9,admin
234,2017/9/7 下午 02:37:48,風扇GO2-04-36修改群組ID:9,admin
235,2017/9/7 下午 02:37:48,風扇GO2-04-35修改群組ID:9,admin
236,2017/9/7 下午 02:37:48,風扇GO2-04-34修改群組ID:9,admin
237,2017/9/7 下午 02:37:48,風扇GO2-04-33修改群組ID:9,admin
238,2017/9/7 下午 02:37:48,風扇GO2-04-32修改群組ID:9,admin
239,2017/9/7 下午 02:37:48,風扇GO2-04-31修改群組ID:9,admin
240,2017/9/7 下午 02:37:48,風扇GO2-04-30修改群組ID:9,admin
241,2017/9/7 下午 02:37:48,風扇GO2-04-29修改群組ID:9,admin
242,2017/9/7 下午 02:37:48,風扇GO2-04-28修改群組ID:9,admin
243,2017/9/7 下午 02:37:48,風扇GO2-04-27修改群組ID:9,admin
244,2017/9/7 下午 02:37:48,風扇GO2-04-26修改群組ID:9,admin
245,2017/9/7 下午 02:37:48,風扇GO2-04-25修改群組ID:9,admin
246,2017/9/7 下午 02:37:48,風扇GO2-04-24修改群組ID:9,admin
247,2017/9/7 下午 02:37:48,風扇GO2-04-23修改群組ID:9,admin
248,2017/9/7 下午 02:37:48,風扇GO2-04-22修改群組ID:9,admin
249,2017/9/7 下午 02:37:48,風扇GO2-04-21修改群組ID:9,admin
250,2017/9/7 下午 02:37:48,風扇GO2-04-20修改群組ID:9,admin
251,2017/9/7 下午 02:37:48,風扇GO2-04-19修改群組ID:9,admin
252,2017/9/7 下午 02:37:48,風扇GO2-04-18修改群組ID:9,admin
253,2017/9/7 下午 02:37:48,風扇GO2-04-17修改群組ID:9,admin
254,2017/9/7 下午 02:37:48,風扇GO2-04-16修改群組ID:9,admin
255,2017/9/7 下午 02:37:48,風扇GO2-04-15修改群組ID:9,admin
256,2017/9/7 下午 02:37:48,風扇GO2-04-14修改群組ID:9,admin
257,2017/9/7 下午 02:37:48,風扇GO2-04-13修改群組ID:9,admin
258,2017/9/7 下午 02:37:48,風扇GO2-04-12修改群組ID:9,admin
259,2017/9/7 下午 02:37:48,風扇GO2-04-11修改群組ID:9,admin
260,2017/9/7 下午 02:37:48,風扇GO2-04-10修改群組ID:9,admin
261,2017/9/7 下午 02:37:48,風扇GO2-04-09修改群組ID:9,admin
262,2017/9/7 下午 02:37:48,風扇GO2-04-08修改群組ID:9,admin
263,2017/9/7 下午 02:37:48,風扇GO2-04-07修改群組ID:9,admin
264,2017/9/7 下午 02:37:48,風扇GO2-04-06修改群組ID:9,admin
265,2017/9/7 下午 02:37:48,風扇GO2-04-05修改群組ID:9,admin
266,2017/9/7 下午 02:37:48,風扇GO2-04-04修改群組ID:9,admin
267,2017/9/7 下午 02:37:48,風扇GO2-04-03修改群組ID:9,admin
268,2017/9/7 下午 02:37:48,風扇GO2-04-02修改群組ID:9,admin
269,2017/9/7 下午 02:37:48,風扇GO2-04-01修改群組ID:9,admin
270,2017/9/7 下午 02:37:48,風扇GO2-03-56修改群組ID:9,admin
271,2017/9/7 下午 02:37:48,風扇GO2-03-55修改群組ID:9,admin
272,2017/9/7 下午 02:37:48,風扇GO2-03-54修改群組ID:9,admin
273,2017/9/7 下午 02:37:48,風扇GO2-03-53修改群組ID:9,admin
274,2017/9/7 下午 02:37:48,風扇GO2-03-52修改群組ID:9,admin
275,2017/9/7 下午 02:37:48,風扇GO2-03-51修改群組ID:9,admin
276,2017/9/7 下午 02:37:48,風扇GO2-03-50修改群組ID:9,admin
277,2017/9/7 下午 02:37:48,風扇GO2-03-49修改群組ID:9,admin
278,2017/9/7 下午 02:37:48,風扇GO2-03-48修改群組ID:9,admin
279,2017/9/7 下午 02:37:48,風扇GO2-03-47修改群組ID:9,admin
280,2017/9/7 下午 02:37:48,風扇GO2-03-46修改群組ID:9,admin
281,2017/9/7 下午 02:37:48,風扇GO2-03-45修改群組ID:9,admin
282,2017/9/7 下午 02:37:48,風扇GO2-03-44修改群組ID:9,admin
283,2017/9/7 下午 02:37:48,風扇GO2-03-43修改群組ID:9,admin
284,2017/9/7 下午 02:37:48,風扇GO2-03-42修改群組ID:9,admin
285,2017/9/7 下午 02:37:48,風扇GO2-03-41修改群組ID:9,admin
286,2017/9/7 下午 02:37:48,風扇GO2-03-40修改群組ID:9,admin
287,2017/9/7 下午 02:37:48,風扇GO2-03-39修改群組ID:9,admin
288,2017/9/7 下午 02:37:48,風扇GO2-03-38修改群組ID:9,admin
289,2017/9/7 下午 02:37:48,風扇GO2-03-37修改群組ID:9,admin
290,2017/9/7 下午 02:37:48,風扇GO2-03-36修改群組ID:9,admin
291,2017/9/7 下午 02:37:48,風扇GO2-03-35修改群組ID:9,admin
292,2017/9/7 下午 02:37:48,風扇GO2-03-34修改群組ID:9,admin
293,2017/9/7 下午 02:37:48,風扇GO2-03-33修改群組ID:9,admin
294,2017/9/7 下午 02:37:48,風扇GO2-03-32修改群組ID:9,admin
295,2017/9/7 下午 02:37:48,風扇GO2-03-31修改群組ID:9,admin
296,2017/9/7 下午 02:37:48,風扇GO2-03-30修改群組ID:9,admin
297,2017/9/7 下午 02:37:48,風扇GO2-03-29修改群組ID:9,admin
298,2017/9/7 下午 02:37:48,風扇GO2-03-28修改群組ID:9,admin
299,2017/9/7 下午 02:37:48,風扇GO2-03-27修改群組ID:9,admin
300,2017/9/7 下午 02:37:48,風扇GO2-03-26修改群組ID:9,admin
301,2017/9/7 下午 02:37:48,風扇GO2-03-25修改群組ID:9,admin
302,2017/9/7 下午 02:37:48,風扇GO2-03-24修改群組ID:9,admin
303,2017/9/7 下午 02:37:48,風扇GO2-03-23修改群組ID:9,admin
304,2017/9/7 下午 02:37:48,風扇GO2-03-22修改群組ID:9,admin
305,2017/9/7 下午 02:37:48,風扇GO2-03-21修改群組ID:9,admin
306,2017/9/7 下午 02:37:48,風扇GO2-03-20修改群組ID:9,admin
307,2017/9/7 下午 02:37:48,風扇GO2-03-19修改群組ID:9,admin
308,2017/9/7 下午 02:37:48,風扇GO2-03-18修改群組ID:9,admin
309,2017/9/7 下午 02:37:48,風扇GO2-03-17修改群組ID:9,admin
310,2017/9/7 下午 02:37:48,風扇GO2-03-16修改群組ID:9,admin
311,2017/9/7 下午 02:37:47,風扇GO2-03-15修改群組ID:9,admin
312,2017/9/7 下午 02:37:47,風扇GO2-03-14修改群組ID:9,admin
313,2017/9/7 下午 02:37:47,風扇GO2-03-13修改群組ID:9,admin
314,2017/9/7 下午 02:37:47,風扇GO2-03-12修改群組ID:9,admin
315,2017/9/7 下午 02:37:47,風扇GO2-03-11修改群組ID:9,admin
316,2017/9/7 下午 02:37:47,風扇GO2-03-10修改群組ID:9,admin
317,2017/9/7 下午 02:37:47,風扇GO2-03-09修改群組ID:9,admin
318,2017/9/7 下午 02:37:47,風扇GO2-03-08修改群組ID:9,admin
319,2017/9/7 下午 02:37:47,風扇GO2-03-07修改群組ID:9,admin
320,2017/9/7 下午 02:37:47,風扇GO2-03-06修改群組ID:9,admin
321,2017/9/7 下午 02:37:47,風扇GO2-03-05修改群組ID:9,admin
322,2017/9/7 下午 02:37:47,風扇GO2-03-04修改群組ID:9,admin
323,2017/9/7 下午 02:37:47,風扇GO2-03-03修改群組ID:9,admin
324,2017/9/7 下午 02:37:47,風扇GO2-03-02修改群組ID:9,admin
325,2017/9/7 下午 02:37:47,風扇GO2-03-01修改群組ID:9,admin
326,2017/9/7 下午 02:37:47,風扇GO2-02-51修改群組ID:9,admin
327,2017/9/7 下午 02:37:47,風扇GO2-02-50修改群組ID:9,admin
328,2017/9/7 下午 02:37:47,風扇GO2-02-49修改群組ID:9,admin
329,2017/9/7 下午 02:37:47,風扇GO2-02-48修改群組ID:9,admin
330,2017/9/7 下午 02:37:47,風扇GO2-02-47修改群組ID:9,admin
331,2017/9/7 下午 02:37:47,風扇GO2-02-46修改群組ID:9,admin
332,2017/9/7 下午 02:37:47,風扇GO2-02-45修改群組ID:9,admin
333,2017/9/7 下午 02:37:47,風扇GO2-02-44修改群組ID:9,admin
334,2017/9/7 下午 02:37:47,風扇GO2-02-43修改群組ID:9,admin
335,2017/9/7 下午 02:37:47,風扇GO2-02-42修改群組ID:9,admin
336,2017/9/7 下午 02:37:47,風扇GO2-02-41修改群組ID:9,admin
337,2017/9/7 下午 02:37:47,風扇GO2-02-40修改群組ID:9,admin
338,2017/9/7 下午 02:37:47,風扇GO2-02-39修改群組ID:9,admin
339,2017/9/7 下午 02:37:47,風扇GO2-02-38修改群組ID:9,admin
340,2017/9/7 下午 02:37:47,風扇GO2-02-37修改群組ID:9,admin
341,2017/9/7 下午 02:37:47,風扇GO2-02-36修改群組ID:9,admin
342,2017/9/7 下午 02:37:47,風扇GO2-02-35修改群組ID:9,admin
343,2017/9/7 下午 02:37:47,風扇GO2-02-34修改群組ID:9,admin
344,2017/9/7 下午 02:37:47,風扇GO2-02-33修改群組ID:9,admin
345,2017/9/7 下午 02:37:47,風扇GO2-02-32修改群組ID:9,admin
346,2017/9/7 下午 02:37:47,風扇GO2-02-31修改群組ID:9,admin
347,2017/9/7 下午 02:37:47,風扇GO2-02-30修改群組ID:9,admin
348,2017/9/7 下午 02:37:47,風扇GO2-02-29修改群組ID:9,admin
349,2017/9/7 下午 02:37:47,風扇GO2-02-28修改群組ID:9,admin
350,2017/9/7 下午 02:37:47,風扇GO2-02-27修改群組ID:9,admin
351,2017/9/7 下午 02:37:47,風扇GO2-02-26修改群組ID:9,admin
352,2017/9/7 下午 02:37:47,風扇GO2-02-25修改群組ID:9,admin
353,2017/9/7 下午 02:37:47,風扇GO2-02-24修改群組ID:9,admin
354,2017/9/7 下午 02:37:47,風扇GO2-02-23修改群組ID:9,admin
355,2017/9/7 下午 02:37:47,風扇GO2-02-22修改群組ID:9,admin
356,2017/9/7 下午 02:37:47,風扇GO2-02-21修改群組ID:9,admin
357,2017/9/7 下午 02:37:47,風扇GO2-02-20修改群組ID:9,admin
358,2017/9/7 下午 02:37:47,風扇GO2-02-18修改群組ID:9,admin
359,2017/9/7 下午 02:37:47,風扇GO2-02-19修改群組ID:9,admin
360,2017/9/7 下午 02:37:47,風扇GO2-02-16修改群組ID:9,admin
361,2017/9/7 下午 02:37:47,風扇GO2-02-17修改群組ID:9,admin
362,2017/9/7 下午 02:37:47,風扇GO2-02-13修改群組ID:9,admin
363,2017/9/7 下午 02:37:47,風扇GO2-02-14修改群組ID:9,admin
364,2017/9/7 下午 02:37:47,風扇GO2-02-15修改群組ID:9,admin
365,2017/9/7 下午 02:37:47,風扇GO2-02-12修改群組ID:9,admin
366,2017/9/7 下午 02:37:47,風扇GO2-02-11修改群組ID:9,admin
367,2017/9/7 下午 02:37:47,風扇GO2-02-10修改群組ID:9,admin
368,2017/9/7 下午 02:37:47,風扇GO2-02-09修改群組ID:9,admin
369,2017/9/7 下午 02:37:47,風扇GO2-02-08修改群組ID:9,admin
370,2017/9/7 下午 02:37:47,風扇GO2-02-07修改群組ID:9,admin
371,2017/9/7 下午 02:37:47,風扇GO2-02-06修改群組ID:9,admin
372,2017/9/7 下午 02:37:47,風扇GO2-02-05修改群組ID:9,admin
373,2017/9/7 下午 02:37:47,風扇GO2-02-04修改群組ID:9,admin
374,2017/9/7 下午 02:37:47,風扇GO2-02-03修改群組ID:9,admin
375,2017/9/7 下午 02:37:47,風扇GO2-02-02修改群組ID:9,admin
376,2017/9/7 下午 02:37:47,風扇GO2-02-01修改群組ID:9,admin
377,2017/9/7 下午 02:37:47,風扇GO2-01-52修改群組ID:9,admin
378,2017/9/7 下午 02:37:47,風扇GO2-01-51修改群組ID:9,admin
379,2017/9/7 下午 02:37:47,風扇GO2-01-50修改群組ID:9,admin
380,2017/9/7 下午 02:37:47,風扇GO2-01-49修改群組ID:9,admin
381,2017/9/7 下午 02:37:47,風扇GO2-01-48修改群組ID:9,admin
382,2017/9/7 下午 02:37:47,風扇GO2-01-47修改群組ID:9,admin
383,2017/9/7 下午 02:37:47,風扇GO2-01-46修改群組ID:9,admin
384,2017/9/7 下午 02:37:47,風扇GO2-01-45修改群組ID:9,admin
385,2017/9/7 下午 02:37:47,風扇GO2-01-44修改群組ID:9,admin
386,2017/9/7 下午 02:37:47,風扇GO2-01-43修改群組ID:9,admin
387,2017/9/7 下午 02:37:47,風扇GO2-01-42修改群組ID:9,admin
388,2017/9/7 下午 02:37:47,風扇GO2-01-41修改群組ID:9,admin
389,2017/9/7 下午 02:37:47,風扇GO2-01-40修改群組ID:9,admin
390,2017/9/7 下午 02:37:47,風扇GO2-01-39修改群組ID:9,admin
391,2017/9/7 下午 02:37:47,風扇GO2-01-38修改群組ID:9,admin
392,2017/9/7 下午 02:37:47,風扇GO2-01-37修改群組ID:9,admin
393,2017/9/7 下午 02:37:47,風扇GO2-01-36修改群組ID:9,admin
394,2017/9/7 下午 02:37:47,風扇GO2-01-35修改群組ID:9,admin
395,2017/9/7 下午 02:37:47,風扇GO2-01-34修改群組ID:9,admin
396,2017/9/7 下午 02:37:47,風扇GO2-01-33修改群組ID:9,admin
397,2017/9/7 下午 02:37:47,風扇GO2-01-32修改群組ID:9,admin
398,2017/9/7 下午 02:37:47,風扇GO2-01-31修改群組ID:9,admin
399,2017/9/7 下午 02:37:47,風扇GO2-01-30修改群組ID:9,admin
400,2017/9/7 下午 02:37:47,風扇GO2-01-29修改群組ID:9,admin
401,2017/9/7 下午 02:37:47,風扇GO2-01-28修改群組ID:9,admin
402,2017/9/7 下午 02:37:47,風扇GO2-01-27修改群組ID:9,admin
403,2017/9/7 下午 02:37:47,風扇GO2-01-26修改群組ID:9,admin
404,2017/9/7 下午 02:37:47,風扇GO2-01-25修改群組ID:9,admin
405,2017/9/7 下午 02:37:47,風扇GO2-01-24修改群組ID:9,admin
406,2017/9/7 下午 02:37:47,風扇GO2-01-23修改群組ID:9,admin
407,2017/9/7 下午 02:37:47,風扇GO2-01-22修改群組ID:9,admin
408,2017/9/7 下午 02:37:47,風扇GO2-01-21修改群組ID:9,admin
409,2017/9/7 下午 02:37:47,風扇GO2-01-20修改群組ID:9,admin
410,2017/9/7 下午 02:37:47,風扇GO2-01-19修改群組ID:9,admin
411,2017/9/7 下午 02:37:47,風扇GO2-01-18修改群組ID:9,admin
412,2017/9/7 下午 02:37:47,風扇GO2-01-17修改群組ID:9,admin
413,2017/9/7 下午 02:37:47,風扇GO2-01-16修改群組ID:9,admin
414,2017/9/7 下午 02:37:47,風扇GO2-01-15修改群組ID:9,admin
415,2017/9/7 下午 02:37:46,風扇GO2-01-14修改群組ID:9,admin
416,2017/9/7 下午 02:37:46,風扇GO2-01-13修改群組ID:9,admin
417,2017/9/7 下午 02:37:46,風扇GO2-01-12修改群組ID:9,admin
418,2017/9/7 下午 02:37:46,風扇GO2-01-11修改群組ID:9,admin
419,2017/9/7 下午 02:37:46,風扇GO2-01-10修改群組ID:9,admin
420,2017/9/7 下午 02:37:46,風扇GO2-01-09修改群組ID:9,admin
421,2017/9/7 下午 02:37:46,風扇GO2-01-08修改群組ID:9,admin
422,2017/9/7 下午 02:37:46,風扇GO2-01-07修改群組ID:9,admin
423,2017/9/7 下午 02:37:46,風扇GO2-01-06修改群組ID:9,admin
424,2017/9/7 下午 02:37:46,風扇GO2-01-05修改群組ID:9,admin
425,2017/9/7 下午 02:37:46,風扇GO2-01-04修改群組ID:9,admin
426,2017/9/7 下午 02:37:46,風扇GO2-01-03修改群組ID:9,admin
427,2017/9/7 下午 02:37:46,風扇GO2-01-02修改群組ID:9,admin
428,2017/9/7 下午 02:37:46,風扇GO2-01-01修改群組ID:9,admin
429,2017/9/7 下午 02:37:46,風扇GO1-06-27修改群組ID:9,admin
430,2017/9/7 下午 02:37:46,風扇GO1-06-26修改群組ID:9,admin
431,2017/9/7 下午 02:37:46,風扇GO1-06-25修改群組ID:9,admin
432,2017/9/7 下午 02:37:46,風扇GO1-06-24修改群組ID:9,admin
433,2017/9/7 下午 02:37:46,風扇GO1-06-23修改群組ID:9,admin
434,2017/9/7 下午 02:37:46,風扇GO1-06-22修改群組ID:9,admin
435,2017/9/7 下午 02:37:46,風扇GO1-06-21修改群組ID:9,admin
436,2017/9/7 下午 02:37:46,風扇GO1-06-20修改群組ID:9,admin
437,2017/9/7 下午 02:37:46,風扇GO1-06-19修改群組ID:9,admin
438,2017/9/7 下午 02:37:46,風扇GO1-06-18修改群組ID:9,admin
439,2017/9/7 下午 02:37:46,風扇GO1-06-17修改群組ID:9,admin
440,2017/9/7 下午 02:37:46,風扇GO1-06-16修改群組ID:9,admin
441,2017/9/7 下午 02:37:46,風扇GO1-06-15修改群組ID:9,admin
442,2017/9/7 下午 02:37:46,風扇GO1-06-14修改群組ID:9,admin
443,2017/9/7 下午 02:37:46,風扇GO1-06-13修改群組ID:9,admin
444,2017/9/7 下午 02:37:46,風扇GO1-06-12修改群組ID:9,admin
445,2017/9/7 下午 02:37:46,風扇GO1-06-11修改群組ID:9,admin
446,2017/9/7 下午 02:37:46,風扇GO1-06-10修改群組ID:9,admin
447,2017/9/7 下午 02:37:46,風扇GO1-06-09修改群組ID:9,admin
448,2017/9/7 下午 02:37:46,風扇GO1-06-08修改群組ID:9,admin
449,2017/9/7 下午 02:37:46,風扇GO1-06-07修改群組ID:9,admin
450,2017/9/7 下午 02:37:46,風扇GO1-06-06修改群組ID:9,admin
451,2017/9/7 下午 02:37:46,風扇GO1-06-05修改群組ID:9,admin
452,2017/9/7 下午 02:37:46,風扇GO1-06-04修改群組ID:9,admin
453,2017/9/7 下午 02:37:46,風扇GO1-06-03修改群組ID:9,admin
454,2017/9/7 下午 02:37:46,風扇GO1-06-02修改群組ID:9,admin
455,2017/9/7 下午 02:37:46,風扇GO1-06-01修改群組ID:9,admin
456,2017/9/7 下午 02:37:46,風扇GO1-05-50修改群組ID:9,admin
457,2017/9/7 下午 02:37:46,風扇GO1-05-49修改群組ID:9,admin
458,2017/9/7 下午 02:37:46,風扇GO1-05-48修改群組ID:9,admin
459,2017/9/7 下午 02:37:46,風扇GO1-05-47修改群組ID:9,admin
460,2017/9/7 下午 02:37:46,風扇GO1-05-46修改群組ID:9,admin
461,2017/9/7 下午 02:37:46,風扇GO1-05-45修改群組ID:9,admin
462,2017/9/7 下午 02:37:46,風扇GO1-05-44修改群組ID:9,admin
463,2017/9/7 下午 02:37:46,風扇GO1-05-43修改群組ID:9,admin
464,2017/9/7 下午 02:37:46,風扇GO1-05-42修改群組ID:9,admin
465,2017/9/7 下午 02:37:46,風扇GO1-05-41修改群組ID:9,admin
466,2017/9/7 下午 02:37:46,風扇GO1-05-40修改群組ID:9,admin
467,2017/9/7 下午 02:37:46,風扇GO1-05-39修改群組ID:9,admin
468,2017/9/7 下午 02:37:46,風扇GO1-05-38修改群組ID:9,admin
469,2017/9/7 下午 02:37:46,風扇GO1-05-37修改群組ID:9,admin
470,2017/9/7 下午 02:37:46,風扇GO1-05-36修改群組ID:9,admin
471,2017/9/7 下午 02:37:46,風扇GO1-05-35修改群組ID:9,admin
472,2017/9/7 下午 02:37:46,風扇GO1-05-34修改群組ID:9,admin
473,2017/9/7 下午 02:37:46,風扇GO1-05-33修改群組ID:9,admin
474,2017/9/7 下午 02:37:46,風扇GO1-05-32修改群組ID:9,admin
475,2017/9/7 下午 02:37:46,風扇GO1-05-31修改群組ID:9,admin
476,2017/9/7 下午 02:37:46,風扇GO1-05-30修改群組ID:9,admin
477,2017/9/7 下午 02:37:46,風扇GO1-05-29修改群組ID:9,admin
478,2017/9/7 下午 02:37:46,風扇GO1-05-28修改群組ID:9,admin
479,2017/9/7 下午 02:37:46,風扇GO1-05-27修改群組ID:9,admin
480,2017/9/7 下午 02:37:46,風扇GO1-05-26修改群組ID:9,admin
481,2017/9/7 下午 02:37:46,風扇GO1-05-25修改群組ID:9,admin
482,2017/9/7 下午 02:37:46,風扇GO1-05-24修改群組ID:9,admin
483,2017/9/7 下午 02:37:46,風扇GO1-05-23修改群組ID:9,admin
484,2017/9/7 下午 02:37:46,風扇GO1-05-22修改群組ID:9,admin
485,2017/9/7 下午 02:37:46,風扇GO1-05-21修改群組ID:9,admin
486,2017/9/7 下午 02:37:46,風扇GO1-05-20修改群組ID:9,admin
487,2017/9/7 下午 02:37:46,風扇GO1-05-19修改群組ID:9,admin
488,2017/9/7 下午 02:37:46,風扇GO1-05-18修改群組ID:9,admin
489,2017/9/7 下午 02:37:46,風扇GO1-05-17修改群組ID:9,admin
490,2017/9/7 下午 02:37:46,風扇GO1-05-16修改群組ID:9,admin
491,2017/9/7 下午 02:37:46,風扇GO1-05-15修改群組ID:9,admin
492,2017/9/7 下午 02:37:46,風扇GO1-05-14修改群組ID:9,admin
493,2017/9/7 下午 02:37:46,風扇GO1-05-13修改群組ID:9,admin
494,2017/9/7 下午 02:37:46,風扇GO1-05-12修改群組ID:9,admin
495,2017/9/7 下午 02:37:46,風扇GO1-05-11修改群組ID:9,admin
496,2017/9/7 下午 02:37:46,風扇GO1-05-10修改群組ID:9,admin
497,2017/9/7 下午 02:37:46,風扇GO1-05-09修改群組ID:9,admin
498,2017/9/7 下午 02:37:46,風扇GO1-05-08修改群組ID:9,admin
499,2017/9/7 下午 02:37:46,風扇GO1-05-07修改群組ID:9,admin
500,2017/9/7 下午 02:37:46,風扇GO1-05-06修改群組ID:9,admin
501,2017/9/7 下午 02:37:46,風扇GO1-05-05修改群組ID:9,admin
502,2017/9/7 下午 02:37:46,風扇GO1-05-04修改群組ID:9,admin
503,2017/9/7 下午 02:37:46,風扇GO1-05-03修改群組ID:9,admin
504,2017/9/7 下午 02:37:46,風扇GO1-05-02修改群組ID:9,admin
505,2017/9/7 下午 02:37:46,風扇GO1-05-01修改群組ID:9,admin
506,2017/9/7 下午 02:37:46,風扇GO1-04-45修改群組ID:9,admin
507,2017/9/7 下午 02:37:46,風扇GO1-04-44修改群組ID:9,admin
508,2017/9/7 下午 02:37:46,風扇GO1-04-43修改群組ID:9,admin
509,2017/9/7 下午 02:37:46,風扇GO1-04-42修改群組ID:9,admin
510,2017/9/7 下午 02:37:46,風扇GO1-04-41修改群組ID:9,admin
511,2017/9/7 下午 02:37:46,風扇GO1-04-40修改群組ID:9,admin
512,2017/9/7 下午 02:37:46,風扇GO1-04-39修改群組ID:9,admin
513,2017/9/7 下午 02:37:46,風扇GO1-04-38修改群組ID:9,admin
514,2017/9/7 下午 02:37:45,風扇GO1-04-37修改群組ID:9,admin
515,2017/9/7 下午 02:37:45,風扇GO1-04-36修改群組ID:9,admin
516,2017/9/7 下午 02:37:45,風扇GO1-04-35修改群組ID:9,admin
517,2017/9/7 下午 02:37:45,風扇GO1-04-34修改群組ID:9,admin
518,2017/9/7 下午 02:37:45,風扇GO1-04-33修改群組ID:9,admin
519,2017/9/7 下午 02:37:45,風扇GO1-04-32修改群組ID:9,admin
520,2017/9/7 下午 02:37:45,風扇GO1-04-31修改群組ID:9,admin
521,2017/9/7 下午 02:37:45,風扇GO1-04-30修改群組ID:9,admin
522,2017/9/7 下午 02:37:45,風扇GO1-04-29修改群組ID:9,admin
523,2017/9/7 下午 02:37:45,風扇GO1-04-28修改群組ID:9,admin
524,2017/9/7 下午 02:37:45,風扇GO1-04-27修改群組ID:9,admin
525,2017/9/7 下午 02:37:45,風扇GO1-04-26修改群組ID:9,admin
526,2017/9/7 下午 02:37:45,風扇GO1-04-25修改群組ID:9,admin
527,2017/9/7 下午 02:37:45,風扇GO1-04-24修改群組ID:9,admin
528,2017/9/7 下午 02:37:45,風扇GO1-04-23修改群組ID:9,admin
529,2017/9/7 下午 02:37:45,風扇GO1-04-22修改群組ID:9,admin
530,2017/9/7 下午 02:37:45,風扇GO1-04-21修改群組ID:9,admin
531,2017/9/7 下午 02:37:45,風扇GO1-04-20修改群組ID:9,admin
532,2017/9/7 下午 02:37:45,風扇GO1-04-19修改群組ID:9,admin
533,2017/9/7 下午 02:37:45,風扇GO1-04-18修改群組ID:9,admin
534,2017/9/7 下午 02:37:45,風扇GO1-04-17修改群組ID:9,admin
535,2017/9/7 下午 02:37:45,風扇GO1-04-16修改群組ID:9,admin
536,2017/9/7 下午 02:37:45,風扇GO1-04-15修改群組ID:9,admin
537,2017/9/7 下午 02:37:45,風扇GO1-04-14修改群組ID:9,admin
538,2017/9/7 下午 02:37:45,風扇GO1-04-13修改群組ID:9,admin
539,2017/9/7 下午 02:37:45,風扇GO1-04-12修改群組ID:9,admin
540,2017/9/7 下午 02:37:45,風扇GO1-04-11修改群組ID:9,admin
541,2017/9/7 下午 02:37:45,風扇GO1-04-10修改群組ID:9,admin
542,2017/9/7 下午 02:37:45,風扇GO1-04-09修改群組ID:9,admin
543,2017/9/7 下午 02:37:45,風扇GO1-04-08修改群組ID:9,admin
544,2017/9/7 下午 02:37:45,風扇GO1-04-07修改群組ID:9,admin
545,2017/9/7 下午 02:37:45,風扇GO1-04-06修改群組ID:9,admin
546,2017/9/7 下午 02:37:45,風扇GO1-04-05修改群組ID:9,admin
547,2017/9/7 下午 02:37:45,風扇GO1-04-04修改群組ID:9,admin
548,2017/9/7 下午 02:37:45,風扇GO1-04-03修改群組ID:9,admin
549,2017/9/7 下午 02:37:45,風扇GO1-04-02修改群組ID:9,admin
550,2017/9/7 下午 02:37:45,風扇GO1-04-01修改群組ID:9,admin
551,2017/9/7 下午 02:37:45,風扇GO1-03-25修改群組ID:9,admin
552,2017/9/7 下午 02:37:45,風扇GO1-03-24修改群組ID:9,admin
553,2017/9/7 下午 02:37:45,風扇GO1-03-23修改群組ID:9,admin
554,2017/9/7 下午 02:37:45,風扇GO1-03-22修改群組ID:9,admin
555,2017/9/7 下午 02:37:45,風扇GO1-03-21修改群組ID:9,admin
556,2017/9/7 下午 02:37:45,風扇GO1-03-20修改群組ID:9,admin
557,2017/9/7 下午 02:37:45,風扇GO1-03-19修改群組ID:9,admin
558,2017/9/7 下午 02:37:45,風扇GO1-03-18修改群組ID:9,admin
559,2017/9/7 下午 02:37:45,風扇GO1-03-17修改群組ID:9,admin
560,2017/9/7 下午 02:37:45,風扇GO1-03-16修改群組ID:9,admin
561,2017/9/7 下午 02:37:45,風扇GO1-03-15修改群組ID:9,admin
562,2017/9/7 下午 02:37:45,風扇GO1-03-14修改群組ID:9,admin
563,2017/9/7 下午 02:37:45,風扇GO1-03-13修改群組ID:9,admin
564,2017/9/7 下午 02:37:45,風扇GO1-03-12修改群組ID:9,admin
565,2017/9/7 下午 02:37:45,風扇GO1-03-11修改群組ID:9,admin
566,2017/9/7 下午 02:37:45,風扇GO1-03-10修改群組ID:9,admin
567,2017/9/7 下午 02:37:45,風扇GO1-03-09修改群組ID:9,admin
568,2017/9/7 下午 02:37:45,風扇GO1-03-08修改群組ID:9,admin
569,2017/9/7 下午 02:37:45,風扇GO1-03-07修改群組ID:9,admin
570,2017/9/7 下午 02:37:45,風扇GO1-03-06修改群組ID:9,admin
571,2017/9/7 下午 02:37:45,風扇GO1-03-05修改群組ID:9,admin
572,2017/9/7 下午 02:37:45,風扇GO1-03-04修改群組ID:9,admin
573,2017/9/7 下午 02:37:45,風扇GO1-03-03修改群組ID:9,admin
574,2017/9/7 下午 02:37:45,風扇GO1-03-02修改群組ID:9,admin
575,2017/9/7 下午 02:37:45,風扇GO1-03-01修改群組ID:9,admin
576,2017/9/7 下午 02:37:45,風扇GO1-02-60修改群組ID:9,admin
577,2017/9/7 下午 02:37:45,風扇GO1-02-59修改群組ID:9,admin
578,2017/9/7 下午 02:37:45,風扇GO1-02-58修改群組ID:9,admin
579,2017/9/7 下午 02:37:45,風扇GO1-02-57修改群組ID:9,admin
580,2017/9/7 下午 02:37:45,風扇GO1-02-56修改群組ID:9,admin
581,2017/9/7 下午 02:37:45,風扇GO1-02-55修改群組ID:9,admin
582,2017/9/7 下午 02:37:45,風扇GO1-02-54修改群組ID:9,admin
583,2017/9/7 下午 02:37:45,風扇GO1-02-53修改群組ID:9,admin
584,2017/9/7 下午 02:37:45,風扇GO1-02-52修改群組ID:9,admin
585,2017/9/7 下午 02:37:45,風扇GO1-02-51修改群組ID:9,admin
586,2017/9/7 下午 02:37:45,風扇GO1-02-50修改群組ID:9,admin
587,2017/9/7 下午 02:37:45,風扇GO1-02-49修改群組ID:9,admin
588,2017/9/7 下午 02:37:45,風扇GO1-02-48修改群組ID:9,admin
589,2017/9/7 下午 02:37:45,風扇GO1-02-47修改群組ID:9,admin
590,2017/9/7 下午 02:37:45,風扇GO1-02-46修改群組ID:9,admin
591,2017/9/7 下午 02:37:45,風扇GO1-02-45修改群組ID:9,admin
592,2017/9/7 下午 02:37:45,風扇GO1-02-44修改群組ID:9,admin
593,2017/9/7 下午 02:37:45,風扇GO1-02-43修改群組ID:9,admin
594,2017/9/7 下午 02:37:45,風扇GO1-02-42修改群組ID:9,admin
595,2017/9/7 下午 02:37:45,風扇GO1-02-41修改群組ID:9,admin
596,2017/9/7 下午 02:37:45,風扇GO1-02-40修改群組ID:9,admin
597,2017/9/7 下午 02:37:45,風扇GO1-02-39修改群組ID:9,admin
598,2017/9/7 下午 02:37:45,風扇GO1-02-38修改群組ID:9,admin
599,2017/9/7 下午 02:37:45,風扇GO1-02-37修改群組ID:9,admin
600,2017/9/7 下午 02:37:45,風扇GO1-02-36修改群組ID:9,admin
601,2017/9/7 下午 02:37:45,風扇GO1-02-35修改群組ID:9,admin
602,2017/9/7 下午 02:37:45,風扇GO1-02-34修改群組ID:9,admin
603,2017/9/7 下午 02:37:45,風扇GO1-02-33修改群組ID:9,admin
604,2017/9/7 下午 02:37:45,風扇GO1-02-32修改群組ID:9,admin
605,2017/9/7 下午 02:37:45,風扇GO1-02-31修改群組ID:9,admin
606,2017/9/7 下午 02:37:45,風扇GO1-02-30修改群組ID:9,admin
607,2017/9/7 下午 02:37:45,風扇GO1-02-29修改群組ID:9,admin
608,2017/9/7 下午 02:37:45,風扇GO1-02-28修改群組ID:9,admin
609,2017/9/7 下午 02:37:45,風扇GO1-02-27修改群組ID:9,admin
610,2017/9/7 下午 02:37:45,風扇GO1-02-26修改群組ID:9,admin
611,2017/9/7 下午 02:37:45,風扇GO1-02-25修改群組ID:9,admin
612,2017/9/7 下午 02:37:45,風扇GO1-02-24修改群組ID:9,admin
613,2017/9/7 下午 02:37:45,風扇GO1-02-23修改群組ID:9,admin
614,2017/9/7 下午 02:37:45,風扇GO1-02-22修改群組ID:9,admin
615,2017/9/7 下午 02:37:44,風扇GO1-02-21修改群組ID:9,admin
616,2017/9/7 下午 02:37:44,風扇GO1-02-20修改群組ID:9,admin
617,2017/9/7 下午 02:37:44,風扇GO1-02-19修改群組ID:9,admin
618,2017/9/7 下午 02:37:44,風扇GO1-02-18修改群組ID:9,admin
619,2017/9/7 下午 02:37:44,風扇GO1-02-17修改群組ID:9,admin
620,2017/9/7 下午 02:37:44,風扇GO1-02-16修改群組ID:9,admin
621,2017/9/7 下午 02:37:44,風扇GO1-02-15修改群組ID:9,admin
622,2017/9/7 下午 02:37:44,風扇GO1-02-14修改群組ID:9,admin
623,2017/9/7 下午 02:37:44,風扇GO1-02-13修改群組ID:9,admin
624,2017/9/7 下午 02:37:44,風扇GO1-02-12修改群組ID:9,admin
625,2017/9/7 下午 02:37:44,風扇GO1-02-11修改群組ID:9,admin
626,2017/9/7 下午 02:37:44,風扇GO1-02-10修改群組ID:9,admin
627,2017/9/7 下午 02:37:44,風扇GO1-02-09修改群組ID:9,admin
628,2017/9/7 下午 02:37:44,風扇GO1-02-08修改群組ID:9,admin
629,2017/9/7 下午 02:37:44,風扇GO1-02-07修改群組ID:9,admin
630,2017/9/7 下午 02:37:44,風扇GO1-02-06修改群組ID:9,admin
631,2017/9/7 下午 02:37:44,風扇GO1-02-05修改群組ID:9,admin
632,2017/9/7 下午 02:37:44,風扇GO1-02-04修改群組ID:9,admin
633,2017/9/7 下午 02:37:44,風扇GO1-02-03修改群組ID:9,admin
634,2017/9/7 下午 02:37:44,風扇GO1-02-02修改群組ID:9,admin
635,2017/9/7 下午 02:37:44,風扇GO1-02-01修改群組ID:9,admin
636,2017/9/7 下午 02:37:44,風扇GO1-01-44修改群組ID:9,admin
637,2017/9/7 下午 02:37:44,風扇GO1-01-43修改群組ID:9,admin
638,2017/9/7 下午 02:37:44,風扇GO1-01-42修改群組ID:9,admin
639,2017/9/7 下午 02:37:44,風扇GO1-01-41修改群組ID:9,admin
640,2017/9/7 下午 02:37:44,風扇GO1-01-40修改群組ID:9,admin
641,2017/9/7 下午 02:37:44,風扇GO1-01-39修改群組ID:9,admin
642,2017/9/7 下午 02:37:44,風扇GO1-01-38修改群組ID:9,admin
643,2017/9/7 下午 02:37:44,風扇GO1-01-37修改群組ID:9,admin
644,2017/9/7 下午 02:37:44,風扇GO1-01-36修改群組ID:9,admin
645,2017/9/7 下午 02:37:44,風扇GO1-01-35修改群組ID:9,admin
646,2017/9/7 下午 02:37:44,風扇GO1-01-34修改群組ID:9,admin
647,2017/9/7 下午 02:37:44,風扇GO1-01-33修改群組ID:9,admin
648,2017/9/7 下午 02:37:44,風扇GO1-01-32修改群組ID:9,admin
649,2017/9/7 下午 02:37:44,風扇GO1-01-31修改群組ID:9,admin
650,2017/9/7 下午 02:37:44,風扇GO1-01-30修改群組ID:9,admin
651,2017/9/7 下午 02:37:44,風扇GO1-01-29修改群組ID:9,admin
652,2017/9/7 下午 02:37:44,風扇GO1-01-28修改群組ID:9,admin
653,2017/9/7 下午 02:37:44,風扇GO1-01-27修改群組ID:9,admin
654,2017/9/7 下午 02:37:44,風扇GO1-01-26修改群組ID:9,admin
655,2017/9/7 下午 02:37:44,風扇GO1-01-25修改群組ID:9,admin
656,2017/9/7 下午 02:37:44,風扇GO1-01-24修改群組ID:9,admin
657,2017/9/7 下午 02:37:44,風扇GO1-01-23修改群組ID:9,admin
658,2017/9/7 下午 02:37:44,風扇GO1-01-22修改群組ID:9,admin
659,2017/9/7 下午 02:37:44,風扇GO1-01-21修改群組ID:9,admin
660,2017/9/7 下午 02:37:44,風扇GO1-01-20修改群組ID:9,admin
661,2017/9/7 下午 02:37:44,風扇GO1-01-19修改群組ID:9,admin
662,2017/9/7 下午 02:37:44,風扇GO1-01-18修改群組ID:9,admin
663,2017/9/7 下午 02:37:44,風扇GO1-01-17修改群組ID:9,admin
664,2017/9/7 下午 02:37:44,風扇GO1-01-16修改群組ID:9,admin
665,2017/9/7 下午 02:37:44,風扇GO1-01-15修改群組ID:9,admin
666,2017/9/7 下午 02:37:44,風扇GO1-01-14修改群組ID:9,admin
667,2017/9/7 下午 02:37:44,風扇GO1-01-13修改群組ID:9,admin
668,2017/9/7 下午 02:37:44,風扇GO1-01-12修改群組ID:9,admin
669,2017/9/7 下午 02:37:44,風扇GO1-01-11修改群組ID:9,admin
670,2017/9/7 下午 02:37:44,風扇GO1-01-10修改群組ID:9,admin
671,2017/9/7 下午 02:37:44,風扇GO1-01-09修改群組ID:9,admin
672,2017/9/7 下午 02:37:44,風扇GO1-01-08修改群組ID:9,admin
673,2017/9/7 下午 02:37:44,風扇GO1-01-07修改群組ID:9,admin
674,2017/9/7 下午 02:37:44,風扇GO1-01-06修改群組ID:9,admin
675,2017/9/7 下午 02:37:44,風扇GO1-01-05修改群組ID:9,admin
676,2017/9/7 下午 02:37:44,風扇GO1-01-04修改群組ID:9,admin
677,2017/9/7 下午 02:36:29,進入風機控制,admin
678,2017/9/7 下午 02:26:32,所有確認異常和註記,admin
679,2017/9/7 下午 02:26:29,登入,admin
680,2017/9/7 下午 02:26:27,程式啟動,
681,2017/9/7 下午 02:26:27,192.168.107.178連線成功,
682,2017/9/7 下午 02:26:27,192.168.107.179連線成功,
683,2017/9/7 下午 02:26:09,關閉程式,admin
684,2017/9/7 下午 02:25:34,進入Gateway通訊,admin
685,2017/9/7 下午 02:25:06,風扇GO1-01-01發生警報:255,admin
686,2017/9/7 下午 02:25:06,風扇GO1-01-02發生警報:255,admin
687,2017/9/7 下午 02:25:06,風扇GO1-01-03發生警報:255,admin
688,2017/9/7 下午 02:25:06,192.168.107.178重新連線,admin
689,2017/9/7 下午 02:25:06,192.168.107.179重新連線,admin
690,2017/9/7 下午 02:23:51,進入Gateway通訊,admin
691,2017/9/7 下午 02:23:39,所有確認異常和註記,admin
692,2017/9/7 下午 02:23:24,連續新增3台風機,admin
693,2017/9/7 下午 02:23:11,刪除1台風機,admin
694,2017/9/7 下午 02:23:08,刪除1台風機,admin
695,2017/9/7 下午 02:23:05,刪除1台風機,admin
696,2017/9/7 下午 02:22:44,進入風機控制,admin
697,2017/9/7 下午 02:22:38,登入,admin
698,2017/9/7 下午 02:22:36,192.168.107.179連線失敗,
699,2017/9/7 下午 02:22:35,192.168.107.178連線失敗,
700,2017/9/7 下午 02:22:34,程式啟動,
701,2017/9/7 下午 02:21:29,關閉程式,admin
702,2017/9/7 下午 02:19:54,進入風扇管理,admin
703,2017/9/7 下午 02:19:41,進入風機控制,admin
704,2017/9/7 下午 02:19:40,登入,admin
705,2017/9/7 下午 02:19:22,192.168.107.179連線失敗,
706,2017/9/7 下午 02:19:21,192.168.107.178連線失敗,
707,2017/9/7 下午 02:19:20,程式啟動,
708,2017/9/7 下午 02:19:15,關閉程式,admin
709,2017/9/7 下午 02:19:03,連續新增3台風機,admin
710,2017/9/7 下午 02:18:54,進入風機控制,admin
711,2017/9/7 下午 02:14:30,所有確認異常和註記,admin
712,2017/9/7 下午 02:14:25,登入,admin
713,2017/9/7 下午 02:14:23,192.168.107.179連線失敗,
714,2017/9/7 下午 02:14:22,192.168.107.178連線失敗,
715,2017/9/7 下午 02:14:22,程式啟動,
716,2017/9/7 下午 02:00:46,關閉程式,admin
717,2017/9/7 下午 01:59:16,所有確認異常和註記,admin
718,2017/9/7 上午 10:46:53,192.168.107.178斷線,admin
719,2017/9/7 上午 10:46:51,192.168.107.179斷線,admin
