ID,時間,事件說明,工程師
0,2017/7/27 下午 02:49:18,進入即時警報,chang
1,2017/7/27 下午 02:49:08,修改風扇G01-01-06轉速,chang
2,2017/7/27 下午 02:48:36,進入查詢資料,chang
3,2017/7/27 下午 02:32:05,進入風機控制,chang
4,2017/7/27 下午 02:20:14,進入系統事件,chang
5,2017/7/27 下午 02:20:10,PLC:Disable=0,chang
6,2017/7/27 下午 02:20:10,PLC:Disable=1,chang
7,2017/7/27 下午 02:20:06,進入即時警報,chang
8,2017/7/27 下午 02:20:04,所有確認異常和註記,chang
9,2017/7/27 下午 02:17:54,登入,chang
10,2017/7/27 下午 02:17:51,192.168.107.154連線失敗,
11,2017/7/27 下午 02:17:50,192.168.107.153連線失敗,
12,2017/7/27 下午 02:17:49,192.168.107.152連線失敗,
13,2017/7/27 下午 02:17:48,192.168.107.151連線失敗,
14,2017/7/27 下午 02:17:47,192.168.107.150連線失敗,
15,2017/7/27 下午 02:17:46,程式啟動,
16,2017/7/27 下午 02:17:36,關閉程式,admin
17,2017/7/27 下午 02:17:17,新增帳號:chang,admin
18,2017/7/27 下午 02:16:53,修改帳號:test,admin
19,2017/7/27 下午 02:16:47,進入使用者管理,admin
20,2017/7/27 下午 02:12:47,登入,admin
21,2017/7/27 下午 02:12:19,登出,admin
22,2017/7/27 下午 02:10:45,進入使用者管理,admin
23,2017/7/27 下午 01:52:26,連續新增5台風機,admin
24,2017/7/27 下午 01:49:59,連續新增30台風機,admin
25,2017/7/27 下午 01:49:35,刪除40台風機,admin
26,2017/7/27 下午 01:29:10,連續新增40台風機,admin
27,2017/7/27 下午 01:28:54,刪除10台風機,admin
28,2017/7/27 下午 01:28:32,連續新增50台風機,admin
29,2017/7/27 下午 01:14:41,登入,admin
30,2017/7/27 下午 01:14:39,登出,test
31,2017/7/27 下午 01:13:36,登入,test
32,2017/7/27 下午 01:13:29,登出,test
33,2017/7/27 下午 01:13:00,登入,test
34,2017/7/27 下午 01:12:15,192.168.107.154連線失敗,
35,2017/7/27 下午 01:12:14,192.168.107.153連線失敗,
36,2017/7/27 下午 01:12:13,192.168.107.152連線失敗,
37,2017/7/27 下午 01:12:12,192.168.107.151連線失敗,
38,2017/7/27 下午 01:12:11,192.168.107.150連線失敗,
39,2017/7/27 下午 01:12:10,程式啟動,
40,2017/7/27 下午 01:11:17,關閉程式,
41,2017/7/27 下午 01:07:49,192.168.107.154連線失敗,
42,2017/7/27 下午 01:07:48,192.168.107.153連線失敗,
43,2017/7/27 下午 01:07:47,192.168.107.152連線失敗,
44,2017/7/27 下午 01:07:46,192.168.107.151連線失敗,
45,2017/7/27 下午 01:07:45,192.168.107.150連線失敗,
46,2017/7/27 下午 01:07:44,程式啟動,
