ID,名稱,警報碼,工程師確認,異常時間,備註
0,G24,255,,2018/2/21 下午 02:07:28,連線失敗
1,G23,255,,2018/2/21 下午 02:07:27,連線失敗
2,G22,255,,2018/2/21 下午 02:07:26,連線失敗
3,G21,255,,2018/2/21 下午 02:07:25,連線失敗
4,G20,255,,2018/2/21 下午 02:07:24,連線失敗
5,G19,255,,2018/2/21 下午 02:07:23,連線失敗
6,G18,255,,2018/2/21 下午 02:07:22,連線失敗
7,G17,255,,2018/2/21 下午 02:07:21,連線失敗
8,G16,255,,2018/2/21 下午 02:07:19,連線失敗
9,G15,255,,2018/2/21 下午 02:07:18,連線失敗
10,G14,255,,2018/2/21 下午 02:07:17,連線失敗
11,G13,255,,2018/2/21 下午 02:07:16,連線失敗
12,G12,255,,2018/2/21 下午 02:07:15,連線失敗
13,G11,255,,2018/2/21 下午 02:07:14,連線失敗
14,G10,255,,2018/2/21 下午 02:07:13,連線失敗
15,G09,255,,2018/2/21 下午 02:07:12,連線失敗
16,G08,255,,2018/2/21 下午 02:07:11,連線失敗
17,G07,255,,2018/2/21 下午 02:07:10,連線失敗
18,G06,255,,2018/2/21 下午 02:07:09,連線失敗
19,G05,255,,2018/2/21 下午 02:07:08,連線失敗
20,G04,255,,2018/2/21 下午 02:07:07,連線失敗
21,G03,255,,2018/2/21 下午 02:07:06,連線失敗
22,GO2,255,,2018/2/21 下午 02:07:05,連線失敗
23,GO1,255,,2018/2/21 下午 02:07:04,連線失敗
24,G24,255,,2018/2/21 下午 01:03:15,連線失敗
25,G23,255,,2018/2/21 下午 01:03:14,連線失敗
26,G22,255,,2018/2/21 下午 01:03:13,連線失敗
27,G21,255,,2018/2/21 下午 01:03:12,連線失敗
28,G20,255,,2018/2/21 下午 01:03:11,連線失敗
29,G19,255,,2018/2/21 下午 01:03:10,連線失敗
30,G18,255,,2018/2/21 下午 01:03:09,連線失敗
31,G17,255,,2018/2/21 下午 01:03:08,連線失敗
32,G16,255,,2018/2/21 下午 01:03:07,連線失敗
33,G15,255,,2018/2/21 下午 01:03:06,連線失敗
34,G14,255,,2018/2/21 下午 01:03:05,連線失敗
35,G13,255,,2018/2/21 下午 01:03:04,連線失敗
36,G12,255,,2018/2/21 下午 01:03:03,連線失敗
37,G11,255,,2018/2/21 下午 01:03:02,連線失敗
38,G10,255,,2018/2/21 下午 01:03:01,連線失敗
39,G09,255,,2018/2/21 下午 01:03:00,連線失敗
40,G08,255,,2018/2/21 下午 01:02:59,連線失敗
41,G07,255,,2018/2/21 下午 01:02:58,連線失敗
42,G06,255,,2018/2/21 下午 01:02:57,連線失敗
43,G05,255,,2018/2/21 下午 01:02:56,連線失敗
44,G04,255,,2018/2/21 下午 01:02:55,連線失敗
45,G03,255,,2018/2/21 下午 01:02:54,連線失敗
46,GO2,255,,2018/2/21 下午 01:02:53,連線失敗
47,GO1,255,,2018/2/21 下午 01:02:52,連線失敗
48,G24,255,,2018/2/21 下午 12:01:19,連線失敗
49,G23,255,,2018/2/21 下午 12:01:18,連線失敗
50,G22,255,,2018/2/21 下午 12:01:17,連線失敗
51,G21,255,,2018/2/21 下午 12:01:16,連線失敗
52,G20,255,,2018/2/21 下午 12:01:15,連線失敗
53,G19,255,,2018/2/21 下午 12:01:14,連線失敗
54,G18,255,,2018/2/21 下午 12:01:13,連線失敗
55,G17,255,,2018/2/21 下午 12:01:12,連線失敗
56,G16,255,,2018/2/21 下午 12:01:11,連線失敗
57,G15,255,,2018/2/21 下午 12:01:10,連線失敗
58,G14,255,,2018/2/21 下午 12:01:09,連線失敗
59,G13,255,,2018/2/21 下午 12:01:08,連線失敗
60,G12,255,,2018/2/21 下午 12:01:07,連線失敗
61,G11,255,,2018/2/21 下午 12:01:06,連線失敗
62,G10,255,,2018/2/21 下午 12:01:05,連線失敗
63,G09,255,,2018/2/21 下午 12:01:04,連線失敗
64,G08,255,,2018/2/21 下午 12:01:03,連線失敗
65,G07,255,,2018/2/21 下午 12:01:02,連線失敗
66,G06,255,,2018/2/21 下午 12:01:01,連線失敗
67,G05,255,,2018/2/21 下午 12:01:00,連線失敗
68,G04,255,,2018/2/21 下午 12:00:59,連線失敗
69,G03,255,,2018/2/21 下午 12:00:58,連線失敗
70,GO2,255,,2018/2/21 下午 12:00:57,連線失敗
71,GO1,255,,2018/2/21 下午 12:00:56,連線失敗
72,G24,255,,2018/2/21 上午 11:59:17,連線失敗
73,G23,255,,2018/2/21 上午 11:59:16,連線失敗
74,G22,255,,2018/2/21 上午 11:59:15,連線失敗
75,G21,255,,2018/2/21 上午 11:59:14,連線失敗
76,G20,255,,2018/2/21 上午 11:59:13,連線失敗
77,G19,255,,2018/2/21 上午 11:59:12,連線失敗
78,G18,255,,2018/2/21 上午 11:59:11,連線失敗
79,G17,255,,2018/2/21 上午 11:59:10,連線失敗
80,G16,255,,2018/2/21 上午 11:59:09,連線失敗
81,G15,255,,2018/2/21 上午 11:59:08,連線失敗
82,G14,255,,2018/2/21 上午 11:59:07,連線失敗
83,G13,255,,2018/2/21 上午 11:59:06,連線失敗
84,G12,255,,2018/2/21 上午 11:59:05,連線失敗
85,G11,255,,2018/2/21 上午 11:59:04,連線失敗
86,G10,255,,2018/2/21 上午 11:59:03,連線失敗
87,G09,255,,2018/2/21 上午 11:59:02,連線失敗
88,G08,255,,2018/2/21 上午 11:59:01,連線失敗
89,G07,255,,2018/2/21 上午 11:59:00,連線失敗
90,G06,255,,2018/2/21 上午 11:58:59,連線失敗
91,G05,255,,2018/2/21 上午 11:58:58,連線失敗
92,G04,255,,2018/2/21 上午 11:58:57,連線失敗
93,G03,255,,2018/2/21 上午 11:58:56,連線失敗
94,GO2,255,,2018/2/21 上午 11:58:55,連線失敗
95,GO1,255,,2018/2/21 上午 11:58:54,連線失敗
96,G24,255,,2018/2/21 上午 11:58:06,連線失敗
97,G23,255,,2018/2/21 上午 11:58:05,連線失敗
98,G22,255,,2018/2/21 上午 11:58:04,連線失敗
99,G21,255,,2018/2/21 上午 11:58:03,連線失敗
100,G20,255,,2018/2/21 上午 11:58:02,連線失敗
101,G19,255,,2018/2/21 上午 11:58:01,連線失敗
102,G18,255,,2018/2/21 上午 11:58:00,連線失敗
103,G17,255,,2018/2/21 上午 11:57:59,連線失敗
104,G16,255,,2018/2/21 上午 11:57:58,連線失敗
105,G15,255,,2018/2/21 上午 11:57:57,連線失敗
106,G14,255,,2018/2/21 上午 11:57:56,連線失敗
107,G13,255,,2018/2/21 上午 11:57:55,連線失敗
108,G12,255,,2018/2/21 上午 11:57:54,連線失敗
109,G11,255,,2018/2/21 上午 11:57:53,連線失敗
110,G10,255,,2018/2/21 上午 11:57:52,連線失敗
111,G09,255,,2018/2/21 上午 11:57:51,連線失敗
112,G08,255,,2018/2/21 上午 11:57:50,連線失敗
113,G07,255,,2018/2/21 上午 11:57:49,連線失敗
114,G06,255,,2018/2/21 上午 11:57:48,連線失敗
115,G05,255,,2018/2/21 上午 11:57:47,連線失敗
116,G04,255,,2018/2/21 上午 11:57:46,連線失敗
117,G03,255,,2018/2/21 上午 11:57:45,連線失敗
118,GO2,255,,2018/2/21 上午 11:57:44,連線失敗
119,GO1,255,,2018/2/21 上午 11:57:43,連線失敗
120,G24,255,,2018/2/21 上午 11:57:11,連線失敗
121,G23,255,,2018/2/21 上午 11:57:10,連線失敗
122,G22,255,,2018/2/21 上午 11:57:09,連線失敗
123,G21,255,,2018/2/21 上午 11:57:08,連線失敗
124,G20,255,,2018/2/21 上午 11:57:07,連線失敗
125,G19,255,,2018/2/21 上午 11:57:06,連線失敗
126,G18,255,,2018/2/21 上午 11:57:05,連線失敗
127,G17,255,,2018/2/21 上午 11:57:04,連線失敗
128,G16,255,,2018/2/21 上午 11:57:03,連線失敗
129,G15,255,,2018/2/21 上午 11:57:02,連線失敗
130,G14,255,,2018/2/21 上午 11:57:01,連線失敗
131,G13,255,,2018/2/21 上午 11:57:00,連線失敗
132,G12,255,,2018/2/21 上午 11:56:59,連線失敗
133,G11,255,,2018/2/21 上午 11:56:58,連線失敗
134,G10,255,,2018/2/21 上午 11:56:57,連線失敗
135,G09,255,,2018/2/21 上午 11:56:56,連線失敗
136,G08,255,,2018/2/21 上午 11:56:55,連線失敗
137,G07,255,,2018/2/21 上午 11:56:54,連線失敗
138,G06,255,,2018/2/21 上午 11:56:53,連線失敗
139,G05,255,,2018/2/21 上午 11:56:52,連線失敗
140,G04,255,,2018/2/21 上午 11:56:51,連線失敗
141,G03,255,,2018/2/21 上午 11:56:50,連線失敗
142,GO2,255,,2018/2/21 上午 11:56:49,連線失敗
143,GO1,255,,2018/2/21 上午 11:56:48,連線失敗
144,G24,255,,2018/2/21 上午 11:55:30,連線失敗
145,G23,255,,2018/2/21 上午 11:55:29,連線失敗
146,G22,255,,2018/2/21 上午 11:55:28,連線失敗
147,G21,255,,2018/2/21 上午 11:55:27,連線失敗
148,G20,255,,2018/2/21 上午 11:55:26,連線失敗
149,G19,255,,2018/2/21 上午 11:55:25,連線失敗
150,G18,255,,2018/2/21 上午 11:55:24,連線失敗
151,G17,255,,2018/2/21 上午 11:55:23,連線失敗
152,G16,255,,2018/2/21 上午 11:55:22,連線失敗
153,G15,255,,2018/2/21 上午 11:55:21,連線失敗
154,G14,255,,2018/2/21 上午 11:55:20,連線失敗
155,G13,255,,2018/2/21 上午 11:55:19,連線失敗
156,G12,255,,2018/2/21 上午 11:55:18,連線失敗
157,G11,255,,2018/2/21 上午 11:55:17,連線失敗
158,G10,255,,2018/2/21 上午 11:55:16,連線失敗
159,G09,255,,2018/2/21 上午 11:55:15,連線失敗
160,G08,255,,2018/2/21 上午 11:55:14,連線失敗
161,G07,255,,2018/2/21 上午 11:55:13,連線失敗
162,G06,255,,2018/2/21 上午 11:55:12,連線失敗
163,G05,255,,2018/2/21 上午 11:55:11,連線失敗
164,G04,255,,2018/2/21 上午 11:55:10,連線失敗
165,G03,255,,2018/2/21 上午 11:55:09,連線失敗
166,GO2,255,,2018/2/21 上午 11:55:08,連線失敗
167,GO1,255,,2018/2/21 上午 11:55:07,連線失敗
168,G20,255,,2018/2/21 上午 11:54:48,連線失敗
169,G19,255,,2018/2/21 上午 11:54:47,連線失敗
170,G18,255,,2018/2/21 上午 11:54:46,連線失敗
171,G17,255,,2018/2/21 上午 11:54:45,連線失敗
172,G16,255,,2018/2/21 上午 11:54:44,連線失敗
173,G15,255,,2018/2/21 上午 11:54:43,連線失敗
174,G14,255,,2018/2/21 上午 11:54:42,連線失敗
175,G13,255,,2018/2/21 上午 11:54:41,連線失敗
176,G12,255,,2018/2/21 上午 11:54:40,連線失敗
177,G11,255,,2018/2/21 上午 11:54:39,連線失敗
178,G10,255,,2018/2/21 上午 11:54:38,連線失敗
179,G09,255,,2018/2/21 上午 11:54:37,連線失敗
180,G08,255,,2018/2/21 上午 11:54:36,連線失敗
181,G07,255,,2018/2/21 上午 11:54:35,連線失敗
182,G06,255,,2018/2/21 上午 11:54:34,連線失敗
183,G05,255,,2018/2/21 上午 11:54:33,連線失敗
184,G04,255,,2018/2/21 上午 11:54:32,連線失敗
185,G03,255,,2018/2/21 上午 11:54:31,連線失敗
186,GO2,255,,2018/2/21 上午 11:54:30,連線失敗
187,GO1,255,,2018/2/21 上午 11:54:29,連線失敗
188,G24,255,,2018/2/21 上午 11:54:11,連線失敗
189,G23,255,,2018/2/21 上午 11:54:10,連線失敗
190,G22,255,,2018/2/21 上午 11:54:09,連線失敗
191,G21,255,,2018/2/21 上午 11:54:08,連線失敗
192,G20,255,,2018/2/21 上午 11:54:07,連線失敗
193,G19,255,,2018/2/21 上午 11:54:06,連線失敗
194,G18,255,,2018/2/21 上午 11:54:05,連線失敗
195,G17,255,,2018/2/21 上午 11:54:04,連線失敗
196,G16,255,,2018/2/21 上午 11:54:03,連線失敗
197,G15,255,,2018/2/21 上午 11:54:02,連線失敗
198,G14,255,,2018/2/21 上午 11:54:01,連線失敗
199,G13,255,,2018/2/21 上午 11:54:00,連線失敗
200,G12,255,,2018/2/21 上午 11:53:59,連線失敗
201,G11,255,,2018/2/21 上午 11:53:58,連線失敗
202,G10,255,,2018/2/21 上午 11:53:57,連線失敗
203,G09,255,,2018/2/21 上午 11:53:56,連線失敗
204,G08,255,,2018/2/21 上午 11:53:55,連線失敗
205,G07,255,,2018/2/21 上午 11:53:54,連線失敗
206,G06,255,,2018/2/21 上午 11:53:53,連線失敗
207,G05,255,,2018/2/21 上午 11:53:52,連線失敗
208,G04,255,,2018/2/21 上午 11:53:51,連線失敗
209,G03,255,,2018/2/21 上午 11:53:50,連線失敗
210,GO2,255,,2018/2/21 上午 11:53:49,連線失敗
211,GO1,255,,2018/2/21 上午 11:53:48,連線失敗
212,G24,255,,2018/2/21 上午 11:53:34,連線失敗
213,G23,255,,2018/2/21 上午 11:53:33,連線失敗
214,G22,255,,2018/2/21 上午 11:53:32,連線失敗
215,G21,255,,2018/2/21 上午 11:53:31,連線失敗
216,G20,255,,2018/2/21 上午 11:53:30,連線失敗
217,G19,255,,2018/2/21 上午 11:53:29,連線失敗
218,G18,255,,2018/2/21 上午 11:53:28,連線失敗
219,G17,255,,2018/2/21 上午 11:53:27,連線失敗
220,G16,255,,2018/2/21 上午 11:53:26,連線失敗
221,G15,255,,2018/2/21 上午 11:53:25,連線失敗
222,G14,255,,2018/2/21 上午 11:53:24,連線失敗
223,G13,255,,2018/2/21 上午 11:53:23,連線失敗
224,G12,255,,2018/2/21 上午 11:53:22,連線失敗
225,G11,255,,2018/2/21 上午 11:53:21,連線失敗
226,G10,255,,2018/2/21 上午 11:53:20,連線失敗
227,G09,255,,2018/2/21 上午 11:53:19,連線失敗
228,G08,255,,2018/2/21 上午 11:53:18,連線失敗
229,G07,255,,2018/2/21 上午 11:53:17,連線失敗
230,G06,255,,2018/2/21 上午 11:53:16,連線失敗
231,G05,255,,2018/2/21 上午 11:53:15,連線失敗
232,G04,255,,2018/2/21 上午 11:53:14,連線失敗
233,G03,255,,2018/2/21 上午 11:53:13,連線失敗
234,GO2,255,,2018/2/21 上午 11:53:12,連線失敗
235,GO1,255,,2018/2/21 上午 11:53:11,連線失敗
236,G24,255,,2018/2/21 上午 11:34:18,連線失敗
237,G23,255,,2018/2/21 上午 11:34:17,連線失敗
238,G22,255,,2018/2/21 上午 11:34:16,連線失敗
239,G21,255,,2018/2/21 上午 11:34:15,連線失敗
240,G20,255,,2018/2/21 上午 11:34:14,連線失敗
241,G19,255,,2018/2/21 上午 11:34:13,連線失敗
242,G18,255,,2018/2/21 上午 11:34:12,連線失敗
243,G17,255,,2018/2/21 上午 11:34:11,連線失敗
244,G16,255,,2018/2/21 上午 11:34:10,連線失敗
245,G15,255,,2018/2/21 上午 11:34:09,連線失敗
246,G14,255,,2018/2/21 上午 11:34:08,連線失敗
247,G13,255,,2018/2/21 上午 11:34:07,連線失敗
248,G12,255,,2018/2/21 上午 11:34:06,連線失敗
249,G11,255,,2018/2/21 上午 11:34:05,連線失敗
250,G10,255,,2018/2/21 上午 11:34:04,連線失敗
251,G09,255,,2018/2/21 上午 11:34:03,連線失敗
252,G08,255,,2018/2/21 上午 11:34:02,連線失敗
253,G07,255,,2018/2/21 上午 11:34:01,連線失敗
254,G06,255,,2018/2/21 上午 11:34:00,連線失敗
255,G05,255,,2018/2/21 上午 11:33:59,連線失敗
256,G04,255,,2018/2/21 上午 11:33:58,連線失敗
257,G03,255,,2018/2/21 上午 11:33:57,連線失敗
258,GO2,255,,2018/2/21 上午 11:33:56,連線失敗
259,GO1,255,,2018/2/21 上午 11:33:55,連線失敗
260,G24,255,,2018/2/21 上午 10:32:48,連線失敗
261,G23,255,,2018/2/21 上午 10:32:47,連線失敗
262,G22,255,,2018/2/21 上午 10:32:46,連線失敗
263,G21,255,,2018/2/21 上午 10:32:45,連線失敗
264,G20,255,,2018/2/21 上午 10:32:44,連線失敗
265,G19,255,,2018/2/21 上午 10:32:43,連線失敗
266,G18,255,,2018/2/21 上午 10:32:42,連線失敗
267,G17,255,,2018/2/21 上午 10:32:41,連線失敗
268,G16,255,,2018/2/21 上午 10:32:40,連線失敗
269,G15,255,,2018/2/21 上午 10:32:39,連線失敗
270,G14,255,,2018/2/21 上午 10:32:38,連線失敗
271,G13,255,,2018/2/21 上午 10:32:37,連線失敗
272,G12,255,,2018/2/21 上午 10:32:36,連線失敗
273,G11,255,,2018/2/21 上午 10:32:35,連線失敗
274,G10,255,,2018/2/21 上午 10:32:34,連線失敗
275,G09,255,,2018/2/21 上午 10:32:33,連線失敗
276,G08,255,,2018/2/21 上午 10:32:32,連線失敗
277,G07,255,,2018/2/21 上午 10:32:31,連線失敗
278,G06,255,,2018/2/21 上午 10:32:30,連線失敗
279,G05,255,,2018/2/21 上午 10:32:29,連線失敗
280,G04,255,,2018/2/21 上午 10:32:28,連線失敗
281,G03,255,,2018/2/21 上午 10:32:27,連線失敗
282,GO2,255,,2018/2/21 上午 10:32:26,連線失敗
283,GO1,255,,2018/2/21 上午 10:32:25,連線失敗
284,G24,255,,2018/2/21 上午 10:32:13,連線失敗
285,G23,255,,2018/2/21 上午 10:32:12,連線失敗
286,G22,255,,2018/2/21 上午 10:32:11,連線失敗
287,G21,255,,2018/2/21 上午 10:32:10,連線失敗
288,G20,255,,2018/2/21 上午 10:32:09,連線失敗
289,G19,255,,2018/2/21 上午 10:32:08,連線失敗
290,G18,255,,2018/2/21 上午 10:32:07,連線失敗
291,G17,255,,2018/2/21 上午 10:32:06,連線失敗
292,G16,255,,2018/2/21 上午 10:32:05,連線失敗
293,G15,255,,2018/2/21 上午 10:32:04,連線失敗
294,G14,255,,2018/2/21 上午 10:32:03,連線失敗
295,G13,255,,2018/2/21 上午 10:32:02,連線失敗
296,G12,255,,2018/2/21 上午 10:32:01,連線失敗
297,G11,255,,2018/2/21 上午 10:32:00,連線失敗
298,G10,255,,2018/2/21 上午 10:31:59,連線失敗
299,G09,255,,2018/2/21 上午 10:31:58,連線失敗
300,G08,255,,2018/2/21 上午 10:31:57,連線失敗
301,G07,255,,2018/2/21 上午 10:31:56,連線失敗
302,G06,255,,2018/2/21 上午 10:31:55,連線失敗
303,G05,255,,2018/2/21 上午 10:31:54,連線失敗
304,G04,255,,2018/2/21 上午 10:31:53,連線失敗
305,G03,255,,2018/2/21 上午 10:31:52,連線失敗
306,GO2,255,,2018/2/21 上午 10:31:51,連線失敗
307,GO1,255,,2018/2/21 上午 10:31:50,連線失敗
308,G24,255,,2018/2/21 上午 10:03:05,連線失敗
309,G23,255,,2018/2/21 上午 10:03:04,連線失敗
310,G22,255,,2018/2/21 上午 10:03:03,連線失敗
311,G21,255,,2018/2/21 上午 10:03:02,連線失敗
312,G20,255,,2018/2/21 上午 10:03:01,連線失敗
313,G19,255,,2018/2/21 上午 10:03:00,連線失敗
314,G18,255,,2018/2/21 上午 10:02:59,連線失敗
315,G17,255,,2018/2/21 上午 10:02:58,連線失敗
316,G16,255,,2018/2/21 上午 10:02:57,連線失敗
317,G15,255,,2018/2/21 上午 10:02:56,連線失敗
318,G14,255,,2018/2/21 上午 10:02:55,連線失敗
319,G13,255,,2018/2/21 上午 10:02:54,連線失敗
320,G12,255,,2018/2/21 上午 10:02:53,連線失敗
321,G11,255,,2018/2/21 上午 10:02:52,連線失敗
322,G10,255,,2018/2/21 上午 10:02:51,連線失敗
323,G09,255,,2018/2/21 上午 10:02:50,連線失敗
324,G08,255,,2018/2/21 上午 10:02:49,連線失敗
325,G07,255,,2018/2/21 上午 10:02:48,連線失敗
326,G06,255,,2018/2/21 上午 10:02:47,連線失敗
327,G05,255,,2018/2/21 上午 10:02:46,連線失敗
328,G04,255,,2018/2/21 上午 10:02:45,連線失敗
329,G03,255,,2018/2/21 上午 10:02:44,連線失敗
330,GO2,255,,2018/2/21 上午 10:02:43,連線失敗
331,GO1,255,,2018/2/21 上午 10:02:42,連線失敗
332,G24,255,,2018/2/21 上午 10:02:10,連線失敗
333,G23,255,,2018/2/21 上午 10:02:09,連線失敗
334,G22,255,,2018/2/21 上午 10:02:08,連線失敗
335,G21,255,,2018/2/21 上午 10:02:07,連線失敗
336,G20,255,,2018/2/21 上午 10:02:06,連線失敗
337,G19,255,,2018/2/21 上午 10:02:05,連線失敗
338,G18,255,,2018/2/21 上午 10:02:04,連線失敗
339,G17,255,,2018/2/21 上午 10:02:03,連線失敗
340,G16,255,,2018/2/21 上午 10:02:02,連線失敗
341,G15,255,,2018/2/21 上午 10:02:01,連線失敗
342,G14,255,,2018/2/21 上午 10:02:00,連線失敗
343,G13,255,,2018/2/21 上午 10:01:59,連線失敗
344,G12,255,,2018/2/21 上午 10:01:58,連線失敗
345,G11,255,,2018/2/21 上午 10:01:57,連線失敗
346,G10,255,,2018/2/21 上午 10:01:56,連線失敗
347,G09,255,,2018/2/21 上午 10:01:55,連線失敗
348,G08,255,,2018/2/21 上午 10:01:54,連線失敗
349,G07,255,,2018/2/21 上午 10:01:53,連線失敗
350,G06,255,,2018/2/21 上午 10:01:52,連線失敗
351,G05,255,,2018/2/21 上午 10:01:51,連線失敗
352,G04,255,,2018/2/21 上午 10:01:50,連線失敗
353,G03,255,,2018/2/21 上午 10:01:49,連線失敗
354,GO2,255,,2018/2/21 上午 10:01:48,連線失敗
355,GO1,255,,2018/2/21 上午 10:01:47,連線失敗
356,G24,255,,2018/2/21 上午 09:58:46,連線失敗
357,G23,255,,2018/2/21 上午 09:58:45,連線失敗
358,G22,255,,2018/2/21 上午 09:58:44,連線失敗
359,G21,255,,2018/2/21 上午 09:58:43,連線失敗
360,G20,255,,2018/2/21 上午 09:58:42,連線失敗
361,G19,255,,2018/2/21 上午 09:58:41,連線失敗
362,G18,255,,2018/2/21 上午 09:58:40,連線失敗
363,G17,255,,2018/2/21 上午 09:58:39,連線失敗
364,G16,255,,2018/2/21 上午 09:58:38,連線失敗
365,G15,255,,2018/2/21 上午 09:58:37,連線失敗
366,G14,255,,2018/2/21 上午 09:58:36,連線失敗
367,G13,255,,2018/2/21 上午 09:58:35,連線失敗
368,G12,255,,2018/2/21 上午 09:58:34,連線失敗
369,G11,255,,2018/2/21 上午 09:58:33,連線失敗
370,G10,255,,2018/2/21 上午 09:58:32,連線失敗
371,G09,255,,2018/2/21 上午 09:58:31,連線失敗
372,G08,255,,2018/2/21 上午 09:58:30,連線失敗
373,G07,255,,2018/2/21 上午 09:58:29,連線失敗
374,G06,255,,2018/2/21 上午 09:58:28,連線失敗
375,G05,255,,2018/2/21 上午 09:58:27,連線失敗
376,G04,255,,2018/2/21 上午 09:58:26,連線失敗
377,G03,255,,2018/2/21 上午 09:58:25,連線失敗
378,GO2,255,,2018/2/21 上午 09:58:24,連線失敗
379,GO1,255,,2018/2/21 上午 09:58:23,連線失敗
380,G24,255,,2018/2/21 上午 09:50:13,連線失敗
381,G23,255,,2018/2/21 上午 09:50:12,連線失敗
382,G22,255,,2018/2/21 上午 09:50:11,連線失敗
383,G21,255,,2018/2/21 上午 09:50:10,連線失敗
384,G20,255,,2018/2/21 上午 09:50:09,連線失敗
385,G19,255,,2018/2/21 上午 09:50:08,連線失敗
386,G18,255,,2018/2/21 上午 09:50:07,連線失敗
387,G17,255,,2018/2/21 上午 09:50:06,連線失敗
388,G16,255,,2018/2/21 上午 09:50:05,連線失敗
389,G15,255,,2018/2/21 上午 09:50:04,連線失敗
390,G14,255,,2018/2/21 上午 09:50:03,連線失敗
391,G13,255,,2018/2/21 上午 09:50:02,連線失敗
392,G12,255,,2018/2/21 上午 09:50:01,連線失敗
393,G11,255,,2018/2/21 上午 09:50:00,連線失敗
394,G10,255,,2018/2/21 上午 09:49:59,連線失敗
395,G09,255,,2018/2/21 上午 09:49:58,連線失敗
396,G08,255,,2018/2/21 上午 09:49:57,連線失敗
397,G07,255,,2018/2/21 上午 09:49:56,連線失敗
398,G06,255,,2018/2/21 上午 09:49:55,連線失敗
399,G05,255,,2018/2/21 上午 09:49:54,連線失敗
400,G04,255,,2018/2/21 上午 09:49:53,連線失敗
401,G03,255,,2018/2/21 上午 09:49:52,連線失敗
402,GO2,255,,2018/2/21 上午 09:49:51,連線失敗
403,GO1,255,,2018/2/21 上午 09:49:50,連線失敗
404,G24,255,,2018/2/21 上午 09:38:55,連線失敗
405,G23,255,,2018/2/21 上午 09:38:54,連線失敗
406,G22,255,,2018/2/21 上午 09:38:53,連線失敗
407,G21,255,,2018/2/21 上午 09:38:52,連線失敗
408,G20,255,,2018/2/21 上午 09:38:51,連線失敗
409,G19,255,,2018/2/21 上午 09:38:50,連線失敗
410,G18,255,,2018/2/21 上午 09:38:49,連線失敗
411,G17,255,,2018/2/21 上午 09:38:48,連線失敗
412,G16,255,,2018/2/21 上午 09:38:47,連線失敗
413,G15,255,,2018/2/21 上午 09:38:46,連線失敗
414,G14,255,,2018/2/21 上午 09:38:45,連線失敗
415,G13,255,,2018/2/21 上午 09:38:44,連線失敗
416,G12,255,,2018/2/21 上午 09:38:43,連線失敗
417,G11,255,,2018/2/21 上午 09:38:42,連線失敗
418,G10,255,,2018/2/21 上午 09:38:41,連線失敗
419,G09,255,,2018/2/21 上午 09:38:40,連線失敗
420,G08,255,,2018/2/21 上午 09:38:39,連線失敗
421,G07,255,,2018/2/21 上午 09:38:38,連線失敗
422,G06,255,,2018/2/21 上午 09:38:37,連線失敗
423,G05,255,,2018/2/21 上午 09:38:36,連線失敗
424,G04,255,,2018/2/21 上午 09:38:35,連線失敗
425,G03,255,,2018/2/21 上午 09:38:34,連線失敗
426,GO2,255,,2018/2/21 上午 09:38:33,連線失敗
427,GO1,255,,2018/2/21 上午 09:38:32,連線失敗
428,G24,255,,2018/2/21 上午 09:27:35,連線失敗
429,G23,255,,2018/2/21 上午 09:27:34,連線失敗
430,G22,255,,2018/2/21 上午 09:27:33,連線失敗
431,G21,255,,2018/2/21 上午 09:27:32,連線失敗
432,G20,255,,2018/2/21 上午 09:27:31,連線失敗
433,G19,255,,2018/2/21 上午 09:27:30,連線失敗
434,G18,255,,2018/2/21 上午 09:27:29,連線失敗
435,G17,255,,2018/2/21 上午 09:27:28,連線失敗
436,G16,255,,2018/2/21 上午 09:27:27,連線失敗
437,G15,255,,2018/2/21 上午 09:27:26,連線失敗
438,G14,255,,2018/2/21 上午 09:27:25,連線失敗
439,G13,255,,2018/2/21 上午 09:27:24,連線失敗
440,G12,255,,2018/2/21 上午 09:27:23,連線失敗
441,G11,255,,2018/2/21 上午 09:27:22,連線失敗
442,G10,255,,2018/2/21 上午 09:27:21,連線失敗
443,G09,255,,2018/2/21 上午 09:27:20,連線失敗
444,G08,255,,2018/2/21 上午 09:27:19,連線失敗
445,G07,255,,2018/2/21 上午 09:27:18,連線失敗
446,G06,255,,2018/2/21 上午 09:27:17,連線失敗
447,G05,255,,2018/2/21 上午 09:27:16,連線失敗
448,G04,255,,2018/2/21 上午 09:27:15,連線失敗
449,G03,255,,2018/2/21 上午 09:27:14,連線失敗
450,GO2,255,,2018/2/21 上午 09:27:13,連線失敗
451,GO1,255,,2018/2/21 上午 09:27:12,連線失敗
452,G24,255,,2018/2/21 上午 09:14:29,連線失敗
453,G23,255,,2018/2/21 上午 09:14:28,連線失敗
454,G22,255,,2018/2/21 上午 09:14:27,連線失敗
455,G21,255,,2018/2/21 上午 09:14:26,連線失敗
456,G20,255,,2018/2/21 上午 09:14:25,連線失敗
457,G19,255,,2018/2/21 上午 09:14:24,連線失敗
458,G18,255,,2018/2/21 上午 09:14:23,連線失敗
459,G17,255,,2018/2/21 上午 09:14:22,連線失敗
460,G16,255,,2018/2/21 上午 09:14:21,連線失敗
461,G15,255,,2018/2/21 上午 09:14:20,連線失敗
462,G14,255,,2018/2/21 上午 09:14:19,連線失敗
463,G13,255,,2018/2/21 上午 09:14:18,連線失敗
464,G12,255,,2018/2/21 上午 09:14:17,連線失敗
465,G11,255,,2018/2/21 上午 09:14:16,連線失敗
466,G10,255,,2018/2/21 上午 09:14:15,連線失敗
467,G09,255,,2018/2/21 上午 09:14:14,連線失敗
468,G08,255,,2018/2/21 上午 09:14:13,連線失敗
469,G07,255,,2018/2/21 上午 09:14:12,連線失敗
470,G06,255,,2018/2/21 上午 09:14:11,連線失敗
471,G05,255,,2018/2/21 上午 09:14:10,連線失敗
472,G04,255,,2018/2/21 上午 09:14:09,連線失敗
473,G03,255,,2018/2/21 上午 09:14:08,連線失敗
474,GO2,255,,2018/2/21 上午 09:14:07,連線失敗
475,GO1,255,,2018/2/21 上午 09:14:06,連線失敗
476,G24,255,,2018/2/21 上午 08:36:18,連線失敗
477,G23,255,,2018/2/21 上午 08:36:17,連線失敗
478,G22,255,,2018/2/21 上午 08:36:16,連線失敗
479,G21,255,,2018/2/21 上午 08:36:15,連線失敗
480,G20,255,,2018/2/21 上午 08:36:14,連線失敗
481,G19,255,,2018/2/21 上午 08:36:13,連線失敗
482,G18,255,,2018/2/21 上午 08:36:12,連線失敗
483,G17,255,,2018/2/21 上午 08:36:11,連線失敗
484,G16,255,,2018/2/21 上午 08:36:10,連線失敗
485,G15,255,,2018/2/21 上午 08:36:09,連線失敗
486,G14,255,,2018/2/21 上午 08:36:08,連線失敗
487,G13,255,,2018/2/21 上午 08:36:07,連線失敗
488,G12,255,,2018/2/21 上午 08:36:06,連線失敗
489,G11,255,,2018/2/21 上午 08:36:05,連線失敗
490,G10,255,,2018/2/21 上午 08:36:04,連線失敗
491,G09,255,,2018/2/21 上午 08:36:03,連線失敗
492,G08,255,,2018/2/21 上午 08:36:02,連線失敗
493,G07,255,,2018/2/21 上午 08:36:01,連線失敗
494,G06,255,,2018/2/21 上午 08:36:00,連線失敗
495,G05,255,,2018/2/21 上午 08:35:59,連線失敗
496,G04,255,,2018/2/21 上午 08:35:58,連線失敗
497,G03,255,,2018/2/21 上午 08:35:57,連線失敗
498,GO2,255,,2018/2/21 上午 08:35:56,連線失敗
499,GO1,255,,2018/2/21 上午 08:35:55,連線失敗
