﻿2018/1/3 上午 08:41:07:程式啟動
2018/1/3 上午 08:41:32:背景流程花費:25127.644ms
2018/1/3 上午 08:41:49:進入風機控制
2018/1/3 上午 08:41:57:背景流程花費:25049.5047ms
2018/1/3 上午 08:42:22:背景流程花費:25123.0968ms
2018/1/3 上午 08:42:47:背景流程花費:25080.9175ms
2018/1/3 上午 08:43:12:背景流程花費:25076.6673ms
2018/1/3 上午 08:43:38:背景流程花費:25080.7551ms
2018/1/3 上午 08:44:03:背景流程花費:25109.0197ms
2018/1/3 上午 08:44:28:背景流程花費:25049.6627ms
2018/1/3 上午 08:44:53:背景流程花費:25062.1123ms
2018/1/3 上午 08:45:18:背景流程花費:25096.389ms
2018/1/3 上午 08:45:43:背景流程花費:25034.0792ms
2018/1/3 上午 08:46:08:背景流程花費:25077.4973ms
2018/1/3 上午 08:46:33:背景流程花費:25065.3283ms
2018/1/3 上午 08:46:58:背景流程花費:25062.621ms
2018/1/3 上午 08:47:23:背景流程花費:25080.7949ms
2018/1/3 上午 08:47:48:背景流程花費:25125.3724ms
2018/1/3 上午 08:48:14:背景流程花費:25080.9175ms
2018/1/3 上午 08:48:39:背景流程花費:25080.8734ms
2018/1/3 上午 08:49:04:背景流程花費:25078.7842ms
2018/1/3 上午 08:49:29:背景流程花費:25065.2924ms
2018/1/3 上午 08:49:54:背景流程花費:25079.2046ms
2018/1/3 上午 08:50:19:背景流程花費:25065.1391ms
2018/1/3 上午 08:50:44:背景流程花費:25079.6375ms
2018/1/3 上午 08:51:09:背景流程花費:25049.6667ms
2018/1/3 上午 08:51:34:背景流程花費:25080.7335ms
2018/1/3 上午 08:51:59:背景流程花費:25080.3648ms
2018/1/3 上午 08:52:25:背景流程花費:25049.5883ms
2018/1/3 上午 08:52:50:背景流程花費:25111.4807ms
2018/1/3 上午 08:53:15:背景流程花費:25080.9249ms
2018/1/3 上午 08:53:40:背景流程花費:25096.3554ms
2018/1/3 上午 08:54:05:背景流程花費:25065.3269ms
2018/1/3 上午 08:54:30:背景流程花費:25065.3308ms
2018/1/3 上午 08:54:55:背景流程花費:25066.4706ms
2018/1/3 上午 08:55:20:背景流程花費:25112.1569ms
2018/1/3 上午 08:55:45:背景流程花費:25065.9412ms
2018/1/3 上午 08:56:10:背景流程花費:25080.917ms
2018/1/3 上午 08:56:36:背景流程花費:25113.3146ms
2018/1/3 上午 08:57:01:背景流程花費:25065.2438ms
2018/1/3 上午 08:57:26:背景流程花費:25082.0163ms
2018/1/3 上午 08:57:51:背景流程花費:25080.8296ms
2018/1/3 上午 08:58:16:背景流程花費:25049.6022ms
2018/1/3 上午 08:58:41:背景流程花費:25082.5582ms
2018/1/3 上午 08:59:06:背景流程花費:25065.2901ms
2018/1/3 上午 08:59:31:背景流程花費:25051.5757ms
2018/1/3 上午 08:59:56:背景流程花費:25065.2913ms
2018/1/3 上午 09:00:21:背景流程花費:25083.3783ms
2018/1/3 上午 09:00:47:背景流程花費:25049.6488ms
2018/1/3 上午 09:01:12:背景流程花費:25065.3208ms
2018/1/3 上午 09:01:37:背景流程花費:25068.741ms
2018/1/3 上午 09:02:02:背景流程花費:25080.9172ms
2018/1/3 上午 09:02:27:背景流程花費:25067.9395ms
2018/1/3 上午 09:02:52:背景流程花費:25049.704ms
2018/1/3 上午 09:03:17:背景流程花費:25037.5748ms
2018/1/3 上午 09:03:42:背景流程花費:25080.7318ms
2018/1/3 上午 09:04:07:背景流程花費:25080.9553ms
2018/1/3 上午 09:04:32:背景流程花費:25100.3672ms
2018/1/3 上午 09:04:57:背景流程花費:25033.8497ms
2018/1/3 上午 09:05:22:背景流程花費:25038.3229ms
2018/1/3 上午 09:05:48:背景流程花費:25112.1765ms
2018/1/3 上午 09:06:13:背景流程花費:25054.1726ms
2018/1/3 上午 09:06:38:背景流程花費:25065.297ms
2018/1/3 上午 09:07:03:背景流程花費:25080.926ms
2018/1/3 上午 09:07:28:背景流程花費:25039.0121ms
2018/1/3 上午 09:07:53:背景流程花費:25080.926ms
2018/1/3 上午 09:08:18:背景流程花費:25055.1312ms
2018/1/3 上午 09:08:43:背景流程花費:25049.5401ms
2018/1/3 上午 09:09:08:背景流程花費:25071.1059ms
2018/1/3 上午 09:09:33:背景流程花費:25080.9238ms
2018/1/3 上午 09:09:58:背景流程花費:25065.1351ms
2018/1/3 上午 09:10:23:背景流程花費:25071.3881ms
2018/1/3 上午 09:10:49:背景流程花費:25096.5753ms
2018/1/3 上午 09:11:14:背景流程花費:25072.7875ms
2018/1/3 上午 09:11:39:背景流程花費:25049.4728ms
2018/1/3 上午 09:12:04:背景流程花費:25087.9088ms
2018/1/3 上午 09:12:29:背景流程花費:25065.299ms
2018/1/3 上午 09:12:54:背景流程花費:25080.7622ms
2018/1/3 上午 09:13:19:背景流程花費:25072.5116ms
2018/1/3 上午 09:13:44:背景流程花費:25080.9246ms
2018/1/3 上午 09:14:09:背景流程花費:25073.2551ms
2018/1/3 上午 09:14:34:背景流程花費:25080.9201ms
2018/1/3 上午 09:15:00:背景流程花費:25089.5444ms
2018/1/3 上午 09:15:25:背景流程花費:25049.5104ms
2018/1/3 上午 09:15:50:背景流程花費:25065.2984ms
2018/1/3 上午 09:16:15:背景流程花費:25073.5126ms
2018/1/3 上午 09:16:40:背景流程花費:25096.5002ms
2018/1/3 上午 09:17:05:背景流程花費:25105.2295ms
2018/1/3 上午 09:17:30:背景流程花費:25065.3283ms
2018/1/3 上午 09:17:55:背景流程花費:25059.2048ms
2018/1/3 上午 09:18:20:背景流程花費:25065.132ms
2018/1/3 上午 09:18:45:背景流程花費:25065.3027ms
2018/1/3 上午 09:19:10:背景流程花費:25059.128ms
2018/1/3 上午 09:19:36:背景流程花費:25080.7634ms
2018/1/3 上午 09:20:01:背景流程花費:25059.6607ms
2018/1/3 上午 09:20:26:背景流程花費:25080.9226ms
2018/1/3 上午 09:20:51:背景流程花費:25075.3452ms
2018/1/3 上午 09:21:16:背景流程花費:25065.3294ms
2018/1/3 上午 09:21:41:背景流程花費:25087.2188ms
2018/1/3 上午 09:22:06:背景流程花費:25080.7653ms
2018/1/3 上午 09:22:31:背景流程花費:25096.5534ms
2018/1/3 上午 09:22:56:背景流程花費:25091.771ms
2018/1/3 上午 09:23:21:背景流程花費:25049.6164ms
2018/1/3 上午 09:23:47:背景流程花費:25076.6386ms
2018/1/3 上午 09:24:12:背景流程花費:25080.9172ms
2018/1/3 上午 09:24:37:背景流程花費:25045.7449ms
2018/1/3 上午 09:25:02:背景流程花費:25065.1368ms
2018/1/3 上午 09:25:27:背景流程花費:25096.5509ms
2018/1/3 上午 09:25:52:背景流程花費:25093.1225ms
2018/1/3 上午 09:26:17:背景流程花費:25065.105ms
2018/1/3 上午 09:26:42:背景流程花費:25077.798ms
2018/1/3 上午 09:27:07:背景流程花費:25080.8353ms
2018/1/3 上午 09:27:32:背景流程花費:25109.4143ms
2018/1/3 上午 09:27:58:背景流程花費:25080.7966ms
2018/1/3 上午 09:28:23:背景流程花費:25080.8933ms
2018/1/3 上午 09:28:48:背景流程花費:25062.714ms
2018/1/3 上午 09:29:13:背景流程花費:25080.7946ms
2018/1/3 上午 09:29:38:背景流程花費:25095.1915ms
2018/1/3 上午 09:30:03:背景流程花費:25049.5963ms
2018/1/3 上午 09:30:28:背景流程花費:25079.0607ms
2018/1/3 上午 09:30:53:背景流程花費:25065.2972ms
2018/1/3 上午 09:31:18:背景流程花費:25049.6702ms
2018/1/3 上午 09:31:43:背景流程花費:25110.7256ms
2018/1/3 上午 09:32:08:背景流程花費:25065.3311ms
2018/1/3 上午 09:32:34:背景流程花費:25095.6414ms
2018/1/3 上午 09:32:59:背景流程花費:25096.3838ms
2018/1/3 上午 09:33:24:背景流程花費:25111.6966ms
2018/1/3 上午 09:33:49:背景流程花費:25080.9193ms
2018/1/3 上午 09:34:14:背景流程花費:25049.6065ms
2018/1/3 上午 09:34:39:背景流程花費:25096.0826ms
2018/1/3 上午 09:35:04:背景流程花費:25080.9161ms
2018/1/3 上午 09:35:29:背景流程花費:25035.2244ms
2018/1/3 上午 09:35:54:背景流程花費:25049.4944ms
2018/1/3 上午 09:36:19:背景流程花費:25081.5674ms
2018/1/3 上午 09:36:44:背景流程花費:25049.6708ms
2018/1/3 上午 09:37:10:背景流程花費:25080.7261ms
2018/1/3 上午 09:37:35:背景流程花費:25081.9207ms
2018/1/3 上午 09:38:00:背景流程花費:25080.8526ms
2018/1/3 上午 09:38:25:背景流程花費:25082.061ms
2018/1/3 上午 09:38:50:背景流程花費:25127.8038ms
2018/1/3 上午 09:39:15:背景流程花費:25096.4819ms
2018/1/3 上午 09:39:40:背景流程花費:25051.451ms
2018/1/3 上午 09:40:05:背景流程花費:25065.289ms
2018/1/3 上午 09:40:30:背景流程花費:25051.8294ms
2018/1/3 上午 09:40:55:背景流程花費:25049.5356ms
2018/1/3 上午 09:41:21:背景流程花費:25067.8368ms
2018/1/3 上午 09:41:46:背景流程花費:25080.9542ms
2018/1/3 上午 09:42:11:背景流程花費:25049.6702ms
2018/1/3 上午 09:42:36:背景流程花費:25083.6903ms
2018/1/3 上午 09:43:01:背景流程花費:25127.8038ms
2018/1/3 上午 09:43:26:背景流程花費:25115.3102ms
2018/1/3 上午 09:43:51:背景流程花費:25065.1348ms
2018/1/3 上午 09:44:16:背景流程花費:25068.8764ms
2018/1/3 上午 09:44:41:背景流程花費:25065.2887ms
2018/1/3 上午 09:45:06:背景流程花費:25049.601ms
2018/1/3 上午 09:45:32:背景流程花費:25069.2989ms
2018/1/3 上午 09:45:57:背景流程花費:25065.293ms
2018/1/3 上午 09:46:22:背景流程花費:25038.2651ms
2018/1/3 上午 09:46:47:背景流程花費:25065.2978ms
2018/1/3 上午 09:47:12:背景流程花費:25085.7644ms
2018/1/3 上午 09:47:37:背景流程花費:25049.642ms
2018/1/3 上午 09:48:02:背景流程花費:25096.2578ms
2018/1/3 上午 09:48:27:背景流程花費:25101.6342ms
2018/1/3 上午 09:48:52:背景流程花費:25033.8779ms
2018/1/3 上午 09:49:17:背景流程花費:25071.1818ms
2018/1/3 上午 09:49:42:背景流程花費:25065.2782ms
2018/1/3 上午 09:50:07:背景流程花費:25055.7329ms
2018/1/3 上午 09:50:33:背景流程花費:25096.4203ms
2018/1/3 上午 09:50:58:背景流程花費:25080.9229ms
2018/1/3 上午 09:51:23:背景流程花費:25087.2999ms
2018/1/3 上午 09:51:48:背景流程花費:25065.1328ms
2018/1/3 上午 09:52:13:背景流程花費:25072.7628ms
2018/1/3 上午 09:52:38:背景流程花費:25096.5144ms
2018/1/3 上午 09:53:03:背景流程花費:25056.8834ms
2018/1/3 上午 09:53:28:背景流程花費:25065.1083ms
2018/1/3 上午 09:53:53:背景流程花費:25080.9557ms
2018/1/3 上午 09:54:18:背景流程花費:25065.6597ms
2018/1/3 上午 09:54:43:背景流程花費:25080.8071ms
2018/1/3 上午 09:55:09:背景流程花費:25080.2004ms
2018/1/3 上午 09:55:34:背景流程花費:25033.999ms
2018/1/3 上午 09:55:59:背景流程花費:25073.2845ms
2018/1/3 上午 09:56:24:背景流程花費:25065.2961ms
2018/1/3 上午 09:56:49:背景流程花費:25065.2916ms
2018/1/3 上午 09:57:14:背景流程花費:25073.6093ms
2018/1/3 上午 09:57:39:背景流程花費:25065.2856ms
2018/1/3 上午 09:58:04:背景流程花費:25042.7844ms
2018/1/3 上午 09:58:29:背景流程花費:25065.1308ms
2018/1/3 上午 09:58:54:背景流程花費:25090.109ms
2018/1/3 上午 09:59:20:背景流程花費:25096.5795ms
2018/1/3 上午 09:59:45:背景流程花費:25049.5069ms
2018/1/3 上午 10:00:10:背景流程花費:25075.079ms
2018/1/3 上午 10:00:35:背景流程花費:25080.9169ms
2018/1/3 上午 10:01:00:背景流程花費:25059.4699ms
2018/1/3 上午 10:01:25:背景流程花費:25065.297ms
2018/1/3 上午 10:01:50:背景流程花費:25065.2899ms
2018/1/3 上午 10:02:15:背景流程花費:25044.2282ms
2018/1/3 上午 10:02:40:背景流程花費:25080.9229ms
2018/1/3 上午 10:03:05:背景流程花費:25061.2112ms
2018/1/3 上午 10:03:30:背景流程花費:25049.4708ms
2018/1/3 上午 10:03:55:背景流程花費:25107.5327ms
2018/1/3 上午 10:04:21:背景流程花費:25049.6636ms
2018/1/3 上午 10:04:46:背景流程花費:25065.2205ms
2018/1/3 上午 10:05:11:背景流程花費:25061.0383ms
2018/1/3 上午 10:05:36:背景流程花費:25065.2967ms
2018/1/3 上午 10:06:01:背景流程花費:25061.5198ms
2018/1/3 上午 10:06:26:背景流程花費:25065.1255ms
2018/1/3 上午 10:06:51:背景流程花費:25108.7754ms
2018/1/3 上午 10:07:16:背景流程花費:25080.9468ms
2018/1/3 上午 10:07:41:背景流程花費:25065.1314ms
2018/1/3 上午 10:08:06:背景流程花費:25093.4484ms
2018/1/3 上午 10:08:32:背景流程花費:25080.9184ms
2018/1/3 上午 10:08:57:背景流程花費:25093.9263ms
2018/1/3 上午 10:09:22:背景流程花費:25088.0795ms
2018/1/3 上午 10:09:47:背景流程花費:25133.7268ms
2018/1/3 上午 10:10:12:背景流程花費:25127.7941ms
2018/1/3 上午 10:10:37:背景流程花費:25080.7958ms
2018/1/3 上午 10:11:02:背景流程花費:25094.5349ms
2018/1/3 上午 10:11:27:背景流程花費:25080.8279ms
2018/1/3 上午 10:11:52:背景流程花費:25079.2976ms
2018/1/3 上午 10:12:18:背景流程花費:25112.1299ms
2018/1/3 上午 10:12:43:背景流程花費:25063.9194ms
2018/1/3 上午 10:13:08:背景流程花費:25065.1687ms
2018/1/3 上午 10:13:33:背景流程花費:25137.397ms
2018/1/3 上午 10:13:58:背景流程花費:25145.8558ms
2018/1/3 上午 10:14:23:背景流程花費:25055.8754ms
2018/1/3 上午 10:14:48:背景流程花費:25136.4416ms
2018/1/3 上午 10:15:13:背景流程花費:25187.5399ms
2018/1/3 上午 10:15:39:背景流程花費:25129.8006ms
2018/1/3 上午 10:16:04:背景流程花費:25132.2542ms
2018/1/3 上午 10:16:29:背景流程花費:25090.951ms
2018/1/3 上午 10:16:54:背景流程花費:25129.8627ms
2018/1/3 上午 10:17:19:背景流程花費:25126.0701ms
2018/1/3 上午 10:17:44:背景流程花費:25085.0479ms
2018/1/3 上午 10:18:09:背景流程花費:25139.0294ms
2018/1/3 上午 10:18:34:背景流程花費:25138.1406ms
2018/1/3 上午 10:19:00:背景流程花費:25178.1274ms
2018/1/3 上午 10:19:25:背景流程花費:25092.9099ms
2018/1/3 上午 10:19:50:背景流程花費:25195.8266ms
2018/1/3 上午 10:20:15:背景流程花費:25229.0455ms
2018/1/3 上午 10:20:41:背景流程花費:25297.5321ms
2018/1/3 上午 10:21:06:背景流程花費:25090.6859ms
2018/1/3 上午 10:21:31:背景流程花費:25127.803ms
2018/1/3 上午 10:21:56:背景流程花費:25075.7466ms
2018/1/3 上午 10:22:21:背景流程花費:25033.8869ms
2018/1/3 上午 10:22:46:背景流程花費:25067.7617ms
2018/1/3 上午 10:23:11:背景流程花費:25018.2257ms
2018/1/3 上午 10:23:36:背景流程花費:25068.1417ms
2018/1/3 上午 10:24:01:背景流程花費:25018.2755ms
2018/1/3 上午 10:24:26:背景流程花費:25080.73ms
2018/1/3 上午 10:24:51:背景流程花費:25052.8884ms
2018/1/3 上午 10:25:16:背景流程花費:25018.5025ms
2018/1/3 上午 10:25:41:背景流程花費:25056.8288ms
2018/1/3 上午 10:26:07:背景流程花費:25123.2911ms
2018/1/3 上午 10:26:32:背景流程花費:25065.2879ms
2018/1/3 上午 10:26:57:背景流程花費:25070.2514ms
2018/1/3 上午 10:27:22:背景流程花費:25065.3297ms
2018/1/3 上午 10:27:47:背景流程花費:25116.5111ms
2018/1/3 上午 10:28:12:背景流程花費:25096.3927ms
2018/1/3 上午 10:28:37:背景流程花費:25054.9116ms
2018/1/3 上午 10:29:02:背景流程花費:25080.9107ms
2018/1/3 上午 10:29:27:背景流程花費:25049.5033ms
2018/1/3 上午 10:29:52:背景流程花費:25101.6045ms
2018/1/3 上午 10:30:18:背景流程花費:25143.4221ms
2018/1/3 上午 10:30:43:背景流程花費:25133.452ms
2018/1/3 上午 10:31:08:背景流程花費:25065.1032ms
2018/1/3 上午 10:31:33:背景流程花費:25102.9398ms
2018/1/3 上午 10:31:58:背景流程花費:25127.739ms
2018/1/3 上午 10:32:23:背景流程花費:25033.7817ms
2018/1/3 上午 10:32:48:背景流程花費:25087.1147ms
2018/1/3 上午 10:33:13:背景流程花費:25080.8865ms
2018/1/3 上午 10:33:38:背景流程花費:25056.2121ms
2018/1/3 上午 10:34:04:背景流程花費:25065.1975ms
2018/1/3 上午 10:34:29:背景流程花費:25080.9167ms
2018/1/3 上午 10:34:54:背景流程花費:25087.8736ms
2018/1/3 上午 10:35:19:背景流程花費:25094.3788ms
2018/1/3 上午 10:35:44:背景流程花費:25094.5887ms
2018/1/3 上午 10:36:09:背景流程花費:25096.5733ms
2018/1/3 上午 10:36:34:背景流程花費:25088.6055ms
2018/1/3 上午 10:36:59:背景流程花費:25080.9232ms
2018/1/3 上午 10:37:24:背景流程花費:25065.2898ms
2018/1/3 上午 10:37:50:背景流程花費:25088.9661ms
2018/1/3 上午 10:38:15:背景流程花費:25080.7627ms
2018/1/3 上午 10:38:40:背景流程花費:25081.1752ms
2018/1/3 上午 10:39:05:背景流程花費:25065.2895ms
2018/1/3 上午 10:39:30:背景流程花費:25066.6557ms
2018/1/3 上午 10:39:55:背景流程花費:25080.9292ms
2018/1/3 上午 10:40:20:背景流程花費:25112.1995ms
2018/1/3 上午 10:40:45:背景流程花費:25074.4661ms
2018/1/3 上午 10:41:10:背景流程花費:25080.9243ms
2018/1/3 上午 10:41:35:背景流程花費:25121.7915ms
2018/1/3 上午 10:42:01:背景流程花費:25065.1286ms
2018/1/3 上午 10:42:26:背景流程花費:25065.2992ms
2018/1/3 上午 10:42:51:背景流程花費:25107.1296ms
2018/1/3 上午 10:43:16:背景流程花費:25080.9528ms
2018/1/3 上午 10:43:41:背景流程花費:25059.9944ms
2018/1/3 上午 10:44:06:背景流程花費:25080.9322ms
2018/1/3 上午 10:44:31:背景流程花費:25123.7212ms
2018/1/3 上午 10:44:56:背景流程花費:25065.13ms
2018/1/3 上午 10:45:21:背景流程花費:25096.4191ms
2018/1/3 上午 10:45:46:背景流程花費:25092.0617ms
2018/1/3 上午 10:46:12:背景流程花費:25049.5047ms
2018/1/3 上午 10:46:37:背景流程花費:25077.0089ms
2018/1/3 上午 10:47:02:背景流程花費:25096.5719ms
2018/1/3 上午 10:47:27:背景流程花費:25061.4279ms
2018/1/3 上午 10:47:52:背景流程花費:25096.3828ms
2018/1/3 上午 10:48:17:背景流程花費:25127.6448ms
2018/1/3 上午 10:48:42:背景流程花費:25061.9343ms
2018/1/3 上午 10:49:07:背景流程花費:25049.54ms
2018/1/3 上午 10:49:32:背景流程花費:25109.1454ms
2018/1/3 上午 10:49:57:背景流程花費:25080.9226ms
2018/1/3 上午 10:50:22:背景流程花費:25049.4785ms
2018/1/3 上午 10:50:48:背景流程花費:25094.0173ms
2018/1/3 上午 10:51:13:背景流程花費:25065.2956ms
2018/1/3 上午 10:51:38:背景流程花費:25062.9003ms
2018/1/3 上午 10:52:03:背景流程花費:25080.8677ms
2018/1/3 上午 10:52:28:背景流程花費:25079.9399ms
2018/1/3 上午 10:52:53:背景流程花費:25065.1386ms
2018/1/3 上午 10:53:18:背景流程花費:25080.7633ms
2018/1/3 上午 10:53:43:背景流程花費:25095.315ms
2018/1/3 上午 10:54:08:背景流程花費:25096.546ms
2018/1/3 上午 10:54:34:背景流程花費:25095.2788ms
2018/1/3 上午 10:54:59:背景流程花費:25065.295ms
2018/1/3 上午 10:55:24:背景流程花費:25065.297ms
2018/1/3 上午 10:55:49:背景流程花費:25095.5279ms
2018/1/3 上午 10:56:14:背景流程花費:25112.1748ms
2018/1/3 上午 10:56:39:背景流程花費:25111.7814ms
2018/1/3 上午 10:57:04:背景流程花費:25080.9235ms
2018/1/3 上午 10:57:29:背景流程花費:25065.1411ms
2018/1/3 上午 10:57:54:背景流程花費:25080.9562ms
2018/1/3 上午 10:58:19:背景流程花費:25080.8842ms
2018/1/3 上午 10:58:45:背景流程花費:25081.6175ms
2018/1/3 上午 10:59:10:背景流程花費:25080.928ms
2018/1/3 上午 10:59:35:背景流程花費:25097.6004ms
2018/1/3 上午 11:00:00:背景流程花費:25065.1369ms
2018/1/3 上午 11:00:25:背景流程花費:25066.1073ms
2018/1/3 上午 11:00:50:背景流程花費:25065.2691ms
2018/1/3 上午 11:01:15:背景流程花費:25080.8745ms
2018/1/3 上午 11:01:40:背景流程花費:25082.4006ms
2018/1/3 上午 11:02:05:背景流程花費:25080.9238ms
2018/1/3 上午 11:02:30:背景流程花費:25051.3996ms
2018/1/3 上午 11:02:55:背景流程花費:25080.765ms
2018/1/3 上午 11:03:21:背景流程花費:25096.5449ms
2018/1/3 上午 11:03:46:背景流程花費:25020.6942ms
2018/1/3 上午 11:04:11:背景流程花費:25096.4129ms
2018/1/3 上午 11:04:36:背景流程花費:25067.8222ms
2018/1/3 上午 11:05:01:背景流程花費:25096.5807ms
2018/1/3 上午 11:05:26:背景流程花費:25083.8746ms
2018/1/3 上午 11:05:51:背景流程花費:25080.8632ms
2018/1/3 上午 11:06:16:背景流程花費:25049.673ms
2018/1/3 上午 11:06:41:背景流程花費:25053.0321ms
2018/1/3 上午 11:07:06:背景流程花費:25080.7687ms
2018/1/3 上午 11:07:31:背景流程花費:25100.1712ms
2018/1/3 上午 11:07:57:背景流程花費:25049.559ms
2018/1/3 上午 11:08:22:背景流程花費:25111.9438ms
2018/1/3 上午 11:08:47:背景流程花費:25069.5423ms
2018/1/3 上午 11:09:12:背景流程花費:25049.701ms
2018/1/3 上午 11:09:37:背景流程花費:25069.5883ms
2018/1/3 上午 11:10:02:背景流程花費:25096.583ms
2018/1/3 上午 11:10:27:背景流程花費:25086.1242ms
2018/1/3 上午 11:10:52:背景流程花費:25080.7664ms
2018/1/3 上午 11:11:17:背景流程花費:25065.2967ms
2018/1/3 上午 11:11:42:背景流程花費:25070.4583ms
2018/1/3 上午 11:12:08:背景流程花費:25065.1298ms
2018/1/3 上午 11:12:33:背景流程花費:25086.2923ms
2018/1/3 上午 11:12:58:背景流程花費:25049.6608ms
2018/1/3 上午 11:13:23:背景流程花費:25065.1303ms
2018/1/3 上午 11:13:48:背景流程花費:25086.9645ms
2018/1/3 上午 11:14:13:背景流程花費:25065.2868ms
2018/1/3 上午 11:14:38:背景流程花費:25086.9855ms
2018/1/3 上午 11:15:03:背景流程花費:25049.6645ms
2018/1/3 上午 11:15:28:背景流程花費:25119.095ms
2018/1/3 上午 11:15:53:背景流程花費:25080.9582ms
2018/1/3 上午 11:16:18:背景流程花費:25065.0971ms
2018/1/3 上午 11:16:44:背景流程花費:25056.7249ms
2018/1/3 上午 11:17:09:背景流程花費:25065.2904ms
2018/1/3 上午 11:17:34:背景流程花費:25072.6169ms
2018/1/3 上午 11:17:59:背景流程花費:25080.9218ms
2018/1/3 上午 11:18:24:背景流程花費:25065.2925ms
2018/1/3 上午 11:18:49:背景流程花費:25120.03ms
2018/1/3 上午 11:19:14:背景流程花費:25112.0672ms
2018/1/3 上午 11:19:39:背景流程花費:25073.584ms
2018/1/3 上午 11:20:04:背景流程花費:25049.6668ms
2018/1/3 上午 11:20:29:背景流程花費:25073.7578ms
2018/1/3 上午 11:20:55:背景流程花費:25112.1771ms
2018/1/3 上午 11:21:20:背景流程花費:25080.8418ms
2018/1/3 上午 11:21:45:背景流程花費:25089.6585ms
2018/1/3 上午 11:22:10:背景流程花費:25096.5022ms
2018/1/3 上午 11:22:35:背景流程花費:25058.8284ms
2018/1/3 上午 11:23:00:背景流程花費:25049.5033ms
2018/1/3 上午 11:23:25:背景流程花費:25127.8012ms
2018/1/3 上午 11:23:50:背景流程花費:25106.1872ms
2018/1/3 上午 11:24:15:背景流程花費:25049.6164ms
2018/1/3 上午 11:24:41:背景流程花費:25075.3376ms
2018/1/3 上午 11:25:06:背景流程花費:25080.9559ms
2018/1/3 上午 11:25:31:背景流程花費:25075.8007ms
2018/1/3 上午 11:25:56:背景流程花費:25080.7562ms
2018/1/3 上午 11:26:21:背景流程花費:25080.9243ms
2018/1/3 上午 11:26:46:背景流程花費:25076.0014ms
2018/1/3 上午 11:27:11:背景流程花費:25065.1308ms
2018/1/3 上午 11:27:36:背景流程花費:25077.0463ms
2018/1/3 上午 11:28:01:背景流程花費:25065.2902ms
2018/1/3 上午 11:28:26:背景流程花費:25065.1394ms
2018/1/3 上午 11:28:51:背景流程花費:25076.9176ms
2018/1/3 上午 11:29:17:背景流程花費:25096.5371ms
2018/1/3 上午 11:29:42:背景流程花費:25061.5275ms
2018/1/3 上午 11:30:07:背景流程花費:25065.2998ms
2018/1/3 上午 11:30:32:背景流程花費:25080.9053ms
2018/1/3 上午 11:30:57:背景流程花費:25046.2276ms
2018/1/3 上午 11:31:22:背景流程花費:25065.1868ms
2018/1/3 上午 11:31:47:背景流程花費:25123.9468ms
2018/1/3 上午 11:32:12:背景流程花費:25049.636ms
2018/1/3 上午 11:32:37:背景流程花費:25060.6019ms
2018/1/3 上午 11:33:02:背景流程花費:25096.5517ms
2018/1/3 上午 11:33:27:背景流程花費:25080.8709ms
2018/1/3 上午 11:33:53:背景流程花費:25060.0089ms
2018/1/3 上午 11:34:18:背景流程花費:25065.299ms
2018/1/3 上午 11:34:43:背景流程花費:25090.8366ms
2018/1/3 上午 11:35:08:背景流程花費:25065.0981ms
2018/1/3 上午 11:35:33:背景流程花費:25096.5839ms
2018/1/3 上午 11:35:58:背景流程花費:25074.3901ms
2018/1/3 上午 11:36:23:背景流程花費:25049.5305ms
2018/1/3 上午 11:36:48:背景流程花費:25089.2401ms
2018/1/3 上午 11:37:13:背景流程花費:25096.5866ms
2018/1/3 上午 11:37:38:背景流程花費:25081.2341ms
2018/1/3 上午 11:38:04:背景流程花費:25111.9854ms
2018/1/3 上午 11:38:29:背景流程花費:25065.3291ms
2018/1/3 上午 11:38:54:背景流程花費:25095.921ms
2018/1/3 上午 11:39:19:背景流程花費:25049.5405ms
2018/1/3 上午 11:39:44:背景流程花費:25071.9322ms
2018/1/3 上午 11:40:09:背景流程花費:25080.9183ms
2018/1/3 上午 11:40:34:背景流程花費:25049.6036ms
2018/1/3 上午 11:40:59:背景流程花費:25071.3059ms
2018/1/3 上午 11:41:24:背景流程花費:25065.2882ms
2018/1/3 上午 11:41:49:背景流程花費:25039.344ms
2018/1/3 上午 11:42:14:背景流程花費:25065.1121ms
2018/1/3 上午 11:42:40:背景流程花費:25101.3281ms
2018/1/3 上午 11:43:05:背景流程花費:25065.2956ms
2018/1/3 上午 11:43:30:背景流程花費:25080.7624ms
2018/1/3 上午 11:43:55:背景流程花費:25085.1771ms
2018/1/3 上午 11:44:20:背景流程花費:25143.4236ms
2018/1/3 上午 11:44:45:背景流程花費:25053.0688ms
2018/1/3 上午 11:45:10:背景流程花費:25080.9217ms
2018/1/3 上午 11:45:35:背景流程花費:25080.9175ms
2018/1/3 上午 11:46:00:背景流程花費:25083.7293ms
2018/1/3 上午 11:46:26:背景流程花費:25080.7639ms
2018/1/3 上午 11:46:51:背景流程花費:25083.269ms
2018/1/3 上午 11:47:16:背景流程花費:25034.0366ms
2018/1/3 上午 11:47:41:背景流程花費:25096.4194ms
2018/1/3 上午 11:48:06:背景流程花費:25098.3167ms
2018/1/3 上午 11:48:31:背景流程花費:25049.6696ms
2018/1/3 上午 11:48:56:背景流程花費:25050.54ms
2018/1/3 上午 11:49:21:背景流程花費:25080.9264ms
2018/1/3 上午 11:49:46:背景流程花費:25081.4073ms
2018/1/3 上午 11:50:11:背景流程花費:25049.5018ms
2018/1/3 上午 11:50:36:背景流程花費:25065.2975ms
2018/1/3 上午 11:51:02:背景流程花費:25111.9987ms
2018/1/3 上午 11:51:27:背景流程花費:25049.6033ms
2018/1/3 上午 11:51:52:背景流程花費:25095.5977ms
2018/1/3 上午 11:52:17:背景流程花費:25112.1779ms
2018/1/3 上午 11:52:42:背景流程花費:25096.4718ms
2018/1/3 上午 11:53:07:背景流程花費:25047.9751ms
2018/1/3 上午 11:53:32:背景流程花費:25065.2979ms
2018/1/3 上午 11:53:57:背景流程花費:25110.5882ms
2018/1/3 上午 11:54:22:背景流程花費:25049.4717ms
2018/1/3 上午 11:54:47:背景流程花費:25049.7037ms
2018/1/3 上午 11:55:13:背景流程花費:25078.2247ms
2018/1/3 上午 11:55:38:背景流程花費:25049.5024ms
2018/1/3 上午 11:56:03:背景流程花費:25093.012ms
2018/1/3 上午 11:56:28:背景流程花費:25159.0481ms
2018/1/3 上午 11:56:53:背景流程花費:25029.9156ms
2018/1/3 上午 11:57:18:背景流程花費:25080.9564ms
2018/1/3 上午 11:57:43:背景流程花費:25080.9212ms
2018/1/3 上午 11:58:08:背景流程花費:25076.338ms
2018/1/3 上午 11:58:33:背景流程花費:25065.1343ms
2018/1/3 上午 11:58:58:背景流程花費:25106.8497ms
2018/1/3 上午 11:59:24:背景流程花費:25096.5446ms
2018/1/3 上午 11:59:49:背景流程花費:25065.1317ms
2018/1/3 下午 12:00:14:背景流程花費:25107.3546ms
2018/1/3 下午 12:00:39:背景流程花費:25180.3705ms
2018/1/3 下午 12:01:04:背景流程花費:25175.8589ms
2018/1/3 下午 12:01:29:背景流程花費:25159.2019ms
2018/1/3 下午 12:01:55:背景流程花費:25193.1196ms
2018/1/3 下午 12:02:20:背景流程花費:25182.356ms
2018/1/3 下午 12:02:45:背景流程花費:25158.5369ms
2018/1/3 下午 12:03:10:背景流程花費:25181.0913ms
2018/1/3 下午 12:03:35:背景流程花費:25166.9735ms
2018/1/3 下午 12:04:01:背景流程花費:25190.2362ms
2018/1/3 下午 12:04:26:背景流程花費:25190.751ms
2018/1/3 下午 12:04:51:背景流程花費:25160.7997ms
2018/1/3 下午 12:05:16:背景流程花費:25166.5926ms
2018/1/3 下午 12:05:41:背景流程花費:25163.4421ms
2018/1/3 下午 12:06:06:背景流程花費:25193.5767ms
2018/1/3 下午 12:06:32:背景流程花費:25189.9656ms
2018/1/3 下午 12:06:57:背景流程花費:25163.6936ms
2018/1/3 下午 12:07:22:背景流程花費:25178.6672ms
2018/1/3 下午 12:07:47:背景流程花費:25168.2791ms
2018/1/3 下午 12:08:12:背景流程花費:25176.3516ms
2018/1/3 下午 12:08:38:背景流程花費:25192.6821ms
2018/1/3 下午 12:09:03:背景流程花費:25176.0134ms
2018/1/3 下午 12:09:28:背景流程花費:25189.2741ms
2018/1/3 下午 12:09:53:背景流程花費:25156.8979ms
2018/1/3 下午 12:10:18:背景流程花費:25157.0816ms
2018/1/3 下午 12:10:44:背景流程花費:25190.6649ms
2018/1/3 下午 12:11:09:背景流程花費:25160.6933ms
2018/1/3 下午 12:11:34:背景流程花費:25192.2938ms
2018/1/3 下午 12:11:59:背景流程花費:25154.2782ms
2018/1/3 下午 12:12:24:背景流程花費:25169.2787ms
2018/1/3 下午 12:12:50:背景流程花費:25188.1807ms
2018/1/3 下午 12:13:15:背景流程花費:25167.4308ms
2018/1/3 下午 12:13:40:背景流程花費:25192.477ms
2018/1/3 下午 12:14:05:背景流程花費:25157.9288ms
2018/1/3 下午 12:14:30:背景流程花費:25159.5509ms
2018/1/3 下午 12:14:56:背景流程花費:25184.0037ms
2018/1/3 下午 12:15:21:背景流程花費:25168.1016ms
2018/1/3 下午 12:15:46:背景流程花費:25190.6554ms
2018/1/3 下午 12:16:11:背景流程花費:25157.008ms
2018/1/3 下午 12:16:36:背景流程花費:25163.6238ms
2018/1/3 下午 12:17:02:背景流程花費:25177.1875ms
2018/1/3 下午 12:17:27:背景流程花費:25182.1685ms
2018/1/3 下午 12:17:52:背景流程花費:25193.4282ms
2018/1/3 下午 12:18:17:背景流程花費:25156.3355ms
2018/1/3 下午 12:18:42:背景流程花費:25156.9986ms
2018/1/3 下午 12:19:08:背景流程花費:25177.6037ms
2018/1/3 下午 12:19:33:背景流程花費:25177.3705ms
2018/1/3 下午 12:19:58:背景流程花費:25188.0892ms
2018/1/3 下午 12:20:23:背景流程花費:25157.099ms
2018/1/3 下午 12:20:48:背景流程花費:25157.5561ms
2018/1/3 下午 12:21:13:背景流程花費:25192.4656ms
2018/1/3 下午 12:21:39:背景流程花費:25179.6725ms
2018/1/3 下午 12:22:04:背景流程花費:25176.3291ms
2018/1/3 下午 12:22:29:背景流程花費:25149.0407ms
2018/1/3 下午 12:22:54:背景流程花費:25161.055ms
2018/1/3 下午 12:23:19:背景流程花費:25189.1001ms
2018/1/3 下午 12:23:45:背景流程花費:25187.5743ms
2018/1/3 下午 12:24:10:背景流程花費:25174.8557ms
2018/1/3 下午 12:24:35:背景流程花費:25157.2009ms
2018/1/3 下午 12:25:00:背景流程花費:25162.4156ms
2018/1/3 下午 12:25:25:背景流程花費:25160.7254ms
2018/1/3 下午 12:25:51:背景流程花費:25189.3115ms
2018/1/3 下午 12:26:16:背景流程花費:25183.4835ms
2018/1/3 下午 12:26:41:背景流程花費:25153.5562ms
2018/1/3 下午 12:27:06:背景流程花費:25162.3108ms
2018/1/3 下午 12:27:31:背景流程花費:25181.5496ms
2018/1/3 下午 12:27:57:背景流程花費:25191.2545ms
2018/1/3 下午 12:28:22:背景流程花費:25178.4275ms
2018/1/3 下午 12:28:47:背景流程花費:25187.0376ms
2018/1/3 下午 12:29:12:背景流程花費:25175.1532ms
2018/1/3 下午 12:29:37:背景流程花費:25209.6814ms
2018/1/3 下午 12:30:03:背景流程花費:25180.4977ms
2018/1/3 下午 12:30:28:背景流程花費:25164.5529ms
2018/1/3 下午 12:30:53:背景流程花費:25162.0563ms
2018/1/3 下午 12:31:18:背景流程花費:25171.6093ms
2018/1/3 下午 12:31:43:背景流程花費:25197.6692ms
2018/1/3 下午 12:32:09:背景流程花費:25175.2715ms
2018/1/3 下午 12:32:34:背景流程花費:25162.9525ms
2018/1/3 下午 12:32:59:背景流程花費:25189.6684ms
2018/1/3 下午 12:33:24:背景流程花費:25163.8591ms
2018/1/3 下午 12:33:49:背景流程花費:25183.1006ms
2018/1/3 下午 12:34:15:背景流程花費:25186.9071ms
2018/1/3 下午 12:34:40:背景流程花費:25177.6777ms
2018/1/3 下午 12:35:05:背景流程花費:25178.9387ms
2018/1/3 下午 12:35:30:背景流程花費:25151.6137ms
2018/1/3 下午 12:35:55:背景流程花費:25189.2619ms
2018/1/3 下午 12:36:21:背景流程花費:25184.2191ms
2018/1/3 下午 12:36:46:背景流程花費:25170.1911ms
2018/1/3 下午 12:37:11:背景流程花費:25150.9644ms
2018/1/3 下午 12:37:36:背景流程花費:25170.3225ms
2018/1/3 下午 12:38:01:背景流程花費:25197.605ms
2018/1/3 下午 12:38:26:背景流程花費:25174.1082ms
2018/1/3 下午 12:38:52:背景流程花費:25168.3289ms
2018/1/3 下午 12:39:17:背景流程花費:25162.0273ms
2018/1/3 下午 12:39:42:背景流程花費:25162.0196ms
2018/1/3 下午 12:40:07:背景流程花費:25187.665ms
2018/1/3 下午 12:40:32:背景流程花費:25177.9243ms
2018/1/3 下午 12:40:58:背景流程花費:25157.5012ms
2018/1/3 下午 12:41:23:背景流程花費:25132.7407ms
2018/1/3 下午 12:41:48:背景流程花費:25168.6008ms
2018/1/3 下午 12:42:13:背景流程花費:25171.9163ms
2018/1/3 下午 12:42:38:背景流程花費:25182.0092ms
2018/1/3 下午 12:43:04:背景流程花費:25188.032ms
2018/1/3 下午 12:43:29:背景流程花費:25140.8718ms
2018/1/3 下午 12:43:54:背景流程花費:25166.6341ms
2018/1/3 下午 12:44:19:背景流程花費:25178.8644ms
2018/1/3 下午 12:44:44:背景流程花費:25191.5202ms
2018/1/3 下午 12:45:10:背景流程花費:25180.3043ms
2018/1/3 下午 12:45:35:背景流程花費:25147.7707ms
2018/1/3 下午 12:46:00:背景流程花費:25158.8039ms
2018/1/3 下午 12:46:25:背景流程花費:25180.0184ms
2018/1/3 下午 12:46:50:背景流程花費:25191.6354ms
2018/1/3 下午 12:47:16:背景流程花費:25175.4979ms
2018/1/3 下午 12:47:41:背景流程花費:25143.4505ms
2018/1/3 下午 12:48:06:背景流程花費:25156.8205ms
2018/1/3 下午 12:48:31:背景流程花費:25181.7318ms
2018/1/3 下午 12:48:56:背景流程花費:25178.5057ms
2018/1/3 下午 12:49:22:背景流程花費:25190.1571ms
2018/1/3 下午 12:49:47:背景流程花費:25149.1772ms
2018/1/3 下午 12:50:12:背景流程花費:25157.0094ms
2018/1/3 下午 12:50:37:背景流程花費:25180.7619ms
2018/1/3 下午 12:51:02:背景流程花費:25196.2582ms
2018/1/3 下午 12:51:27:背景流程花費:25178.5142ms
2018/1/3 下午 12:51:53:背景流程花費:25151.7657ms
2018/1/3 下午 12:52:18:背景流程花費:25132.6257ms
2018/1/3 下午 12:52:43:背景流程花費:25191.9329ms
2018/1/3 下午 12:53:08:背景流程花費:25168.8565ms
2018/1/3 下午 12:53:33:背景流程花費:25190.243ms
2018/1/3 下午 12:53:59:背景流程花費:25161.6709ms
2018/1/3 下午 12:54:24:背景流程花費:25151.3393ms
2018/1/3 下午 12:54:49:背景流程花費:25197.7802ms
2018/1/3 下午 12:55:14:背景流程花費:25175.1578ms
2018/1/3 下午 12:55:39:背景流程花費:25195.5269ms
2018/1/3 下午 12:56:05:背景流程花費:25163.1876ms
2018/1/3 下午 12:56:30:背景流程花費:25154.3359ms
2018/1/3 下午 12:56:55:背景流程花費:25186.8007ms
2018/1/3 下午 12:57:20:背景流程花費:25180.0531ms
2018/1/3 下午 12:57:45:背景流程花費:25179.0433ms
2018/1/3 下午 12:58:11:背景流程花費:25151.8499ms
2018/1/3 下午 12:58:36:背景流程花費:25161.9397ms
2018/1/3 下午 12:59:01:背景流程花費:25185.0749ms
2018/1/3 下午 12:59:26:背景流程花費:25179.8121ms
2018/1/3 下午 12:59:51:背景流程花費:25202.5725ms
2018/1/3 下午 01:00:16:背景流程花費:25160.4247ms
2018/1/3 下午 01:00:42:背景流程花費:25172.1308ms
2018/1/3 下午 01:01:07:背景流程花費:25171.6828ms
2018/1/3 下午 01:01:32:背景流程花費:25183.9485ms
2018/1/3 下午 01:01:57:背景流程花費:25179.0159ms
2018/1/3 下午 01:02:22:背景流程花費:25167.1507ms
2018/1/3 下午 01:02:48:背景流程花費:25175.1368ms
2018/1/3 下午 01:03:13:背景流程花費:25178.6303ms
2018/1/3 下午 01:03:38:背景流程花費:25178.8826ms
2018/1/3 下午 01:04:03:背景流程花費:25167.1459ms
2018/1/3 下午 01:04:07:關閉程式中..................
2018/1/3 下午 01:04:07:關閉gateway
2018/1/3 下午 01:04:07:風扇異動:6221台
2018/1/3 下午 01:04:07:0台
2018/1/3 下午 01:04:07:500台
2018/1/3 下午 01:04:07:1000台
2018/1/3 下午 01:04:07:1500台
2018/1/3 下午 01:04:08:2000台
2018/1/3 下午 01:04:08:2500台
2018/1/3 下午 01:04:08:3000台
2018/1/3 下午 01:04:08:3500台
2018/1/3 下午 01:04:08:4000台
2018/1/3 下午 01:04:08:4500台
2018/1/3 下午 01:04:08:5000台
2018/1/3 下午 01:04:08:5500台
2018/1/3 下午 01:04:08:6000台
2018/1/3 下午 01:04:09:完成關閉風扇:6221台
2018/1/3 下午 01:04:09:關閉程式完成..................
2018/1/3 下午 01:54:52:程式啟動
2018/1/3 下午 01:55:18:背景流程花費:25248.5046ms
2018/1/3 下午 01:55:43:背景流程花費:25215.7235ms
2018/1/3 下午 01:56:08:背景流程花費:25218.8979ms
2018/1/3 下午 01:56:33:背景流程花費:25223.4732ms
2018/1/3 下午 01:56:58:背景流程花費:25228.8734ms
2018/1/3 下午 01:57:24:背景流程花費:25180.2889ms
2018/1/3 下午 01:57:49:背景流程花費:25217.0112ms
2018/1/3 下午 01:58:14:背景流程花費:25213.3234ms
2018/1/3 下午 01:58:39:背景流程花費:25229.9596ms
2018/1/3 下午 01:59:05:背景流程花費:25214.8895ms
2018/1/3 下午 01:59:30:背景流程花費:25205.4002ms
2018/1/3 下午 01:59:55:背景流程花費:25233.1903ms
2018/1/3 下午 02:00:20:背景流程花費:25218.6447ms
2018/1/3 下午 02:00:46:背景流程花費:25235.7259ms
2018/1/3 下午 02:01:11:背景流程花費:25212.3875ms
2018/1/3 下午 02:01:36:背景流程花費:25217.7356ms
2018/1/3 下午 02:02:01:背景流程花費:25218.2735ms
2018/1/3 下午 02:02:27:背景流程花費:25228.1054ms
2018/1/3 下午 02:02:52:背景流程花費:25192.6923ms
2018/1/3 下午 02:03:17:背景流程花費:25207.8732ms
2018/1/3 下午 02:03:42:背景流程花費:25220.936ms
2018/1/3 下午 02:04:07:背景流程花費:25224.0767ms
2018/1/3 下午 02:04:33:背景流程花費:25213.7753ms
2018/1/3 下午 02:04:58:背景流程花費:25233.0848ms
2018/1/3 下午 02:05:23:背景流程花費:25219.6349ms
2018/1/3 下午 02:05:48:背景流程花費:25231.4026ms
2018/1/3 下午 02:06:14:背景流程花費:25195.5249ms
2018/1/3 下午 02:06:39:背景流程花費:25207.6607ms
2018/1/3 下午 02:07:04:背景流程花費:25216.4969ms
2018/1/3 下午 02:07:29:背景流程花費:25229.5605ms
2018/1/3 下午 02:07:55:背景流程花費:25212.2149ms
2018/1/3 下午 02:08:20:背景流程花費:25200.9782ms
2018/1/3 下午 02:08:45:背景流程花費:25228.2172ms
2018/1/3 下午 02:09:10:背景流程花費:25217.1781ms
2018/1/3 下午 02:09:36:背景流程花費:25233.057ms
2018/1/3 下午 02:10:01:背景流程花費:25184.4526ms
2018/1/3 下午 02:10:26:背景流程花費:25221.6436ms
2018/1/3 下午 02:10:51:背景流程花費:25221.1174ms
2018/1/3 下午 02:11:16:背景流程花費:25231.2297ms
2018/1/3 下午 02:11:42:背景流程花費:25188.5372ms
2018/1/3 下午 02:12:07:背景流程花費:25214.7692ms
2018/1/3 下午 02:12:32:背景流程花費:25237.9699ms
2018/1/3 下午 02:12:57:背景流程花費:25238.9213ms
2018/1/3 下午 02:13:23:背景流程花費:25211.0577ms
2018/1/3 下午 02:13:48:背景流程花費:25206.3201ms
2018/1/3 下午 02:14:13:背景流程花費:25212.5935ms
2018/1/3 下午 02:14:38:背景流程花費:25231.5156ms
2018/1/3 下午 02:15:04:背景流程花費:25234.5804ms
2018/1/3 下午 02:15:29:背景流程花費:25211.3761ms
2018/1/3 下午 02:15:54:背景流程花費:25220.5164ms
2018/1/3 下午 02:16:19:背景流程花費:25223.1065ms
2018/1/3 下午 02:16:45:背景流程花費:25220.784ms
2018/1/3 下午 02:17:10:背景流程花費:25194.1222ms
2018/1/3 下午 02:17:35:背景流程花費:25229.3962ms
2018/1/3 下午 02:18:00:背景流程花費:25218.5907ms
2018/1/3 下午 02:18:25:背景流程花費:25217.4495ms
2018/1/3 下午 02:18:51:背景流程花費:25204.0189ms
2018/1/3 下午 02:19:16:背景流程花費:25182.751ms
2018/1/3 下午 02:19:41:背景流程花費:25235.5291ms
2018/1/3 下午 02:20:06:背景流程花費:25217.6441ms
2018/1/3 下午 02:20:32:背景流程花費:25206.582ms
2018/1/3 下午 02:20:57:背景流程花費:25219.0586ms
2018/1/3 下午 02:21:22:背景流程花費:25225.3237ms
2018/1/3 下午 02:21:47:背景流程花費:25237.6496ms
2018/1/3 下午 02:22:13:背景流程花費:25224.6329ms
2018/1/3 下午 02:22:38:背景流程花費:25225.8947ms
2018/1/3 下午 02:23:03:背景流程花費:25249.3055ms
2018/1/3 下午 02:23:28:背景流程花費:25231.3537ms
2018/1/3 下午 02:23:54:背景流程花費:25218.1831ms
2018/1/3 下午 02:24:19:背景流程花費:25236.9806ms
2018/1/3 下午 02:24:21:進入風機控制
2018/1/3 下午 02:24:44:背景流程花費:25239.6825ms
2018/1/3 下午 02:25:09:背景流程花費:25244.9356ms
2018/1/3 下午 02:25:35:背景流程花費:25233.2034ms
2018/1/3 下午 02:26:00:背景流程花費:25212.2101ms
2018/1/3 下午 02:26:25:背景流程花費:25226.7946ms
2018/1/3 下午 02:26:50:背景流程花費:25236.4111ms
2018/1/3 下午 02:27:16:背景流程花費:25221.2656ms
2018/1/3 下午 02:27:41:背景流程花費:25203.5254ms
2018/1/3 下午 02:28:06:背景流程花費:25217.2009ms
2018/1/3 下午 02:28:31:背景流程花費:25233.6176ms
2018/1/3 下午 02:28:57:背景流程花費:25223.1148ms
2018/1/3 下午 02:29:22:背景流程花費:25205.1217ms
2018/1/3 下午 02:29:47:背景流程花費:25203.2654ms
2018/1/3 下午 02:30:12:背景流程花費:25222.1107ms
2018/1/3 下午 02:30:37:背景流程花費:25214.9413ms
2018/1/3 下午 02:31:03:背景流程花費:25222.9042ms
2018/1/3 下午 02:31:28:背景流程花費:25222.1147ms
2018/1/3 下午 02:31:53:背景流程花費:25217.5172ms
2018/1/3 下午 02:32:18:背景流程花費:25235.8755ms
2018/1/3 下午 02:32:44:背景流程花費:25213.7668ms
2018/1/3 下午 02:33:09:背景流程花費:25218.8663ms
2018/1/3 下午 02:33:34:背景流程花費:25227.0657ms
2018/1/3 下午 02:33:59:背景流程花費:25223.1921ms
2018/1/3 下午 02:34:25:背景流程花費:25207.6097ms
2018/1/3 下午 02:34:50:背景流程花費:25213.7765ms
2018/1/3 下午 02:35:15:背景流程花費:25218.3016ms
2018/1/3 下午 02:35:40:背景流程花費:25220.5602ms
2018/1/3 下午 02:36:06:背景流程花費:25216.7501ms
2018/1/3 下午 02:36:31:背景流程花費:25204.72ms
2018/1/3 下午 02:36:56:背景流程花費:25231.4286ms
2018/1/3 下午 02:37:21:背景流程花費:25217.7141ms
2018/1/3 下午 02:37:46:背景流程花費:25228.9493ms
2018/1/3 下午 02:38:12:背景流程花費:25177.3872ms
2018/1/3 下午 02:38:37:背景流程花費:25222.2276ms
2018/1/3 下午 02:39:02:背景流程花費:25234.9487ms
2018/1/3 下午 02:39:27:背景流程花費:25173.3723ms
2018/1/3 下午 02:39:53:背景流程花費:25199.8483ms
2018/1/3 下午 02:40:18:背景流程花費:25204.9195ms
2018/1/3 下午 02:40:43:背景流程花費:25232.3726ms
2018/1/3 下午 02:41:08:背景流程花費:25220.5417ms
2018/1/3 下午 02:41:34:背景流程花費:25234.5153ms
2018/1/3 下午 02:41:59:背景流程花費:25201.1488ms
2018/1/3 下午 02:42:24:背景流程花費:25228.0157ms
2018/1/3 下午 02:42:49:背景流程花費:25232.9733ms
2018/1/3 下午 02:43:14:背景流程花費:25216.7415ms
2018/1/3 下午 02:43:40:背景流程花費:25206.2937ms
2018/1/3 下午 02:44:05:背景流程花費:25230.9009ms
2018/1/3 下午 02:44:30:背景流程花費:25221.8877ms
2018/1/3 下午 02:44:55:背景流程花費:25219.3706ms
2018/1/3 下午 02:45:21:背景流程花費:25212.802ms
2018/1/3 下午 02:45:46:背景流程花費:25205.708ms
2018/1/3 下午 02:46:11:背景流程花費:25222.4876ms
2018/1/3 下午 02:46:36:背景流程花費:25220.8691ms
2018/1/3 下午 02:47:02:背景流程花費:25215.1688ms
2018/1/3 下午 02:47:27:背景流程花費:25215.3962ms
2018/1/3 下午 02:47:52:背景流程花費:25231.3293ms
2018/1/3 下午 02:48:17:背景流程花費:25222.8571ms
2018/1/3 下午 02:48:43:背景流程花費:25232.5845ms
2018/1/3 下午 02:49:08:背景流程花費:25218.9596ms
2018/1/3 下午 02:49:33:背景流程花費:25220.1449ms
2018/1/3 下午 02:49:58:背景流程花費:25227.1425ms
2018/1/3 下午 02:50:24:背景流程花費:25202.168ms
2018/1/3 下午 02:50:49:背景流程花費:25207.1714ms
2018/1/3 下午 02:51:14:背景流程花費:25221.9073ms
2018/1/3 下午 02:51:39:背景流程花費:25207.7167ms
2018/1/3 下午 02:52:04:背景流程花費:25231.3062ms
2018/1/3 下午 02:52:30:背景流程花費:25176.0766ms
2018/1/3 下午 02:52:55:背景流程花費:25225.3679ms
2018/1/3 下午 02:53:20:背景流程花費:25236.493ms
2018/1/3 下午 02:53:45:背景流程花費:25215.1561ms
2018/1/3 下午 02:54:11:背景流程花費:25209.1807ms
2018/1/3 下午 02:54:36:背景流程花費:25197.9967ms
2018/1/3 下午 02:55:01:背景流程花費:25224.6903ms
2018/1/3 下午 02:55:26:背景流程花費:25230.039ms
2018/1/3 下午 02:55:52:背景流程花費:25237.0531ms
2018/1/3 下午 02:56:17:背景流程花費:25213.368ms
2018/1/3 下午 02:56:42:背景流程花費:25235.0102ms
2018/1/3 下午 02:57:07:背景流程花費:25200.7688ms
2018/1/3 下午 02:57:33:背景流程花費:25222.107ms
2018/1/3 下午 02:57:58:背景流程花費:25195.0871ms
2018/1/3 下午 02:58:23:背景流程花費:25233.4939ms
2018/1/3 下午 02:58:48:背景流程花費:25221.5449ms
2018/1/3 下午 02:59:13:背景流程花費:25217.3821ms
2018/1/3 下午 02:59:39:背景流程花費:25207.8424ms
2018/1/3 下午 03:00:04:背景流程花費:25206.4865ms
2018/1/3 下午 03:00:29:背景流程花費:25229.1003ms
2018/1/3 下午 03:00:54:背景流程花費:25237.205ms
2018/1/3 下午 03:01:20:背景流程花費:25215.4786ms
2018/1/3 下午 03:01:45:背景流程花費:25214.4819ms
2018/1/3 下午 03:02:10:背景流程花費:25231.0701ms
2018/1/3 下午 03:02:35:背景流程花費:25216.4161ms
2018/1/3 下午 03:03:01:背景流程花費:25204.6385ms
2018/1/3 下午 03:03:26:背景流程花費:25221.971ms
2018/1/3 下午 03:03:51:背景流程花費:25218.9633ms
2018/1/3 下午 03:04:16:背景流程花費:25225.1654ms
2018/1/3 下午 03:04:42:背景流程花費:25197.0008ms
2018/1/3 下午 03:05:07:背景流程花費:25207.6171ms
2018/1/3 下午 03:05:32:背景流程花費:25211.962ms
2018/1/3 下午 03:05:57:背景流程花費:25226.1475ms
2018/1/3 下午 03:06:23:背景流程花費:25222.8053ms
2018/1/3 下午 03:06:48:背景流程花費:25160.8406ms
2018/1/3 下午 03:07:13:背景流程花費:25231.4942ms
2018/1/3 下午 03:07:38:背景流程花費:25215.7394ms
2018/1/3 下午 03:08:03:背景流程花費:25224.4915ms
2018/1/3 下午 03:08:29:背景流程花費:25207.9661ms
2018/1/3 下午 03:08:54:背景流程花費:25211.8855ms
2018/1/3 下午 03:09:19:背景流程花費:25225.5738ms
2018/1/3 下午 03:09:44:背景流程花費:25215.057ms
2018/1/3 下午 03:10:10:背景流程花費:25211.6196ms
2018/1/3 下午 03:10:35:背景流程花費:25204.9877ms
2018/1/3 下午 03:11:00:背景流程花費:25223.2274ms
2018/1/3 下午 03:11:25:背景流程花費:25226.6445ms
2018/1/3 下午 03:11:51:背景流程花費:25216.5715ms
2018/1/3 下午 03:12:16:背景流程花費:25198.9791ms
2018/1/3 下午 03:12:41:背景流程花費:25220.9104ms
2018/1/3 下午 03:13:06:背景流程花費:25215.616ms
2018/1/3 下午 03:13:31:背景流程花費:25223.6004ms
2018/1/3 下午 03:13:57:背景流程花費:25201.3115ms
2018/1/3 下午 03:14:22:背景流程花費:25219.6949ms
2018/1/3 下午 03:14:47:背景流程花費:25228.185ms
2018/1/3 下午 03:15:12:背景流程花費:25234.2548ms
2018/1/3 下午 03:15:38:背景流程花費:25203.8135ms
2018/1/3 下午 03:16:03:背景流程花費:25220.4222ms
2018/1/3 下午 03:16:28:背景流程花費:25221.0835ms
2018/1/3 下午 03:16:53:背景流程花費:25228.2874ms
2018/1/3 下午 03:17:19:背景流程花費:25216.6027ms
2018/1/3 下午 03:17:44:背景流程花費:25192.4438ms
2018/1/3 下午 03:18:09:背景流程花費:25233.8306ms
2018/1/3 下午 03:18:34:背景流程花費:25222.902ms
2018/1/3 下午 03:19:00:背景流程花費:25217.6546ms
2018/1/3 下午 03:19:25:背景流程花費:25218.1405ms
2018/1/3 下午 03:19:50:背景流程花費:25217.7151ms
2018/1/3 下午 03:20:15:背景流程花費:25237.4715ms
2018/1/3 下午 03:20:41:背景流程花費:25223.1868ms
2018/1/3 下午 03:21:06:背景流程花費:25169.4219ms
2018/1/3 下午 03:21:31:背景流程花費:25213.4067ms
2018/1/3 下午 03:21:56:背景流程花費:25218.8785ms
2018/1/3 下午 03:22:21:背景流程花費:25233.3167ms
2018/1/3 下午 03:22:47:背景流程花費:25211.2674ms
2018/1/3 下午 03:23:12:背景流程花費:25218.3617ms
2018/1/3 下午 03:23:37:背景流程花費:25225.7817ms
2018/1/3 下午 03:24:02:背景流程花費:25220.0837ms
2018/1/3 下午 03:24:28:背景流程花費:25205.3191ms
2018/1/3 下午 03:24:53:背景流程花費:25201.8056ms
2018/1/3 下午 03:25:18:背景流程花費:25230.5544ms
2018/1/3 下午 03:25:43:背景流程花費:25229.8988ms
2018/1/3 下午 03:26:09:背景流程花費:25223.8478ms
2018/1/3 下午 03:26:34:背景流程花費:25208.9924ms
2018/1/3 下午 03:26:59:背景流程花費:25235.9862ms
2018/1/3 下午 03:27:24:背景流程花費:25222.8715ms
2018/1/3 下午 03:27:50:背景流程花費:25227.9185ms
2018/1/3 下午 03:28:15:背景流程花費:25206.6375ms
2018/1/3 下午 03:28:40:背景流程花費:25221.0125ms
2018/1/3 下午 03:29:05:背景流程花費:25214.0737ms
2018/1/3 下午 03:29:30:背景流程花費:25235.1644ms
2018/1/3 下午 03:29:56:背景流程花費:25196.73ms
2018/1/3 下午 03:30:21:背景流程花費:25227.2409ms
2018/1/3 下午 03:30:46:背景流程花費:25233.3485ms
2018/1/3 下午 03:31:11:背景流程花費:25220.6959ms
2018/1/3 下午 03:31:37:背景流程花費:25210.1433ms
2018/1/3 下午 03:32:02:背景流程花費:25231.4987ms
2018/1/3 下午 03:32:27:背景流程花費:25223.509ms
2018/1/3 下午 03:32:52:背景流程花費:25201.6481ms
2018/1/3 下午 03:33:18:背景流程花費:25194.42ms
2018/1/3 下午 03:33:43:背景流程花費:25205.0176ms
2018/1/3 下午 03:34:08:背景流程花費:25230.6844ms
2018/1/3 下午 03:34:33:背景流程花費:25232.6035ms
2018/1/3 下午 03:34:59:背景流程花費:25214.0068ms
2018/1/3 下午 03:35:24:背景流程花費:25200.8169ms
2018/1/3 下午 03:35:49:背景流程花費:25232.2434ms
2018/1/3 下午 03:36:14:背景流程花費:25219.2862ms
2018/1/3 下午 03:36:40:背景流程花費:25232.3109ms
2018/1/3 下午 03:37:05:背景流程花費:25183.3859ms
2018/1/3 下午 03:37:30:背景流程花費:25209.1989ms
2018/1/3 下午 03:37:55:背景流程花費:25215.9357ms
2018/1/3 下午 03:38:20:背景流程花費:25219.7316ms
2018/1/3 下午 03:38:46:背景流程花費:25216.0628ms
2018/1/3 下午 03:39:11:背景流程花費:25219.7734ms
2018/1/3 下午 03:39:36:背景流程花費:25226.6106ms
2018/1/3 下午 03:40:01:背景流程花費:25215.4476ms
2018/1/3 下午 03:40:27:背景流程花費:25219.0319ms
2018/1/3 下午 03:40:52:背景流程花費:25189.4798ms
2018/1/3 下午 03:41:17:背景流程花費:25221.8337ms
2018/1/3 下午 03:41:42:背景流程花費:25226.4789ms
2018/1/3 下午 03:42:08:背景流程花費:25232.0307ms
2018/1/3 下午 03:42:33:背景流程花費:25217.3014ms
2018/1/3 下午 03:42:58:背景流程花費:25222.5066ms
2018/1/3 下午 03:43:23:背景流程花費:25227.687ms
2018/1/3 下午 03:43:30:進入Gateway通訊
2018/1/3 下午 03:43:48:背景流程花費:25223.7858ms
2018/1/3 下午 03:44:14:背景流程花費:25183.847ms
2018/1/3 下午 03:44:39:背景流程花費:25228.4109ms
2018/1/3 下午 03:45:04:背景流程花費:25218.0782ms
2018/1/3 下午 03:45:29:背景流程花費:25229.3987ms
2018/1/3 下午 03:45:55:背景流程花費:25171.7527ms
2018/1/3 下午 03:46:20:背景流程花費:25205.3455ms
2018/1/3 下午 03:46:45:背景流程花費:25224.0284ms
2018/1/3 下午 03:47:10:背景流程花費:25222.8127ms
2018/1/3 下午 03:47:36:背景流程花費:25199.2898ms
2018/1/3 下午 03:48:01:背景流程花費:25182.9376ms
2018/1/3 下午 03:48:26:背景流程花費:25227.5433ms
2018/1/3 下午 03:48:51:背景流程花費:25230.9646ms
2018/1/3 下午 03:49:16:背景流程花費:25219.7746ms
2018/1/3 下午 03:49:42:背景流程花費:25167.098ms
2018/1/3 下午 03:50:07:背景流程花費:25221.5765ms
2018/1/3 下午 03:50:32:背景流程花費:25235.4633ms
2018/1/3 下午 03:50:57:背景流程花費:25210.2426ms
2018/1/3 下午 03:51:23:背景流程花費:25210.2741ms
2018/1/3 下午 03:51:48:背景流程花費:25198.5786ms
2018/1/3 下午 03:52:13:背景流程花費:25227.1394ms
2018/1/3 下午 03:52:38:背景流程花費:25231.6012ms
2018/1/3 下午 03:53:04:背景流程花費:25219.4466ms
2018/1/3 下午 03:53:29:背景流程花費:25201.278ms
2018/1/3 下午 03:53:54:背景流程花費:25217.497ms
2018/1/3 下午 03:54:19:背景流程花費:25223.005ms
2018/1/3 下午 03:54:44:背景流程花費:25226.0969ms
2018/1/3 下午 03:55:10:背景流程花費:25190.7095ms
2018/1/3 下午 03:55:35:背景流程花費:25209.2413ms
2018/1/3 下午 03:56:00:背景流程花費:25221.1697ms
2018/1/3 下午 03:56:25:背景流程花費:25228.7732ms
2018/1/3 下午 03:56:51:背景流程花費:25203.4529ms
2018/1/3 下午 03:57:16:背景流程花費:25212.0959ms
2018/1/3 下午 03:57:41:背景流程花費:25222.7234ms
2018/1/3 下午 03:58:06:背景流程花費:25214.0982ms
2018/1/3 下午 03:58:32:背景流程花費:25218.0582ms
2018/1/3 下午 03:58:57:背景流程花費:25205.4912ms
2018/1/3 下午 03:59:22:背景流程花費:25217.7024ms
2018/1/3 下午 03:59:47:背景流程花費:25227.0759ms
2018/1/3 下午 04:00:13:背景流程花費:25238.9637ms
2018/1/3 下午 04:00:38:背景流程花費:25207.3577ms
2018/1/3 下午 04:01:03:背景流程花費:25226.9841ms
2018/1/3 下午 04:01:28:背景流程花費:25226.4869ms
2018/1/3 下午 04:01:53:背景流程花費:25214.3968ms
2018/1/3 下午 04:02:19:背景流程花費:25203.9082ms
2018/1/3 下午 04:02:44:背景流程花費:25213.6565ms
2018/1/3 下午 04:03:09:背景流程花費:25224.4039ms
2018/1/3 下午 04:03:34:背景流程花費:25211.8309ms
2018/1/3 下午 04:04:00:背景流程花費:25172.5198ms
2018/1/3 下午 04:04:25:背景流程花費:25187.5672ms
2018/1/3 下午 04:04:50:背景流程花費:25220.1773ms
2018/1/3 下午 04:05:15:背景流程花費:25234.0423ms
2018/1/3 下午 04:05:41:背景流程花費:25217.2108ms
2018/1/3 下午 04:06:06:背景流程花費:25158.6091ms
2018/1/3 下午 04:06:31:背景流程花費:25218.1743ms
2018/1/3 下午 04:06:56:背景流程花費:25228.7647ms
2018/1/3 下午 04:07:21:背景流程花費:25219.6169ms
2018/1/3 下午 04:07:47:背景流程花費:25198.4299ms
2018/1/3 下午 04:08:12:背景流程花費:25227.5902ms
2018/1/3 下午 04:08:37:背景流程花費:25213.9449ms
2018/1/3 下午 04:09:02:背景流程花費:25232.1848ms
2018/1/3 下午 04:09:28:背景流程花費:25221.2468ms
2018/1/3 下午 04:09:53:背景流程花費:25187.716ms
2018/1/3 下午 04:10:18:背景流程花費:25236.1801ms
2018/1/3 下午 04:10:43:背景流程花費:25222.299ms
2018/1/3 下午 04:11:08:背景流程花費:25140.5979ms
2018/1/3 下午 04:11:34:背景流程花費:25060.6281ms
2018/1/3 下午 04:11:59:背景流程花費:25065.628ms
2018/1/3 下午 04:12:24:背景流程花費:25061.6413ms
2018/1/3 下午 04:12:38:背景流程花費:4065.8021ms
2018/1/3 下午 04:12:48:背景流程花費:61.162ms
2018/1/3 下午 04:12:58:背景流程花費:85.2481ms
2018/1/3 下午 04:13:08:背景流程花費:54.1447ms
2018/1/3 下午 04:13:18:背景流程花費:58.1637ms
2018/1/3 下午 04:13:43:背景流程花費:25072.6399ms
2018/1/3 下午 04:14:08:背景流程花費:25083.6772ms
2018/1/3 下午 04:14:33:背景流程花費:25095.708ms
2018/1/3 下午 04:14:58:背景流程花費:25093.7041ms
2018/1/3 下午 04:15:23:背景流程花費:25087.6872ms
2018/1/3 下午 04:15:49:背景流程花費:25075.6343ms
2018/1/3 下午 04:16:14:背景流程花費:25085.6816ms
2018/1/3 下午 04:16:39:背景流程花費:25086.2016ms
2018/1/3 下午 04:17:04:背景流程花費:25081.4591ms
2018/1/3 下午 04:17:29:背景流程花費:25070.2605ms
2018/1/3 下午 04:17:54:背景流程花費:25072.6576ms
2018/1/3 下午 04:18:19:背景流程花費:25067.8405ms
2018/1/3 下午 04:18:44:背景流程花費:25066.6601ms
2018/1/3 下午 04:19:09:背景流程花費:25069.7118ms
2018/1/3 下午 04:19:34:背景流程花費:25065.9219ms
2018/1/3 下午 04:19:59:背景流程花費:25065.3649ms
2018/1/3 下午 04:20:24:背景流程花費:25068.7427ms
2018/1/3 下午 04:20:50:背景流程花費:25076.6065ms
2018/1/3 下午 04:21:15:背景流程花費:25078.7028ms
2018/1/3 下午 04:21:40:背景流程花費:25076.7697ms
2018/1/3 下午 04:22:05:背景流程花費:25073.8445ms
2018/1/3 下午 04:22:30:背景流程花費:25077.6134ms
2018/1/3 下午 04:22:55:背景流程花費:25074.1816ms
2018/1/3 下午 04:23:20:背景流程花費:25075.8447ms
2018/1/3 下午 04:23:45:背景流程花費:25070.4204ms
2018/1/3 下午 04:24:10:背景流程花費:25070.1359ms
2018/1/3 下午 04:24:35:背景流程花費:25075.0105ms
2018/1/3 下午 04:25:00:背景流程花費:25073.8343ms
2018/1/3 下午 04:25:25:背景流程花費:25070.4844ms
2018/1/3 下午 04:25:50:背景流程花費:25071.7724ms
2018/1/3 下午 04:26:16:背景流程花費:25066.9527ms
2018/1/3 下午 04:26:41:背景流程花費:25067.9139ms
2018/1/3 下午 04:27:06:背景流程花費:25067.3402ms
2018/1/3 下午 04:27:31:背景流程花費:25060.352ms
2018/1/3 下午 04:27:56:背景流程花費:25064.0597ms
2018/1/3 下午 04:28:21:背景流程花費:25062.105ms
2018/1/3 下午 04:28:46:背景流程花費:25062.9085ms
2018/1/3 下午 04:29:11:背景流程花費:25057.6545ms
2018/1/3 下午 04:29:36:背景流程花費:25061.7033ms
2018/1/3 下午 04:30:01:背景流程花費:25058.9368ms
2018/1/3 下午 04:30:26:背景流程花費:25059.4212ms
2018/1/3 下午 04:30:51:背景流程花費:25059.0341ms
2018/1/3 下午 04:31:16:背景流程花費:25062.7113ms
2018/1/3 下午 04:31:41:背景流程花費:25061.9115ms
2018/1/3 下午 04:32:06:背景流程花費:25060.5692ms
2018/1/3 下午 04:32:32:背景流程花費:25063.5419ms
2018/1/3 下午 04:32:57:背景流程花費:25062.0685ms
2018/1/3 下午 04:33:22:背景流程花費:25062.0404ms
2018/1/3 下午 04:33:47:背景流程花費:25063.1884ms
2018/1/3 下午 04:34:12:背景流程花費:25062.6881ms
2018/1/3 下午 04:34:37:背景流程花費:25059.2682ms
2018/1/3 下午 04:35:02:背景流程花費:25059.1718ms
2018/1/3 下午 04:35:27:背景流程花費:25063.8594ms
2018/1/3 下午 04:35:52:背景流程花費:25059.1106ms
2018/1/3 下午 04:36:17:背景流程花費:25060.8545ms
2018/1/3 下午 04:36:42:背景流程花費:25060.896ms
2018/1/3 下午 04:37:07:背景流程花費:25059.333ms
2018/1/3 下午 04:37:32:背景流程花費:25059.7847ms
2018/1/3 下午 04:37:57:背景流程花費:25060.0444ms
2018/1/3 下午 04:38:22:背景流程花費:25061.6328ms
2018/1/3 下午 04:38:48:背景流程花費:25063.0285ms
2018/1/3 下午 04:39:13:背景流程花費:25062.0449ms
2018/1/3 下午 04:39:38:背景流程花費:25058.0869ms
2018/1/3 下午 04:40:03:背景流程花費:25059.0878ms
2018/1/3 下午 04:40:28:背景流程花費:25062.731ms
2018/1/3 下午 04:40:53:背景流程花費:25063.2242ms
2018/1/3 下午 04:41:18:背景流程花費:25061.0641ms
2018/1/3 下午 04:41:43:背景流程花費:25059.5941ms
2018/1/3 下午 04:42:08:背景流程花費:25063.5804ms
2018/1/3 下午 04:42:33:背景流程花費:25060.9862ms
2018/1/3 下午 04:42:58:背景流程花費:25062.3945ms
2018/1/3 下午 04:43:23:背景流程花費:25063.683ms
2018/1/3 下午 04:43:48:背景流程花費:25061.8751ms
2018/1/3 下午 04:44:13:背景流程花費:25063.6043ms
2018/1/3 下午 04:44:38:背景流程花費:25062.9349ms
2018/1/3 下午 04:45:04:背景流程花費:25060.7433ms
2018/1/3 下午 04:45:29:背景流程花費:25062.0066ms
2018/1/3 下午 04:45:54:背景流程花費:25062.613ms
2018/1/3 下午 04:46:19:背景流程花費:25063.5857ms
2018/1/3 下午 04:46:44:背景流程花費:25062.7205ms
2018/1/3 下午 04:47:09:背景流程花費:25059.1536ms
2018/1/3 下午 04:47:34:背景流程花費:25059.7014ms
2018/1/3 下午 04:47:59:背景流程花費:25069.22ms
2018/1/3 下午 04:48:05:進入消防群組管理
2018/1/3 下午 04:48:24:背景流程花費:25062.8368ms
2018/1/3 下午 04:48:43:進入歷史警報
2018/1/3 下午 04:48:49:背景流程花費:25064.6641ms
2018/1/3 下午 04:48:54:關閉程式中..................
2018/1/3 下午 04:48:54:關閉gateway
2018/1/3 下午 04:48:54:風扇異動:6221台
2018/1/3 下午 04:48:54:0台
2018/1/3 下午 04:48:54:500台
2018/1/3 下午 04:48:55:1000台
2018/1/3 下午 04:48:55:1500台
2018/1/3 下午 04:48:55:2000台
2018/1/3 下午 04:48:55:2500台
2018/1/3 下午 04:48:55:3000台
2018/1/3 下午 04:48:55:3500台
2018/1/3 下午 04:48:55:4000台
2018/1/3 下午 04:48:55:4500台
2018/1/3 下午 04:48:55:5000台
2018/1/3 下午 04:48:56:5500台
2018/1/3 下午 04:48:56:6000台
2018/1/3 下午 04:48:56:完成關閉風扇:6221台
2018/1/3 下午 04:48:56:關閉程式完成..................
2018/1/3 下午 04:49:53:程式啟動
2018/1/3 下午 04:50:18:背景流程花費:25083.5674ms
2018/1/3 下午 04:50:43:背景流程花費:25068.2125ms
2018/1/3 下午 04:51:08:背景流程花費:25070.0327ms
2018/1/3 下午 04:51:14:進入風機控制
2018/1/3 下午 04:51:33:背景流程花費:25067.2215ms
2018/1/3 下午 04:51:58:背景流程花費:25075.5099ms
2018/1/3 下午 04:52:23:背景流程花費:25066.3699ms
2018/1/3 下午 04:52:48:背景流程花費:25069.0599ms
2018/1/3 下午 04:53:13:背景流程花費:25070.5766ms
2018/1/3 下午 04:53:38:背景流程花費:25069.2408ms
2018/1/3 下午 04:54:04:背景流程花費:25068.14ms
2018/1/3 下午 04:54:29:背景流程花費:25068.326ms
2018/1/3 下午 04:54:54:背景流程花費:25065.0265ms
2018/1/3 下午 04:55:19:背景流程花費:25063.4856ms
2018/1/3 下午 04:55:44:背景流程花費:25068.7132ms
2018/1/3 下午 04:56:09:背景流程花費:25063.3562ms
2018/1/3 下午 04:56:34:背景流程花費:25062.2028ms
2018/1/3 下午 04:56:59:背景流程花費:25064.4849ms
2018/1/3 下午 04:57:24:背景流程花費:25070.8416ms
2018/1/3 下午 04:57:49:背景流程花費:25062.1559ms
2018/1/3 下午 04:58:14:背景流程花費:25066.9832ms
2018/1/3 下午 04:58:39:背景流程花費:25063.6461ms
2018/1/3 下午 04:59:04:背景流程花費:25063.8062ms
2018/1/3 下午 04:59:29:背景流程花費:25057.8258ms
2018/1/3 下午 04:59:54:背景流程花費:25062.0594ms
2018/1/3 下午 05:00:20:背景流程花費:25059.4434ms
2018/1/3 下午 05:00:45:背景流程花費:25071.3977ms
2018/1/3 下午 05:01:10:背景流程花費:25062.8254ms
2018/1/3 下午 05:01:35:背景流程花費:25060.9677ms
2018/1/3 下午 05:02:00:背景流程花費:25060.0325ms
2018/1/3 下午 05:02:25:背景流程花費:25063.4003ms
2018/1/3 下午 05:02:50:背景流程花費:25060.9953ms
2018/1/3 下午 05:03:15:背景流程花費:25064.5901ms
2018/1/3 下午 05:03:40:背景流程花費:25060.844ms
2018/1/3 下午 05:04:05:背景流程花費:25064.2969ms
2018/1/3 下午 05:04:30:背景流程花費:25061.5799ms
2018/1/3 下午 05:04:55:背景流程花費:25066.2135ms
2018/1/3 下午 05:05:20:背景流程花費:25062.8943ms
2018/1/3 下午 05:05:45:背景流程花費:25063.6898ms
2018/1/3 下午 05:06:11:背景流程花費:25058.7308ms
2018/1/3 下午 05:06:36:背景流程花費:25068.7504ms
2018/1/3 下午 05:07:01:背景流程花費:25061.4505ms
2018/1/3 下午 05:07:26:背景流程花費:25064.2206ms
2018/1/3 下午 05:07:51:背景流程花費:25063.7772ms
2018/1/3 下午 05:08:16:背景流程花費:25061.0716ms
2018/1/3 下午 05:08:41:背景流程花費:25064.3224ms
2018/1/3 下午 05:09:06:背景流程花費:25057.5709ms
2018/1/3 下午 05:09:31:背景流程花費:25060.1878ms
2018/1/3 下午 05:09:56:背景流程花費:25058.6086ms
2018/1/3 下午 05:10:21:背景流程花費:25064.6257ms
2018/1/3 下午 05:10:46:背景流程花費:25065.6281ms
2018/1/3 下午 05:11:11:背景流程花費:25058.6086ms
2018/1/3 下午 05:11:36:背景流程花費:25068.6125ms
2018/1/3 下午 05:12:02:背景流程花費:25071.6449ms
2018/1/3 下午 05:12:27:背景流程花費:25068.6355ms
2018/1/3 下午 05:12:52:背景流程花費:25063.6011ms
2018/1/3 下午 05:13:17:背景流程花費:25061.6177ms
2018/1/3 下午 05:13:42:背景流程花費:25061.6166ms
2018/1/3 下午 05:14:07:背景流程花費:25073.6281ms
2018/1/3 下午 05:14:32:背景流程花費:25062.6429ms
2018/1/3 下午 05:14:57:背景流程花費:25069.6401ms
2018/1/3 下午 05:15:22:背景流程花費:25064.6246ms
2018/1/3 下午 05:15:47:背景流程花費:25067.6115ms
2018/1/3 下午 05:16:12:背景流程花費:25060.6138ms
2018/1/3 下午 05:16:37:背景流程花費:25067.6388ms
2018/1/3 下午 05:17:02:背景流程花費:25070.6201ms
2018/1/3 下午 05:17:27:背景流程花費:25068.6358ms
2018/1/3 下午 05:17:53:背景流程花費:25058.6091ms
2018/1/3 下午 05:18:18:背景流程花費:25062.5981ms
2018/1/3 下午 05:18:43:背景流程花費:25066.6089ms
2018/1/3 下午 05:19:08:背景流程花費:25070.6193ms
2018/1/3 下午 05:19:33:背景流程花費:25065.6295ms
2018/1/3 下午 05:19:58:背景流程花費:25060.6153ms
2018/1/3 下午 05:20:23:背景流程花費:25066.6298ms
2018/1/3 下午 05:20:48:背景流程花費:25074.6313ms
2018/1/3 下午 05:21:13:背景流程花費:25068.6352ms
2018/1/3 下午 05:21:38:背景流程花費:25063.6241ms
2018/1/3 下午 05:22:03:背景流程花費:25062.6192ms
2018/1/3 下午 05:22:28:背景流程花費:25067.6337ms
2018/1/3 下午 05:22:53:背景流程花費:25059.5891ms
2018/1/3 下午 05:23:19:背景流程花費:25065.607ms
2018/1/3 下午 05:23:44:背景流程花費:25061.645ms
2018/1/3 下午 05:24:09:背景流程花費:25067.6112ms
2018/1/3 下午 05:24:34:背景流程花費:25063.6017ms
2018/1/3 下午 05:24:59:背景流程花費:25063.6503ms
2018/1/3 下午 05:25:24:背景流程花費:25066.6311ms
2018/1/3 下午 05:25:49:背景流程花費:25060.592ms
2018/1/3 下午 05:26:14:背景流程花費:25066.6313ms
2018/1/3 下午 05:26:39:背景流程花費:25066.6086ms
2018/1/3 下午 05:27:04:背景流程花費:25066.6091ms
2018/1/3 下午 05:27:29:背景流程花費:25066.6302ms
2018/1/3 下午 05:27:54:背景流程花費:25067.6118ms
2018/1/3 下午 05:28:19:背景流程花費:25060.6145ms
2018/1/3 下午 05:28:44:背景流程花費:25070.6408ms
2018/1/3 下午 05:29:10:背景流程花費:25065.6058ms
2018/1/3 下午 05:29:35:背景流程花費:25061.5966ms
2018/1/3 下午 05:30:00:背景流程花費:25053.5745ms
2018/1/3 下午 05:30:25:背景流程花費:25059.6127ms
2018/1/3 下午 05:30:50:背景流程花費:25057.6073ms
2018/1/3 下午 05:31:15:背景流程花費:25063.5997ms
2018/1/3 下午 05:31:40:背景流程花費:25059.612ms
2018/1/3 下午 05:32:05:背景流程花費:25067.6345ms
2018/1/3 下午 05:32:30:背景流程花費:25067.6328ms
2018/1/3 下午 05:32:55:背景流程花費:25069.6165ms
2018/1/3 下午 05:33:20:背景流程花費:25067.6354ms
2018/1/3 下午 05:33:45:背景流程花費:25061.6447ms
2018/1/3 下午 05:34:10:背景流程花費:25064.6248ms
2018/1/3 下午 05:34:35:背景流程花費:25064.6257ms
2018/1/3 下午 05:35:01:背景流程花費:25065.6283ms
2018/1/3 下午 05:35:26:背景流程花費:25066.6032ms
2018/1/3 下午 05:35:51:背景流程花費:25065.6064ms
2018/1/3 下午 05:36:16:背景流程花費:25070.6414ms
2018/1/3 下午 05:36:41:背景流程花費:25066.6085ms
2018/1/3 下午 05:37:06:背景流程花費:25065.6064ms
2018/1/3 下午 05:37:31:背景流程花費:25071.6429ms
2018/1/3 下午 05:37:56:背景流程花費:25066.6097ms
2018/1/3 下午 05:38:21:背景流程花費:25071.6215ms
2018/1/3 下午 05:38:46:背景流程花費:25070.6405ms
2018/1/3 下午 05:39:11:背景流程花費:25057.5973ms
2018/1/3 下午 05:39:36:背景流程花費:25063.623ms
2018/1/3 下午 05:40:01:背景流程花費:25065.6602ms
2018/1/3 下午 05:40:27:背景流程花費:25059.591ms
2018/1/3 下午 05:40:52:背景流程花費:25057.6059ms
2018/1/3 下午 05:41:17:背景流程花費:25063.6233ms
2018/1/3 下午 05:41:42:背景流程花費:25062.6139ms
2018/1/3 下午 05:42:07:背景流程花費:25063.6233ms
2018/1/3 下午 05:42:32:背景流程花費:25059.6129ms
2018/1/3 下午 05:42:57:背景流程花費:25067.6329ms
2018/1/3 下午 05:43:22:背景流程花費:25069.6609ms
2018/1/3 下午 05:43:47:背景流程花費:25071.672ms
2018/1/3 下午 05:44:12:背景流程花費:25076.6351ms
2018/1/3 下午 05:44:37:背景流程花費:25067.6129ms
2018/1/3 下午 05:45:02:背景流程花費:25057.6073ms
2018/1/3 下午 05:45:27:背景流程花費:25065.6275ms
2018/1/3 下午 05:45:52:背景流程花費:25065.607ms
2018/1/3 下午 05:46:18:背景流程花費:25065.6273ms
2018/1/3 下午 05:46:43:背景流程花費:25065.6508ms
2018/1/3 下午 05:47:08:背景流程花費:25064.6272ms
2018/1/3 下午 05:47:33:背景流程花費:25064.6243ms
2018/1/3 下午 05:47:58:背景流程花費:25065.6287ms
2018/1/3 下午 05:48:23:背景流程花費:25066.6088ms
2018/1/3 下午 05:48:48:背景流程花費:25063.6216ms
2018/1/3 下午 05:49:13:背景流程花費:25063.6008ms
2018/1/3 下午 05:49:38:背景流程花費:25066.6307ms
2018/1/3 下午 05:50:03:背景流程花費:25065.6059ms
2018/1/3 下午 05:50:28:背景流程花費:25066.631ms
2018/1/3 下午 05:50:53:背景流程花費:25074.631ms
2018/1/3 下午 05:51:18:背景流程花費:25068.6352ms
2018/1/3 下午 05:51:44:背景流程花費:25062.6201ms
2018/1/3 下午 05:52:09:背景流程花費:25063.6003ms
2018/1/3 下午 05:52:34:背景流程花費:25064.6246ms
2018/1/3 下午 05:52:59:背景流程花費:25063.6008ms
2018/1/3 下午 05:53:24:背景流程花費:25068.6136ms
2018/1/3 下午 05:53:49:背景流程花費:25067.6123ms
2018/1/3 下午 05:54:14:背景流程花費:25068.6597ms
2018/1/3 下午 05:54:39:背景流程花費:25066.654ms
2018/1/3 下午 05:55:04:背景流程花費:25068.6349ms
2018/1/3 下午 05:55:29:背景流程花費:25075.655ms
2018/1/3 下午 05:55:54:背景流程花費:25070.6201ms
2018/1/3 下午 05:56:19:背景流程花費:25071.6447ms
2018/1/3 下午 05:56:44:背景流程花費:25067.6124ms
2018/1/3 下午 05:57:10:背景流程花費:25067.6328ms
2018/1/3 下午 05:57:35:背景流程花費:25063.6009ms
2018/1/3 下午 05:58:00:背景流程花費:25064.5973ms
2018/1/3 下午 05:58:25:背景流程花費:25065.6283ms
2018/1/3 下午 05:58:50:背景流程花費:25066.631ms
2018/1/3 下午 05:59:15:背景流程花費:25073.6502ms
2018/1/3 下午 05:59:40:背景流程花費:25071.6164ms
2018/1/3 下午 06:00:05:背景流程花費:25070.6422ms
2018/1/3 下午 06:00:30:背景流程花費:25067.6339ms
2018/1/3 下午 06:00:55:背景流程花費:25068.6353ms
2018/1/3 下午 06:01:20:背景流程花費:25065.6047ms
2018/1/3 下午 06:01:45:背景流程花費:25061.5955ms
2018/1/3 下午 06:02:10:背景流程花費:25067.6584ms
2018/1/3 下午 06:02:36:背景流程花費:25062.6195ms
2018/1/3 下午 06:03:01:背景流程花費:25067.6325ms
2018/1/3 下午 06:03:26:背景流程花費:25079.6432ms
2018/1/3 下午 06:03:51:背景流程花費:25066.6079ms
2018/1/3 下午 06:04:16:背景流程花費:25072.626ms
2018/1/3 下午 06:04:41:背景流程花費:25071.623ms
2018/1/3 下午 06:05:06:背景流程花費:25066.631ms
2018/1/3 下午 06:05:31:背景流程花費:25067.6112ms
2018/1/3 下午 06:05:56:背景流程花費:25070.6687ms
2018/1/3 下午 06:06:21:背景流程花費:25066.6295ms
2018/1/3 下午 06:06:46:背景流程花費:25063.5991ms
2018/1/3 下午 06:07:11:背景流程花費:25067.6328ms
2018/1/3 下午 06:07:36:背景流程花費:25065.6321ms
2018/1/3 下午 06:08:02:背景流程花費:25064.6027ms
2018/1/3 下午 06:08:27:背景流程花費:25075.6553ms
2018/1/3 下午 06:08:52:背景流程花費:25064.6026ms
2018/1/3 下午 06:09:17:背景流程花費:25065.6312ms
2018/1/3 下午 06:09:42:背景流程花費:25063.623ms
2018/1/3 下午 06:10:07:背景流程花費:25065.6065ms
2018/1/3 下午 06:10:32:背景流程花費:25065.6005ms
2018/1/3 下午 06:10:57:背景流程花費:25062.6207ms
2018/1/3 下午 06:11:22:背景流程花費:25063.6227ms
2018/1/3 下午 06:11:47:背景流程花費:25062.6198ms
2018/1/3 下午 06:12:12:背景流程花費:25064.6271ms
2018/1/3 下午 06:12:37:背景流程花費:25063.6218ms
2018/1/3 下午 06:13:02:背景流程花費:25067.6109ms
2018/1/3 下午 06:13:27:背景流程花費:25066.6086ms
2018/1/3 下午 06:13:53:背景流程花費:25060.6162ms
2018/1/3 下午 06:14:18:背景流程花費:25066.631ms
2018/1/3 下午 06:14:43:背景流程花費:25073.8682ms
2018/1/3 下午 06:15:08:背景流程花費:25069.6447ms
2018/1/3 下午 06:15:33:背景流程花費:25070.6204ms
2018/1/3 下午 06:15:58:背景流程花費:25070.619ms
2018/1/3 下午 06:16:23:背景流程花費:25068.6366ms
2018/1/3 下午 06:16:48:背景流程花費:25070.6689ms
2018/1/3 下午 06:17:13:背景流程花費:25067.6377ms
2018/1/3 下午 06:17:38:背景流程花費:25075.6265ms
2018/1/3 下午 06:18:03:背景流程花費:25065.6281ms
2018/1/3 下午 06:18:28:背景流程花費:25074.6785ms
2018/1/3 下午 06:18:54:背景流程花費:25076.6349ms
2018/1/3 下午 06:19:19:背景流程花費:25071.6449ms
2018/1/3 下午 06:19:44:背景流程花費:25074.6521ms
2018/1/3 下午 06:20:09:背景流程花費:25072.6231ms
2018/1/3 下午 06:20:34:背景流程花費:25071.6683ms
2018/1/3 下午 06:20:59:背景流程花費:25079.6896ms
2018/1/3 下午 06:21:24:背景流程花費:25071.6455ms
2018/1/3 下午 06:21:49:背景流程花費:25058.6088ms
2018/1/3 下午 06:22:14:背景流程花費:25065.605ms
2018/1/3 下午 06:22:39:背景流程花費:25069.6393ms
2018/1/3 下午 06:23:04:背景流程花費:25065.6272ms
2018/1/3 下午 06:23:29:背景流程花費:25069.6376ms
2018/1/3 下午 06:23:54:背景流程花費:25069.6391ms
2018/1/3 下午 06:24:20:背景流程花費:25070.6405ms
2018/1/3 下午 06:24:45:背景流程花費:25073.6272ms
2018/1/3 下午 06:25:10:背景流程花費:25066.6307ms
2018/1/3 下午 06:25:35:背景流程花費:25071.644ms
2018/1/3 下午 06:26:00:背景流程花費:25068.6142ms
2018/1/3 下午 06:26:25:背景流程花費:25066.6293ms
2018/1/3 下午 06:26:50:背景流程花費:25087.6386ms
2018/1/3 下午 06:27:15:背景流程花費:25098.3749ms
2018/1/3 下午 06:27:40:背景流程花費:25094.7321ms
2018/1/3 下午 06:28:05:背景流程花費:25101.4911ms
2018/1/3 下午 06:28:30:背景流程花費:25102.469ms
2018/1/3 下午 06:28:56:背景流程花費:25103.4287ms
2018/1/3 下午 06:29:21:背景流程花費:25087.751ms
2018/1/3 下午 06:29:46:背景流程花費:25099.5676ms
2018/1/3 下午 06:30:11:背景流程花費:25090.445ms
2018/1/3 下午 06:30:36:背景流程花費:25091.0315ms
2018/1/3 下午 06:31:01:背景流程花費:25082.1483ms
2018/1/3 下午 06:31:26:背景流程花費:25085.2081ms
2018/1/3 下午 06:31:51:背景流程花費:25090.5718ms
2018/1/3 下午 06:32:16:背景流程花費:25078.0873ms
2018/1/3 下午 06:32:41:背景流程花費:25100.5077ms
2018/1/3 下午 06:33:07:背景流程花費:25092.6659ms
2018/1/3 下午 06:33:32:背景流程花費:25087.7507ms
2018/1/3 下午 06:33:57:背景流程花費:25092.654ms
2018/1/3 下午 06:34:22:背景流程花費:25076.9549ms
2018/1/3 下午 06:34:47:背景流程花費:25086.7716ms
2018/1/3 下午 06:35:12:背景流程花費:25073.0302ms
2018/1/3 下午 06:35:37:背景流程花費:25087.7792ms
2018/1/3 下午 06:36:02:背景流程花費:25086.861ms
2018/1/3 下午 06:36:27:背景流程花費:25080.1307ms
2018/1/3 下午 06:36:52:背景流程花費:25085.0846ms
2018/1/3 下午 06:37:18:背景流程花費:25093.4197ms
2018/1/3 下午 06:37:43:背景流程花費:25076.9549ms
2018/1/3 下午 06:38:08:背景流程花費:25083.2048ms
2018/1/3 下午 06:38:33:背景流程花費:25085.6228ms
2018/1/3 下午 06:38:58:背景流程花費:25081.2406ms
2018/1/3 下午 06:39:23:背景流程花費:25084.5382ms
2018/1/3 下午 06:39:48:背景流程花費:25081.9267ms
2018/1/3 下午 06:40:13:背景流程花費:25087.8591ms
2018/1/3 下午 06:40:38:背景流程花費:25077.9647ms
2018/1/3 下午 06:41:03:背景流程花費:25084.8115ms
2018/1/3 下午 06:41:28:背景流程花費:25081.863ms
2018/1/3 下午 06:41:54:背景流程花費:25074.012ms
2018/1/3 下午 06:42:19:背景流程花費:25066.8242ms
2018/1/3 下午 06:42:44:背景流程花費:25060.6154ms
2018/1/3 下午 06:43:09:背景流程花費:25066.6305ms
2018/1/3 下午 06:43:34:背景流程花費:25066.6327ms
2018/1/3 下午 06:43:59:背景流程花費:25068.6355ms
2018/1/3 下午 06:44:24:背景流程花費:25074.6509ms
2018/1/3 下午 06:44:49:背景流程花費:25068.6147ms
2018/1/3 下午 06:45:14:背景流程花費:25064.6117ms
2018/1/3 下午 06:45:39:背景流程花費:25064.6032ms
2018/1/3 下午 06:46:04:背景流程花費:25064.6044ms
2018/1/3 下午 06:46:29:背景流程花費:25064.6473ms
2018/1/3 下午 06:46:54:背景流程花費:25068.6361ms
2018/1/3 下午 06:47:19:背景流程花費:25064.6257ms
2018/1/3 下午 06:47:45:背景流程花費:25072.6257ms
2018/1/3 下午 06:48:10:背景流程花費:25060.6141ms
2018/1/3 下午 06:48:35:背景流程花費:25064.6029ms
2018/1/3 下午 06:49:00:背景流程花費:25068.6136ms
2018/1/3 下午 06:49:25:背景流程花費:25064.6257ms
2018/1/3 下午 06:49:50:背景流程花費:25067.6109ms
2018/1/3 下午 06:50:15:背景流程花費:25067.6348ms
2018/1/3 下午 06:50:40:背景流程花費:25062.6192ms
2018/1/3 下午 06:51:05:背景流程花費:25064.6467ms
2018/1/3 下午 06:51:30:背景流程花費:25066.6311ms
2018/1/3 下午 06:51:55:背景流程花費:25065.6053ms
2018/1/3 下午 06:52:20:背景流程花費:25065.6051ms
2018/1/3 下午 06:52:45:背景流程花費:25064.6251ms
2018/1/3 下午 06:53:11:背景流程花費:25063.6219ms
2018/1/3 下午 06:53:36:背景流程花費:25065.6059ms
2018/1/3 下午 06:54:01:背景流程花費:25067.6337ms
2018/1/3 下午 06:54:26:背景流程花費:25063.6114ms
2018/1/3 下午 06:54:51:背景流程花費:25070.6405ms
2018/1/3 下午 06:55:16:背景流程花費:25069.6382ms
2018/1/3 下午 06:55:41:背景流程花費:25071.6651ms
2018/1/3 下午 06:56:06:背景流程花費:25072.6455ms
2018/1/3 下午 06:56:31:背景流程花費:25068.6361ms
2018/1/3 下午 06:56:56:背景流程花費:25067.6326ms
2018/1/3 下午 06:57:21:背景流程花費:25068.6139ms
2018/1/3 下午 06:57:46:背景流程花費:25076.6338ms
2018/1/3 下午 06:58:11:背景流程花費:25060.6108ms
2018/1/3 下午 06:58:37:背景流程花費:25060.6429ms
2018/1/3 下午 06:59:02:背景流程花費:25073.6775ms
2018/1/3 下午 06:59:27:背景流程花費:25066.6088ms
2018/1/3 下午 06:59:52:背景流程花費:25067.6325ms
2018/1/3 下午 07:00:17:背景流程花費:25067.663ms
2018/1/3 下午 07:00:42:背景流程花費:25071.673ms
2018/1/3 下午 07:01:07:背景流程花費:25071.6213ms
2018/1/3 下午 07:01:32:背景流程花費:25062.5984ms
2018/1/3 下午 07:01:57:背景流程花費:25065.6051ms
2018/1/3 下午 07:02:22:背景流程花費:25064.6487ms
2018/1/3 下午 07:02:47:背景流程花費:25063.6509ms
2018/1/3 下午 07:03:12:背景流程花費:25068.6363ms
2018/1/3 下午 07:03:37:背景流程花費:25066.6091ms
2018/1/3 下午 07:04:02:背景流程花費:25066.6367ms
2018/1/3 下午 07:04:28:背景流程花費:25062.5979ms
2018/1/3 下午 07:04:53:背景流程花費:25068.6136ms
2018/1/3 下午 07:05:18:背景流程花費:25063.6498ms
2018/1/3 下午 07:05:43:背景流程花費:25065.6053ms
2018/1/3 下午 07:06:08:背景流程花費:25062.6206ms
2018/1/3 下午 07:06:33:背景流程花費:25069.639ms
2018/1/3 下午 07:06:58:背景流程花費:25057.5791ms
2018/1/3 下午 07:07:23:背景流程花費:25068.6153ms
2018/1/3 下午 07:07:48:背景流程花費:25071.644ms
2018/1/3 下午 07:08:13:背景流程花費:25071.6713ms
2018/1/3 下午 07:08:38:背景流程花費:25074.6296ms
2018/1/3 下午 07:09:03:背景流程花費:25064.628ms
2018/1/3 下午 07:09:28:背景流程花費:25067.6117ms
2018/1/3 下午 07:09:54:背景流程花費:25067.6334ms
2018/1/3 下午 07:10:19:背景流程花費:25065.6281ms
2018/1/3 下午 07:10:44:背景流程花費:25071.6446ms
2018/1/3 下午 07:11:09:背景流程花費:25067.6124ms
2018/1/3 下午 07:11:34:背景流程花費:25075.6539ms
2018/1/3 下午 07:11:59:背景流程花費:25066.6085ms
2018/1/3 下午 07:12:24:背景流程花費:25066.631ms
2018/1/3 下午 07:12:49:背景流程花費:25068.607ms
2018/1/3 下午 07:13:14:背景流程花費:25066.6091ms
2018/1/3 下午 07:13:39:背景流程花費:25073.6358ms
2018/1/3 下午 07:14:04:背景流程花費:25057.5846ms
2018/1/3 下午 07:14:29:背景流程花費:25069.6174ms
2018/1/3 下午 07:14:54:背景流程花費:25063.623ms
2018/1/3 下午 07:15:20:背景流程花費:25064.6256ms
2018/1/3 下午 07:15:45:背景流程花費:25066.6296ms
2018/1/3 下午 07:16:10:背景流程花費:25071.6432ms
2018/1/3 下午 07:16:35:背景流程花費:25066.6085ms
2018/1/3 下午 07:17:00:背景流程花費:25070.6414ms
2018/1/3 下午 07:17:25:背景流程花費:25078.6618ms
2018/1/3 下午 07:17:50:背景流程花費:25062.5979ms
2018/1/3 下午 07:18:15:背景流程花費:25064.6248ms
2018/1/3 下午 07:18:40:背景流程花費:25065.6283ms
2018/1/3 下午 07:19:05:背景流程花費:25063.5948ms
2018/1/3 下午 07:19:30:背景流程花費:25067.6106ms
2018/1/3 下午 07:19:55:背景流程花費:25058.6086ms
2018/1/3 下午 07:20:20:背景流程花費:25067.6329ms
2018/1/3 下午 07:20:46:背景流程花費:25067.6567ms
2018/1/3 下午 07:21:11:背景流程花費:25076.6633ms
2018/1/3 下午 07:21:36:背景流程花費:25071.6435ms
2018/1/3 下午 07:22:01:背景流程花費:25057.5845ms
2018/1/3 下午 07:22:26:背景流程花費:25069.616ms
2018/1/3 下午 07:22:51:背景流程花費:25063.6003ms
2018/1/3 下午 07:23:16:背景流程花費:25062.6207ms
2018/1/3 下午 07:23:41:背景流程花費:25064.6251ms
2018/1/3 下午 07:24:06:背景流程花費:25063.6503ms
2018/1/3 下午 07:24:31:背景流程花費:25070.642ms
2018/1/3 下午 07:24:56:背景流程花費:25064.6314ms
2018/1/3 下午 07:25:21:背景流程花費:25071.6446ms
2018/1/3 下午 07:25:46:背景流程花費:25065.6295ms
2018/1/3 下午 07:26:11:背景流程花費:25059.6337ms
2018/1/3 下午 07:26:37:背景流程花費:25066.6584ms
2018/1/3 下午 07:27:02:背景流程花費:25060.6161ms
2018/1/3 下午 07:27:27:背景流程花費:25073.6764ms
2018/1/3 下午 07:27:52:背景流程花費:25071.623ms
2018/1/3 下午 07:28:17:背景流程花費:25070.6406ms
2018/1/3 下午 07:28:42:背景流程花費:25068.6363ms
2018/1/3 下午 07:29:07:背景流程花費:25062.5982ms
2018/1/3 下午 07:29:32:背景流程花費:25075.6328ms
2018/1/3 下午 07:29:57:背景流程花費:25063.6219ms
2018/1/3 下午 07:30:22:背景流程花費:25065.6261ms
2018/1/3 下午 07:30:47:背景流程花費:25074.6526ms
2018/1/3 下午 07:31:12:背景流程花費:25066.631ms
2018/1/3 下午 07:31:37:背景流程花費:25067.6613ms
2018/1/3 下午 07:32:03:背景流程花費:25070.6135ms
2018/1/3 下午 07:32:28:背景流程花費:25064.6487ms
2018/1/3 下午 07:32:53:背景流程花費:25061.6174ms
2018/1/3 下午 07:33:18:背景流程花費:25064.5987ms
2018/1/3 下午 07:33:43:背景流程花費:25066.66ms
2018/1/3 下午 07:34:08:背景流程花費:25062.6255ms
2018/1/3 下午 07:34:33:背景流程花費:25065.6286ms
2018/1/3 下午 07:34:58:背景流程花費:25063.6219ms
2018/1/3 下午 07:35:23:背景流程花費:25066.6026ms
2018/1/3 下午 07:35:48:背景流程花費:25071.6222ms
2018/1/3 下午 07:36:13:背景流程花費:25066.631ms
2018/1/3 下午 07:36:38:背景流程花費:25070.6687ms
2018/1/3 下午 07:37:03:背景流程花費:25064.6003ms
2018/1/3 下午 07:37:29:背景流程花費:25064.6484ms
2018/1/3 下午 07:37:54:背景流程花費:25070.6416ms
2018/1/3 下午 07:38:19:背景流程花費:25067.6112ms
2018/1/3 下午 07:38:44:背景流程花費:25070.6192ms
2018/1/3 下午 07:39:09:背景流程花費:25060.6156ms
2018/1/3 下午 07:39:34:背景流程花費:25063.6455ms
2018/1/3 下午 07:39:59:背景流程花費:25066.6094ms
2018/1/3 下午 07:40:24:背景流程花費:25073.65ms
2018/1/3 下午 07:40:49:背景流程花費:25071.6432ms
2018/1/3 下午 07:41:14:背景流程花費:25066.6086ms
2018/1/3 下午 07:41:39:背景流程花費:25068.6147ms
2018/1/3 下午 07:42:04:背景流程花費:25070.6639ms
2018/1/3 下午 07:42:29:背景流程花費:25065.6292ms
2018/1/3 下午 07:42:55:背景流程花費:25066.6299ms
2018/1/3 下午 07:43:20:背景流程花費:25074.6301ms
2018/1/3 下午 07:43:45:背景流程花費:25065.6061ms
2018/1/3 下午 07:44:10:背景流程花費:25076.6343ms
2018/1/3 下午 07:44:35:背景流程花費:25062.6425ms
2018/1/3 下午 07:45:00:背景流程花費:25059.6135ms
2018/1/3 下午 07:45:25:背景流程花費:25058.6089ms
2018/1/3 下午 07:45:50:背景流程花費:25071.6441ms
2018/1/3 下午 07:46:15:背景流程花費:25072.6245ms
2018/1/3 下午 07:46:40:背景流程花費:25061.5952ms
2018/1/3 下午 07:47:05:背景流程花費:25063.5995ms
2018/1/3 下午 07:47:30:背景流程花費:25067.6047ms
2018/1/3 下午 07:47:55:背景流程花費:25067.6118ms
2018/1/3 下午 07:48:21:背景流程花費:25070.6403ms
2018/1/3 下午 07:48:46:背景流程花費:25065.6286ms
2018/1/3 下午 07:49:11:背景流程花費:25068.6363ms
2018/1/3 下午 07:49:36:背景流程花費:25065.6511ms
2018/1/3 下午 07:50:01:背景流程花費:25073.6712ms
2018/1/3 下午 07:50:26:背景流程花費:25069.6672ms
2018/1/3 下午 07:50:51:背景流程花費:25070.6641ms
2018/1/3 下午 07:51:16:背景流程花費:25059.6121ms
2018/1/3 下午 07:51:41:背景流程花費:25058.5886ms
2018/1/3 下午 07:52:06:背景流程花費:25070.6406ms
2018/1/3 下午 07:52:31:背景流程花費:25072.6461ms
2018/1/3 下午 07:52:56:背景流程花費:25070.6423ms
2018/1/3 下午 07:53:21:背景流程花費:25063.5935ms
2018/1/3 下午 07:53:46:背景流程花費:25066.6097ms
2018/1/3 下午 07:54:12:背景流程花費:25075.6547ms
2018/1/3 下午 07:54:37:背景流程花費:25069.6379ms
2018/1/3 下午 07:55:02:背景流程花費:25064.6032ms
2018/1/3 下午 07:55:27:背景流程花費:25066.6367ms
2018/1/3 下午 07:55:52:背景流程花費:25063.6014ms
2018/1/3 下午 07:56:17:背景流程花費:25064.6234ms
2018/1/3 下午 07:56:42:背景流程花費:25059.634ms
2018/1/3 下午 07:57:07:背景流程花費:25063.5955ms
2018/1/3 下午 07:57:32:背景流程花費:25067.6235ms
2018/1/3 下午 07:57:57:背景流程花費:25066.6305ms
2018/1/3 下午 07:58:22:背景流程花費:25070.6203ms
2018/1/3 下午 07:58:47:背景流程花費:25063.6231ms
2018/1/3 下午 07:59:12:背景流程花費:25073.6488ms
2018/1/3 下午 07:59:38:背景流程花費:25066.6088ms
2018/1/3 下午 08:00:03:背景流程花費:25066.631ms
2018/1/3 下午 08:00:28:背景流程花費:25066.6527ms
2018/1/3 下午 08:00:53:背景流程花費:25065.607ms
2018/1/3 下午 08:01:18:背景流程花費:25071.6444ms
2018/1/3 下午 08:01:43:背景流程花費:25068.6354ms
2018/1/3 下午 08:02:08:背景流程花費:25063.6236ms
2018/1/3 下午 08:02:33:背景流程花費:25072.6433ms
2018/1/3 下午 08:02:58:背景流程花費:25066.6299ms
2018/1/3 下午 08:03:23:背景流程花費:25076.6361ms
2018/1/3 下午 08:03:48:背景流程花費:25064.6263ms
2018/1/3 下午 08:04:13:背景流程花費:25069.6661ms
2018/1/3 下午 08:04:38:背景流程花費:25070.6193ms
2018/1/3 下午 08:05:04:背景流程花費:25076.6784ms
2018/1/3 下午 08:05:29:背景流程花費:25066.6307ms
2018/1/3 下午 08:05:54:背景流程花費:25070.6417ms
2018/1/3 下午 08:06:19:背景流程花費:25065.6275ms
2018/1/3 下午 08:06:44:背景流程花費:25061.6452ms
2018/1/3 下午 08:07:09:背景流程花費:25062.6215ms
2018/1/3 下午 08:07:34:背景流程花費:25070.6412ms
2018/1/3 下午 08:07:59:背景流程花費:25065.6275ms
2018/1/3 下午 08:08:24:背景流程花費:25073.6499ms
2018/1/3 下午 08:08:49:背景流程花費:25065.6295ms
2018/1/3 下午 08:09:14:背景流程花費:25067.6166ms
2018/1/3 下午 08:09:39:背景流程花費:25058.5872ms
2018/1/3 下午 08:10:04:背景流程花費:25063.6236ms
2018/1/3 下午 08:10:30:背景流程花費:25064.6467ms
2018/1/3 下午 08:10:55:背景流程花費:25073.6557ms
2018/1/3 下午 08:11:20:背景流程花費:25069.6376ms
2018/1/3 下午 08:11:45:背景流程花費:25068.6142ms
2018/1/3 下午 08:12:10:背景流程花費:25065.6071ms
2018/1/3 下午 08:12:35:背景流程花費:25061.6166ms
2018/1/3 下午 08:13:00:背景流程花費:25068.6253ms
2018/1/3 下午 08:13:25:背景流程花費:25065.6503ms
2018/1/3 下午 08:13:50:背景流程花費:25070.6636ms
2018/1/3 下午 08:14:15:背景流程花費:25067.6334ms
2018/1/3 下午 08:14:40:背景流程花費:25066.6227ms
2018/1/3 下午 08:15:05:背景流程花費:25070.6192ms
2018/1/3 下午 08:15:30:背景流程花費:25071.6434ms
2018/1/3 下午 08:15:56:背景流程花費:25069.6166ms
2018/1/3 下午 08:16:21:背景流程花費:25070.6416ms
2018/1/3 下午 08:16:46:背景流程花費:25067.6644ms
2018/1/3 下午 08:17:11:背景流程花費:25065.6056ms
2018/1/3 下午 08:17:36:背景流程花費:25064.603ms
2018/1/3 下午 08:18:01:背景流程花費:25065.6019ms
2018/1/3 下午 08:18:26:背景流程花費:25065.6062ms
2018/1/3 下午 08:18:51:背景流程花費:25071.6227ms
2018/1/3 下午 08:19:16:背景流程花費:25072.6755ms
2018/1/3 下午 08:19:41:背景流程花費:25071.6233ms
2018/1/3 下午 08:20:06:背景流程花費:25072.6166ms
2018/1/3 下午 08:20:31:背景流程花費:25070.6192ms
2018/1/3 下午 08:20:56:背景流程花費:25064.6029ms
2018/1/3 下午 08:21:22:背景流程花費:25072.6458ms
2018/1/3 下午 08:21:47:背景流程花費:25063.6224ms
2018/1/3 下午 08:22:12:背景流程花費:25069.6655ms
2018/1/3 下午 08:22:37:背景流程花費:25068.6133ms
2018/1/3 下午 08:23:02:背景流程花費:25063.6214ms
2018/1/3 下午 08:23:27:背景流程花費:25064.6263ms
2018/1/3 下午 08:23:52:背景流程花費:25065.6283ms
2018/1/3 下午 08:24:17:背景流程花費:25068.6367ms
2018/1/3 下午 08:24:42:背景流程花費:25071.6446ms
2018/1/3 下午 08:25:07:背景流程花費:25066.6535ms
2018/1/3 下午 08:25:32:背景流程花費:25070.6428ms
2018/1/3 下午 08:25:57:背景流程花費:25060.615ms
2018/1/3 下午 08:26:22:背景流程花費:25069.6356ms
2018/1/3 下午 08:26:48:背景流程花費:25065.6284ms
2018/1/3 下午 08:27:13:背景流程花費:25067.6343ms
2018/1/3 下午 08:27:38:背景流程花費:25067.6334ms
2018/1/3 下午 08:28:03:背景流程花費:25064.626ms
2018/1/3 下午 08:28:28:背景流程花費:25069.6339ms
2018/1/3 下午 08:28:53:背景流程花費:25075.6325ms
2018/1/3 下午 08:29:18:背景流程花費:25067.6348ms
2018/1/3 下午 08:29:43:背景流程花費:25062.6477ms
2018/1/3 下午 08:30:08:背景流程花費:25074.6523ms
2018/1/3 下午 08:30:33:背景流程花費:25065.6275ms
2018/1/3 下午 08:30:58:背景流程花費:25072.6256ms
2018/1/3 下午 08:31:23:背景流程花費:25068.636ms
2018/1/3 下午 08:31:48:背景流程花費:25064.6032ms
2018/1/3 下午 08:32:14:背景流程花費:25074.6301ms
2018/1/3 下午 08:32:39:背景流程花費:25071.6454ms
2018/1/3 下午 08:33:04:背景流程花費:25071.6213ms
2018/1/3 下午 08:33:29:背景流程花費:25066.631ms
2018/1/3 下午 08:33:54:背景流程花費:25067.6346ms
2018/1/3 下午 08:34:19:背景流程花費:25074.6512ms
2018/1/3 下午 08:34:44:背景流程花費:25064.603ms
2018/1/3 下午 08:35:09:背景流程花費:25067.6325ms
2018/1/3 下午 08:35:34:背景流程花費:25066.6097ms
2018/1/3 下午 08:35:59:背景流程花費:25066.6524ms
2018/1/3 下午 08:36:24:背景流程花費:25062.5925ms
2018/1/3 下午 08:36:49:背景流程花費:25063.6233ms
2018/1/3 下午 08:37:14:背景流程花費:25069.6385ms
2018/1/3 下午 08:37:40:背景流程花費:25067.6333ms
2018/1/3 下午 08:38:05:背景流程花費:25067.6098ms
2018/1/3 下午 08:38:30:背景流程花費:25074.6734ms
2018/1/3 下午 08:38:55:背景流程花費:25056.6055ms
2018/1/3 下午 08:39:20:背景流程花費:25062.6286ms
2018/1/3 下午 08:39:45:背景流程花費:25062.6201ms
2018/1/3 下午 08:40:10:背景流程花費:25073.6485ms
2018/1/3 下午 08:40:35:背景流程花費:25068.6147ms
2018/1/3 下午 08:41:00:背景流程花費:25067.6613ms
2018/1/3 下午 08:41:25:背景流程花費:25068.6135ms
2018/1/3 下午 08:41:50:背景流程花費:25065.6065ms
2018/1/3 下午 08:42:15:背景流程花費:25071.6432ms
2018/1/3 下午 08:42:40:背景流程花費:25064.6029ms
2018/1/3 下午 08:43:05:背景流程花費:25066.6086ms
2018/1/3 下午 08:43:31:背景流程花費:25061.6177ms
2018/1/3 下午 08:43:56:背景流程花費:25065.6058ms
2018/1/3 下午 08:44:21:背景流程花費:25070.6204ms
2018/1/3 下午 08:44:46:背景流程花費:25069.6381ms
2018/1/3 下午 08:45:11:背景流程花費:25068.6364ms
2018/1/3 下午 08:45:36:背景流程花費:25059.5853ms
2018/1/3 下午 08:46:01:背景流程花費:25072.6738ms
2018/1/3 下午 08:46:26:背景流程花費:25071.6219ms
2018/1/3 下午 08:46:51:背景流程花費:25068.6366ms
2018/1/3 下午 08:47:16:背景流程花費:25068.6247ms
2018/1/3 下午 08:47:41:背景流程花費:25073.6514ms
2018/1/3 下午 08:48:06:背景流程花費:25061.6177ms
2018/1/3 下午 08:48:31:背景流程花費:25068.6138ms
2018/1/3 下午 08:48:57:背景流程花費:25062.597ms
2018/1/3 下午 08:49:22:背景流程花費:25071.6227ms
2018/1/3 下午 08:49:47:背景流程花費:25066.6302ms
2018/1/3 下午 08:50:12:背景流程花費:25067.6123ms
2018/1/3 下午 08:50:37:背景流程花費:25061.6046ms
2018/1/3 下午 08:51:02:背景流程花費:25067.6351ms
2018/1/3 下午 08:51:27:背景流程花費:25073.6485ms
2018/1/3 下午 08:51:52:背景流程花費:25065.6286ms
2018/1/3 下午 08:52:17:背景流程花費:25067.61ms
2018/1/3 下午 08:52:42:背景流程花費:25066.6302ms
2018/1/3 下午 08:53:07:背景流程花費:25065.6053ms
2018/1/3 下午 08:53:32:背景流程花費:25071.6504ms
2018/1/3 下午 08:53:57:背景流程花費:25061.6405ms
2018/1/3 下午 08:54:23:背景流程花費:25065.6062ms
2018/1/3 下午 08:54:48:背景流程花費:25062.597ms
2018/1/3 下午 08:55:13:背景流程花費:25066.6086ms
2018/1/3 下午 08:55:38:背景流程花費:25073.6469ms
2018/1/3 下午 08:56:03:背景流程花費:25071.6506ms
2018/1/3 下午 08:56:28:背景流程花費:25067.6115ms
2018/1/3 下午 08:56:53:背景流程花費:25072.6203ms
2018/1/3 下午 08:57:18:背景流程花費:25060.6153ms
2018/1/3 下午 08:57:43:背景流程花費:25063.6222ms
2018/1/3 下午 08:58:08:背景流程花費:25059.6402ms
2018/1/3 下午 08:58:33:背景流程花費:25062.619ms
2018/1/3 下午 08:58:58:背景流程花費:25067.6109ms
2018/1/3 下午 08:59:23:背景流程花費:25071.6162ms
2018/1/3 下午 08:59:49:背景流程花費:25066.6535ms
2018/1/3 下午 09:00:14:背景流程花費:25063.6057ms
2018/1/3 下午 09:00:39:背景流程花費:25061.6123ms
2018/1/3 下午 09:01:04:背景流程花費:25057.6082ms
2018/1/3 下午 09:01:29:背景流程花費:25063.623ms
2018/1/3 下午 09:01:54:背景流程花費:25061.596ms
2018/1/3 下午 09:02:19:背景流程花費:25060.6349ms
2018/1/3 下午 09:02:44:背景流程花費:25073.6496ms
2018/1/3 下午 09:03:09:背景流程花費:25075.628ms
2018/1/3 下午 09:03:34:背景流程花費:25070.6411ms
2018/1/3 下午 09:03:59:背景流程花費:25065.6062ms
2018/1/3 下午 09:04:24:背景流程花費:25064.647ms
2018/1/3 下午 09:04:49:背景流程花費:25066.6311ms
2018/1/3 下午 09:05:14:背景流程花費:25066.6088ms
2018/1/3 下午 09:05:40:背景流程花費:25067.6115ms
2018/1/3 下午 09:06:05:背景流程花費:25063.6014ms
2018/1/3 下午 09:06:30:背景流程花費:25061.6165ms
2018/1/3 下午 09:06:55:背景流程花費:25063.5989ms
2018/1/3 下午 09:07:20:背景流程花費:25066.6088ms
2018/1/3 下午 09:07:45:背景流程花費:25066.6302ms
2018/1/3 下午 09:08:10:背景流程花費:25069.6163ms
2018/1/3 下午 09:08:35:背景流程花費:25065.6209ms
2018/1/3 下午 09:09:00:背景流程花費:25073.6767ms
2018/1/3 下午 09:09:25:背景流程花費:25074.6296ms
2018/1/3 下午 09:09:50:背景流程花費:25065.6283ms
2018/1/3 下午 09:10:15:背景流程花費:25064.5969ms
2018/1/3 下午 09:10:40:背景流程花費:25070.6181ms
2018/1/3 下午 09:11:06:背景流程花費:25070.6468ms
2018/1/3 下午 09:11:31:背景流程花費:25064.6249ms
2018/1/3 下午 09:11:56:背景流程花費:25073.6497ms
2018/1/3 下午 09:12:21:背景流程花費:25063.6009ms
2018/1/3 下午 09:12:46:背景流程花費:25059.6112ms
2018/1/3 下午 09:13:11:背景流程花費:25062.6204ms
2018/1/3 下午 09:13:36:背景流程花費:25065.5997ms
2018/1/3 下午 09:14:01:背景流程花費:25064.6257ms
2018/1/3 下午 09:14:26:背景流程花費:25072.6211ms
2018/1/3 下午 09:14:51:背景流程花費:25070.6195ms
2018/1/3 下午 09:15:16:背景流程花費:25065.6233ms
2018/1/3 下午 09:15:41:背景流程花費:25066.6319ms
2018/1/3 下午 09:16:06:背景流程花費:25070.6412ms
2018/1/3 下午 09:16:32:背景流程花費:25066.6304ms
2018/1/3 下午 09:16:57:背景流程花費:25066.6529ms
2018/1/3 下午 09:17:22:背景流程花費:25069.6675ms
2018/1/3 下午 09:17:47:背景流程花費:25063.5977ms
2018/1/3 下午 09:18:12:背景流程花費:25063.6006ms
2018/1/3 下午 09:18:37:背景流程花費:25064.624ms
2018/1/3 下午 09:19:02:背景流程花費:25066.6028ms
2018/1/3 下午 09:19:27:背景流程花費:25068.6358ms
2018/1/3 下午 09:19:52:背景流程花費:25067.6382ms
2018/1/3 下午 09:20:17:背景流程花費:25067.6627ms
2018/1/3 下午 09:20:42:背景流程花費:25065.6292ms
2018/1/3 下午 09:21:07:背景流程花費:25068.6352ms
2018/1/3 下午 09:21:32:背景流程花費:25063.6014ms
2018/1/3 下午 09:21:58:背景流程花費:25064.603ms
2018/1/3 下午 09:22:23:背景流程花費:25072.624ms
2018/1/3 下午 09:22:48:背景流程花費:25063.623ms
2018/1/3 下午 09:23:13:背景流程花費:25060.6182ms
2018/1/3 下午 09:23:38:背景流程花費:25064.6487ms
2018/1/3 下午 09:24:03:背景流程花費:25060.615ms
2018/1/3 下午 09:24:28:背景流程花費:25067.6115ms
2018/1/3 下午 09:24:53:背景流程花費:25064.6034ms
2018/1/3 下午 09:25:18:背景流程花費:25073.6488ms
2018/1/3 下午 09:25:43:背景流程花費:25064.6027ms
2018/1/3 下午 09:26:08:背景流程花費:25069.6328ms
2018/1/3 下午 09:26:33:背景流程花費:25066.6089ms
2018/1/3 下午 09:26:58:背景流程花費:25064.6271ms
2018/1/3 下午 09:27:23:背景流程花費:25067.6337ms
2018/1/3 下午 09:27:49:背景流程花費:25069.6387ms
2018/1/3 下午 09:28:14:背景流程花費:25065.6286ms
2018/1/3 下午 09:28:39:背景流程花費:25069.6165ms
2018/1/3 下午 09:29:04:背景流程花費:25071.6443ms
2018/1/3 下午 09:29:29:背景流程花費:25070.6138ms
2018/1/3 下午 09:29:54:背景流程花費:25067.6334ms
2018/1/3 下午 09:30:19:背景流程花費:25064.6479ms
2018/1/3 下午 09:30:44:背景流程花費:25059.6127ms
2018/1/3 下午 09:31:09:背景流程花費:25060.5919ms
2018/1/3 下午 09:31:34:背景流程花費:25062.611ms
2018/1/3 下午 09:31:59:背景流程花費:25064.624ms
2018/1/3 下午 09:32:24:背景流程花費:25060.6375ms
2018/1/3 下午 09:32:49:背景流程花費:25069.6179ms
2018/1/3 下午 09:33:15:背景流程花費:25065.6286ms
2018/1/3 下午 09:33:40:背景流程花費:25060.6158ms
2018/1/3 下午 09:34:05:背景流程花費:25064.6015ms
2018/1/3 下午 09:34:30:背景流程花費:25063.6284ms
2018/1/3 下午 09:34:55:背景流程花費:25065.6284ms
2018/1/3 下午 09:35:20:背景流程花費:25064.6527ms
2018/1/3 下午 09:35:45:背景流程花費:25068.6364ms
2018/1/3 下午 09:36:10:背景流程花費:25063.6185ms
2018/1/3 下午 09:36:35:背景流程花費:25067.6325ms
2018/1/3 下午 09:37:00:背景流程花費:25069.6163ms
2018/1/3 下午 09:37:25:背景流程花費:25064.604ms
2018/1/3 下午 09:37:50:背景流程花費:25062.6192ms
2018/1/3 下午 09:38:15:背景流程花費:25069.6606ms
2018/1/3 下午 09:38:40:背景流程花費:25064.6268ms
2018/1/3 下午 09:39:06:背景流程花費:25067.6405ms
2018/1/3 下午 09:39:31:背景流程花費:25061.6177ms
2018/1/3 下午 09:39:56:背景流程花費:25066.6091ms
2018/1/3 下午 09:40:21:背景流程花費:25067.6323ms
2018/1/3 下午 09:40:46:背景流程花費:25072.6208ms
2018/1/3 下午 09:41:11:背景流程花費:25063.6228ms
2018/1/3 下午 09:41:36:背景流程花費:25061.6174ms
2018/1/3 下午 09:42:01:背景流程花費:25065.6002ms
2018/1/3 下午 09:42:26:背景流程花費:25061.5955ms
2018/1/3 下午 09:42:51:背景流程花費:25072.6749ms
2018/1/3 下午 09:43:16:背景流程花費:25067.6234ms
2018/1/3 下午 09:43:41:背景流程花費:25062.6203ms
2018/1/3 下午 09:44:06:背景流程花費:25069.6669ms
2018/1/3 下午 09:44:32:背景流程花費:25067.6605ms
2018/1/3 下午 09:44:57:背景流程花費:25070.6429ms
2018/1/3 下午 09:45:22:背景流程花費:25063.6216ms
2018/1/3 下午 09:45:47:背景流程花費:25059.5899ms
2018/1/3 下午 09:46:12:背景流程花費:25064.5975ms
2018/1/3 下午 09:46:37:背景流程花費:25068.6142ms
2018/1/3 下午 09:47:02:背景流程花費:25066.6367ms
2018/1/3 下午 09:47:27:背景流程花費:25066.6313ms
2018/1/3 下午 09:47:52:背景流程花費:25062.6189ms
2018/1/3 下午 09:48:17:背景流程花費:25067.6063ms
2018/1/3 下午 09:48:42:背景流程花費:25071.6443ms
2018/1/3 下午 09:49:07:背景流程花費:25067.634ms
2018/1/3 下午 09:49:32:背景流程花費:25064.6524ms
2018/1/3 下午 09:49:58:背景流程花費:25072.6245ms
2018/1/3 下午 09:50:23:背景流程花費:25063.6002ms
2018/1/3 下午 09:50:48:背景流程花費:25061.5952ms
2018/1/3 下午 09:51:13:背景流程花費:25068.6133ms
2018/1/3 下午 09:51:38:背景流程花費:25068.6375ms
2018/1/3 下午 09:52:03:背景流程花費:25065.6281ms
2018/1/3 下午 09:52:28:背景流程花費:25069.6331ms
2018/1/3 下午 09:52:53:背景流程花費:25057.6287ms
2018/1/3 下午 09:53:18:背景流程花費:25070.6192ms
2018/1/3 下午 09:53:43:背景流程花費:25068.6354ms
2018/1/3 下午 09:54:08:背景流程花費:25069.6421ms
2018/1/3 下午 09:54:33:背景流程花費:25061.6174ms
2018/1/3 下午 09:54:58:背景流程花費:25067.6058ms
2018/1/3 下午 09:55:24:背景流程花費:25071.6216ms
2018/1/3 下午 09:55:49:背景流程花費:25068.6417ms
2018/1/3 下午 09:56:14:背景流程花費:25061.6174ms
2018/1/3 下午 09:56:39:背景流程花費:25068.6156ms
2018/1/3 下午 09:57:04:背景流程花費:25073.677ms
2018/1/3 下午 09:57:29:背景流程花費:25066.61ms
2018/1/3 下午 09:57:54:背景流程花費:25067.6561ms
2018/1/3 下午 09:58:19:背景流程花費:25065.6056ms
2018/1/3 下午 09:58:44:背景流程花費:25067.6328ms
2018/1/3 下午 09:59:09:背景流程花費:25068.6136ms
2018/1/3 下午 09:59:34:背景流程花費:25064.6529ms
2018/1/3 下午 09:59:59:背景流程花費:25070.6169ms
2018/1/3 下午 10:00:24:背景流程花費:25064.6362ms
2018/1/3 下午 10:00:49:背景流程花費:25066.6022ms
2018/1/3 下午 10:01:15:背景流程花費:25068.6412ms
2018/1/3 下午 10:01:40:背景流程花費:25059.5899ms
2018/1/3 下午 10:02:05:背景流程花費:25063.602ms
2018/1/3 下午 10:02:30:背景流程花費:25072.6459ms
2018/1/3 下午 10:02:55:背景流程花費:25066.6083ms
2018/1/3 下午 10:03:20:背景流程花費:25066.6322ms
2018/1/3 下午 10:03:45:背景流程花費:25065.6568ms
2018/1/3 下午 10:04:10:背景流程花費:25067.6135ms
2018/1/3 下午 10:04:35:背景流程花費:25069.6177ms
2018/1/3 下午 10:05:00:背景流程花費:25075.6339ms
2018/1/3 下午 10:05:25:背景流程花費:25076.6568ms
2018/1/3 下午 10:05:50:背景流程花費:25065.628ms
2018/1/3 下午 10:06:15:背景流程花費:25062.6198ms
2018/1/3 下午 10:06:41:背景流程花費:25066.6313ms
2018/1/3 下午 10:07:06:背景流程花費:25074.6526ms
2018/1/3 下午 10:07:31:背景流程花費:25064.6044ms
2018/1/3 下午 10:07:56:背景流程花費:25066.6299ms
2018/1/3 下午 10:08:21:背景流程花費:25070.6144ms
2018/1/3 下午 10:08:46:背景流程花費:25070.6406ms
2018/1/3 下午 10:09:11:背景流程花費:25067.6126ms
2018/1/3 下午 10:09:36:背景流程花費:25069.6604ms
2018/1/3 下午 10:10:01:背景流程花費:25069.639ms
2018/1/3 下午 10:10:26:背景流程花費:25067.6124ms
2018/1/3 下午 10:10:51:背景流程花費:25069.6379ms
2018/1/3 下午 10:11:16:背景流程花費:25065.6058ms
2018/1/3 下午 10:11:41:背景流程花費:25066.631ms
2018/1/3 下午 10:12:07:背景流程花費:25064.6021ms
2018/1/3 下午 10:12:32:背景流程花費:25066.602ms
2018/1/3 下午 10:12:57:背景流程花費:25066.608ms
2018/1/3 下午 10:13:22:背景流程花費:25068.6147ms
2018/1/3 下午 10:13:47:背景流程花費:25059.5913ms
2018/1/3 下午 10:14:12:背景流程花費:25068.6085ms
2018/1/3 下午 10:14:37:背景流程花費:25067.6348ms
2018/1/3 下午 10:15:02:背景流程花費:25071.6443ms
2018/1/3 下午 10:15:27:背景流程花費:25075.6328ms
2018/1/3 下午 10:15:52:背景流程花費:25065.6067ms
2018/1/3 下午 10:16:17:背景流程花費:25060.6136ms
2018/1/3 下午 10:16:42:背景流程花費:25068.6096ms
2018/1/3 下午 10:17:07:背景流程花費:25064.6246ms
2018/1/3 下午 10:17:33:背景流程花費:25068.6421ms
2018/1/3 下午 10:17:58:背景流程花費:25063.6227ms
2018/1/3 下午 10:18:23:背景流程花費:25061.6166ms
2018/1/3 下午 10:18:48:背景流程花費:25069.6165ms
2018/1/3 下午 10:19:13:背景流程花費:25075.6766ms
2018/1/3 下午 10:19:38:背景流程花費:25065.6605ms
2018/1/3 下午 10:20:03:背景流程花費:25073.6508ms
2018/1/3 下午 10:20:28:背景流程花費:25066.6532ms
2018/1/3 下午 10:20:53:背景流程花費:25070.6406ms
2018/1/3 下午 10:21:18:背景流程花費:25070.6409ms
2018/1/3 下午 10:21:43:背景流程花費:25063.6239ms
2018/1/3 下午 10:22:08:背景流程花費:25064.6257ms
2018/1/3 下午 10:22:33:背景流程花費:25060.592ms
2018/1/3 下午 10:22:59:背景流程花費:25065.6058ms
2018/1/3 下午 10:23:24:背景流程花費:25067.6365ms
2018/1/3 下午 10:23:49:背景流程花費:25063.6242ms
2018/1/3 下午 10:24:14:背景流程花費:25060.615ms
2018/1/3 下午 10:24:39:背景流程花費:25068.6363ms
2018/1/3 下午 10:25:04:背景流程花費:25060.6138ms
2018/1/3 下午 10:25:29:背景流程花費:25069.6388ms
2018/1/3 下午 10:25:54:背景流程花費:25070.6411ms
2018/1/3 下午 10:26:19:背景流程花費:25064.6032ms
2018/1/3 下午 10:26:44:背景流程花費:25065.6514ms
2018/1/3 下午 10:27:09:背景流程花費:25071.6455ms
2018/1/3 下午 10:27:34:背景流程花費:25068.6591ms
2018/1/3 下午 10:27:59:背景流程花費:25058.6097ms
2018/1/3 下午 10:28:24:背景流程花費:25059.6127ms
2018/1/3 下午 10:28:50:背景流程花費:25061.5961ms
2018/1/3 下午 10:29:15:背景流程花費:25065.605ms
2018/1/3 下午 10:29:40:背景流程花費:25063.6005ms
2018/1/3 下午 10:30:05:背景流程花費:25063.6011ms
2018/1/3 下午 10:30:30:背景流程花費:25059.6232ms
2018/1/3 下午 10:30:55:背景流程花費:25061.6177ms
2018/1/3 下午 10:31:20:背景流程花費:25069.6168ms
2018/1/3 下午 10:31:45:背景流程花費:25059.6121ms
2018/1/3 下午 10:32:10:背景流程花費:25062.6195ms
2018/1/3 下午 10:32:35:背景流程花費:25064.6032ms
2018/1/3 下午 10:33:00:背景流程花費:25065.6067ms
2018/1/3 下午 10:33:25:背景流程花費:25061.6163ms
2018/1/3 下午 10:33:50:背景流程花費:25067.6107ms
2018/1/3 下午 10:34:15:背景流程花費:25069.6401ms
2018/1/3 下午 10:34:41:背景流程花費:25065.628ms
2018/1/3 下午 10:35:06:背景流程花費:25058.5887ms
2018/1/3 下午 10:35:31:背景流程花費:25068.636ms
2018/1/3 下午 10:35:56:背景流程花費:25067.6607ms
2018/1/3 下午 10:36:21:背景流程花費:25064.6257ms
2018/1/3 下午 10:36:46:背景流程花費:25068.615ms
2018/1/3 下午 10:37:11:背景流程花費:25067.634ms
2018/1/3 下午 10:37:36:背景流程花費:25073.6497ms
2018/1/3 下午 10:38:01:背景流程花費:25070.6417ms
2018/1/3 下午 10:38:26:背景流程花費:25068.6352ms
2018/1/3 下午 10:38:51:背景流程花費:25068.6264ms
2018/1/3 下午 10:39:16:背景流程花費:25071.623ms
2018/1/3 下午 10:39:41:背景流程花費:25075.6539ms
2018/1/3 下午 10:40:07:背景流程花費:25068.6133ms
2018/1/3 下午 10:40:32:背景流程花費:25074.6526ms
2018/1/3 下午 10:40:57:背景流程花費:25066.6076ms
2018/1/3 下午 10:41:22:背景流程花費:25060.5928ms
2018/1/3 下午 10:41:47:背景流程花費:25068.6369ms
2018/1/3 下午 10:42:12:背景流程花費:25071.623ms
2018/1/3 下午 10:42:37:背景流程花費:25076.6835ms
2018/1/3 下午 10:43:02:背景流程花費:25065.628ms
2018/1/3 下午 10:43:27:背景流程花費:25065.5997ms
2018/1/3 下午 10:43:52:背景流程花費:25064.6041ms
2018/1/3 下午 10:44:17:背景流程花費:25067.6559ms
2018/1/3 下午 10:44:42:背景流程花費:25068.6082ms
2018/1/3 下午 10:45:08:背景流程花費:25067.6326ms
2018/1/3 下午 10:45:33:背景流程花費:25071.6216ms
2018/1/3 下午 10:45:58:背景流程花費:25068.6142ms
2018/1/3 下午 10:46:23:背景流程花費:25068.6136ms
2018/1/3 下午 10:46:48:背景流程花費:25062.5979ms
2018/1/3 下午 10:47:13:背景流程花費:25066.6581ms
2018/1/3 下午 10:47:38:背景流程花費:25061.6174ms
2018/1/3 下午 10:48:03:背景流程花費:25064.6271ms
2018/1/3 下午 10:48:28:背景流程花費:25064.6257ms
2018/1/3 下午 10:48:53:背景流程花費:25065.6033ms
2018/1/3 下午 10:49:18:背景流程花費:25067.6106ms
2018/1/3 下午 10:49:43:背景流程花費:25062.5979ms
2018/1/3 下午 10:50:08:背景流程花費:25065.6287ms
2018/1/3 下午 10:50:33:背景流程花費:25069.6202ms
2018/1/3 下午 10:50:59:背景流程花費:25070.6206ms
2018/1/3 下午 10:51:24:背景流程花費:25065.6067ms
2018/1/3 下午 10:51:49:背景流程花費:25064.6249ms
2018/1/3 下午 10:52:14:背景流程花費:25072.6485ms
2018/1/3 下午 10:52:39:背景流程花費:25069.6396ms
2018/1/3 下午 10:53:04:背景流程花費:25072.6473ms
2018/1/3 下午 10:53:29:背景流程花費:25072.6475ms
2018/1/3 下午 10:53:54:背景流程花費:25065.6286ms
2018/1/3 下午 10:54:19:背景流程花費:25063.6285ms
2018/1/3 下午 10:54:44:背景流程花費:25072.6518ms
2018/1/3 下午 10:55:09:背景流程花費:25068.6145ms
2018/1/3 下午 10:55:34:背景流程花費:25072.6464ms
2018/1/3 下午 10:55:59:背景流程花費:25062.6189ms
2018/1/3 下午 10:56:25:背景流程花費:25063.6009ms
2018/1/3 下午 10:56:50:背景流程花費:25060.5929ms
2018/1/3 下午 10:57:15:背景流程花費:25062.6042ms
2018/1/3 下午 10:57:40:背景流程花費:25066.6373ms
2018/1/3 下午 10:58:05:背景流程花費:25067.6087ms
2018/1/3 下午 10:58:30:背景流程花費:25063.6213ms
2018/1/3 下午 10:58:55:背景流程花費:25068.6301ms
2018/1/3 下午 10:59:20:背景流程花費:25068.6352ms
2018/1/3 下午 10:59:45:背景流程花費:25066.6311ms
2018/1/3 下午 11:00:10:背景流程花費:25064.6243ms
2018/1/3 下午 11:00:35:背景流程花費:25068.615ms
2018/1/3 下午 11:01:00:背景流程花費:25068.6364ms
2018/1/3 下午 11:01:25:背景流程花費:25066.6316ms
2018/1/3 下午 11:01:51:背景流程花費:25067.655ms
2018/1/3 下午 11:02:16:背景流程花費:25064.6533ms
2018/1/3 下午 11:02:41:背景流程花費:25067.6613ms
2018/1/3 下午 11:03:06:背景流程花費:25063.6005ms
2018/1/3 下午 11:03:31:背景流程花費:25066.6088ms
2018/1/3 下午 11:03:56:背景流程花費:25065.6284ms
2018/1/3 下午 11:04:21:背景流程花費:25060.6147ms
2018/1/3 下午 11:04:46:背景流程花費:25065.6062ms
2018/1/3 下午 11:05:11:背景流程花費:25067.6337ms
2018/1/3 下午 11:05:36:背景流程花費:25064.6254ms
2018/1/3 下午 11:06:01:背景流程花費:25063.6219ms
2018/1/3 下午 11:06:26:背景流程花費:25063.5986ms
2018/1/3 下午 11:06:51:背景流程花費:25059.6121ms
2018/1/3 下午 11:07:16:背景流程花費:25063.6216ms
2018/1/3 下午 11:07:42:背景流程花費:25066.6296ms
2018/1/3 下午 11:08:07:背景流程花費:25061.593ms
2018/1/3 下午 11:08:32:背景流程花費:25068.6349ms
2018/1/3 下午 11:08:57:背景流程花費:25066.6097ms
2018/1/3 下午 11:09:22:背景流程花費:25070.6195ms
2018/1/3 下午 11:09:47:背景流程花費:25061.5955ms
2018/1/3 下午 11:10:12:背景流程花費:25070.6423ms
2018/1/3 下午 11:10:37:背景流程花費:25062.6201ms
2018/1/3 下午 11:11:02:背景流程花費:25066.6308ms
2018/1/3 下午 11:11:27:背景流程花費:25066.6298ms
2018/1/3 下午 11:11:52:背景流程花費:25071.644ms
2018/1/3 下午 11:12:17:背景流程花費:25066.6298ms
2018/1/3 下午 11:12:42:背景流程花費:25066.631ms
2018/1/3 下午 11:13:07:背景流程花費:25065.6061ms
2018/1/3 下午 11:13:33:背景流程花費:25066.6096ms
2018/1/3 下午 11:13:58:背景流程花費:25069.6385ms
2018/1/3 下午 11:14:23:背景流程花費:25061.645ms
2018/1/3 下午 11:14:48:背景流程花費:25073.6266ms
2018/1/3 下午 11:15:13:背景流程花費:25064.6464ms
2018/1/3 下午 11:15:38:背景流程花費:25058.6082ms
2018/1/3 下午 11:16:03:背景流程花費:25061.6174ms
2018/1/3 下午 11:16:28:背景流程花費:25062.6437ms
2018/1/3 下午 11:16:53:背景流程花費:25064.624ms
2018/1/3 下午 11:17:18:背景流程花費:25059.6124ms
2018/1/3 下午 11:17:43:背景流程花費:25064.604ms
2018/1/3 下午 11:18:08:背景流程花費:25065.6056ms
2018/1/3 下午 11:18:33:背景流程花費:25067.6388ms
2018/1/3 下午 11:18:59:背景流程花費:25063.6213ms
2018/1/3 下午 11:19:24:背景流程花費:25067.6124ms
2018/1/3 下午 11:19:49:背景流程花費:25073.6496ms
2018/1/3 下午 11:20:14:背景流程花費:25067.6322ms
2018/1/3 下午 11:20:39:背景流程花費:25066.6313ms
2018/1/3 下午 11:21:04:背景流程花費:25062.5936ms
2018/1/3 下午 11:21:29:背景流程花費:25074.6523ms
2018/1/3 下午 11:21:54:背景流程花費:25074.6794ms
2018/1/3 下午 11:22:19:背景流程花費:25061.6117ms
2018/1/3 下午 11:22:44:背景流程花費:25070.6403ms
2018/1/3 下午 11:23:09:背景流程花費:25069.6376ms
2018/1/3 下午 11:23:34:背景流程花費:25075.6775ms
2018/1/3 下午 11:23:59:背景流程花費:25062.6189ms
2018/1/3 下午 11:24:25:背景流程花費:25066.6355ms
2018/1/3 下午 11:24:50:背景流程花費:25071.6224ms
2018/1/3 下午 11:25:15:背景流程花費:25065.6192ms
2018/1/3 下午 11:25:40:背景流程花費:25062.5979ms
2018/1/3 下午 11:26:05:背景流程花費:25060.5931ms
2018/1/3 下午 11:26:30:背景流程花費:25060.6373ms
2018/1/3 下午 11:26:55:背景流程花費:25061.616ms
2018/1/3 下午 11:27:20:背景流程花費:25062.6189ms
2018/1/3 下午 11:27:45:背景流程花費:25060.6431ms
2018/1/3 下午 11:28:10:背景流程花費:25068.6364ms
2018/1/3 下午 11:28:35:背景流程花費:25067.634ms
2018/1/3 下午 11:29:00:背景流程花費:25066.6302ms
2018/1/3 下午 11:29:25:背景流程花費:25062.619ms
2018/1/3 下午 11:29:50:背景流程花費:25065.628ms
2018/1/3 下午 11:30:16:背景流程花費:25064.6249ms
2018/1/3 下午 11:30:41:背景流程花費:25063.6005ms
2018/1/3 下午 11:31:06:背景流程花費:25060.6145ms
2018/1/3 下午 11:31:31:背景流程花費:25065.6568ms
2018/1/3 下午 11:31:56:背景流程花費:25064.6262ms
2018/1/3 下午 11:32:21:背景流程花費:25065.6058ms
2018/1/3 下午 11:32:46:背景流程花費:25070.6416ms
2018/1/3 下午 11:33:11:背景流程花費:25067.655ms
2018/1/3 下午 11:33:36:背景流程花費:25064.626ms
2018/1/3 下午 11:34:01:背景流程花費:25069.6379ms
2018/1/3 下午 11:34:26:背景流程花費:25072.6245ms
2018/1/3 下午 11:34:51:背景流程花費:25078.6414ms
2018/1/3 下午 11:35:16:背景流程花費:25063.6219ms
2018/1/3 下午 11:35:42:背景流程花費:25064.6527ms
2018/1/3 下午 11:36:07:背景流程花費:25064.6269ms
2018/1/3 下午 11:36:32:背景流程花費:25059.6351ms
2018/1/3 下午 11:36:57:背景流程花費:25070.64ms
2018/1/3 下午 11:37:22:背景流程花費:25062.5998ms
2018/1/3 下午 11:37:47:背景流程花費:25064.6239ms
2018/1/3 下午 11:38:12:背景流程花費:25062.6203ms
2018/1/3 下午 11:38:37:背景流程花費:25063.5975ms
2018/1/3 下午 11:39:02:背景流程花費:25066.6561ms
2018/1/3 下午 11:39:27:背景流程花費:25065.6266ms
2018/1/3 下午 11:39:52:背景流程花費:25069.6393ms
2018/1/3 下午 11:40:17:背景流程花費:25076.6839ms
2018/1/3 下午 11:40:42:背景流程花費:25066.6296ms
2018/1/3 下午 11:41:07:背景流程花費:25067.6334ms
2018/1/3 下午 11:41:33:背景流程花費:25066.6293ms
2018/1/3 下午 11:41:58:背景流程花費:25065.6289ms
2018/1/3 下午 11:42:23:背景流程花費:25062.5987ms
2018/1/3 下午 11:42:48:背景流程花費:25066.6228ms
2018/1/3 下午 11:43:13:背景流程花費:25065.6269ms
2018/1/3 下午 11:43:38:背景流程花費:25068.6361ms
2018/1/3 下午 11:44:03:背景流程花費:25071.644ms
2018/1/3 下午 11:44:28:背景流程花費:25067.6607ms
2018/1/3 下午 11:44:53:背景流程花費:25069.6154ms
2018/1/3 下午 11:45:18:背景流程花費:25072.6461ms
2018/1/3 下午 11:45:43:背景流程花費:25068.6424ms
2018/1/3 下午 11:46:08:背景流程花費:25066.6535ms
2018/1/3 下午 11:46:33:背景流程花費:25065.6545ms
2018/1/3 下午 11:46:59:背景流程花費:25064.6024ms
2018/1/3 下午 11:47:24:背景流程花費:25065.6503ms
2018/1/3 下午 11:47:49:背景流程花費:25060.6136ms
2018/1/3 下午 11:48:14:背景流程花費:25069.6165ms
2018/1/3 下午 11:48:39:背景流程花費:25071.621ms
2018/1/3 下午 11:49:04:背景流程花費:25064.6519ms
2018/1/3 下午 11:49:29:背景流程花費:25066.6311ms
2018/1/3 下午 11:49:54:背景流程花費:25074.674ms
2018/1/3 下午 11:50:19:背景流程花費:25074.6509ms
2018/1/3 下午 11:50:44:背景流程花費:25065.6073ms
2018/1/3 下午 11:51:09:背景流程花費:25073.6554ms
2018/1/3 下午 11:51:34:背景流程花費:25067.6346ms
2018/1/3 下午 11:51:59:背景流程花費:25068.6361ms
2018/1/3 下午 11:52:25:背景流程花費:25067.6394ms
2018/1/3 下午 11:52:50:背景流程花費:25071.643ms
2018/1/3 下午 11:53:15:背景流程花費:25069.6376ms
2018/1/3 下午 11:53:40:背景流程花費:25071.643ms
2018/1/3 下午 11:54:05:背景流程花費:25064.5998ms
2018/1/3 下午 11:54:30:背景流程花費:25079.6429ms
2018/1/3 下午 11:54:55:背景流程花費:25074.6296ms
2018/1/3 下午 11:55:20:背景流程花費:25066.6298ms
2018/1/3 下午 11:55:45:背景流程花費:25067.6106ms
2018/1/3 下午 11:56:10:背景流程花費:25072.6248ms
2018/1/3 下午 11:56:35:背景流程花費:25062.5971ms
2018/1/3 下午 11:57:00:背景流程花費:25069.6391ms
2018/1/3 下午 11:57:25:背景流程花費:25078.6403ms
2018/1/3 下午 11:57:51:背景流程花費:25068.615ms
2018/1/3 下午 11:58:16:背景流程花費:25069.6455ms
2018/1/3 下午 11:58:41:背景流程花費:25062.6189ms
2018/1/3 下午 11:59:06:背景流程花費:25066.6296ms
2018/1/3 下午 11:59:31:背景流程花費:25068.6139ms
2018/1/3 下午 11:59:56:背景流程花費:25071.6435ms
