ID,時間,事件說明,工程師
0,2018/2/6 下午 01:13:38,進入系統設定,admin
1,2018/2/6 下午 01:13:38,打開PLC警示訊息,admin
2,2018/2/6 下午 01:13:00,刪除4台風機,admin
3,2018/2/6 下午 01:12:44,刪除1台風機,admin
4,2018/2/6 下午 01:11:45,刪除2台風機,admin
5,2018/2/6 下午 01:11:38,刪除10台風機,admin
6,2018/2/6 下午 01:11:21,連續新增100台風機,admin
7,2018/2/6 下午 01:10:53,刪除58台風機,admin
8,2018/2/6 下午 01:10:47,刪除7台風機,admin
9,2018/2/6 下午 01:10:42,刪除1台風機,admin
10,2018/2/6 下午 01:10:31,連續新增10台風機,admin
11,2018/2/6 下午 01:10:09,連續新增0台風機,admin
12,2018/2/6 下午 01:10:01,修改風扇G23-02-36位置,admin
13,2018/2/6 下午 01:09:59,修改風扇G23-02-36位置,admin
14,2018/2/6 下午 01:09:52,連續新增0台風機,admin
15,2018/2/6 下午 01:09:34,連續新增0台風機,admin
16,2018/2/6 下午 01:09:06,進入消防群組管理,admin
17,2018/2/6 下午 01:09:02,進入系統事件,admin
18,2018/2/6 下午 01:08:11,進入警報代碼管理,admin
19,2018/2/6 下午 01:07:16,進入系統事件,admin
20,2018/2/6 下午 01:06:50,進入系統事件,admin
21,2018/2/6 下午 01:06:46,進入歷史警報,admin
22,2018/2/6 下午 01:05:04,進入風扇管理,admin
23,2018/2/6 下午 01:04:58,進入使用者管理,admin
24,2018/2/6 下午 01:04:55,進入廠區管理,admin
25,2018/2/6 下午 01:04:51,進入群組管理,admin
26,2018/2/6 下午 01:04:24,刪除1台風機,admin
27,2018/2/6 下午 01:04:07,修改風扇G23-02-27位置,admin
28,2018/2/6 下午 01:04:05,修改風扇G23-02-27位置,admin
29,2018/2/6 下午 01:04:04,修改風扇G23-02-27位置,admin
30,2018/2/6 上午 11:54:09,連續新增63台風機,admin
31,2018/2/6 上午 11:53:28,進入Gateway管理,admin
32,2018/2/6 上午 11:53:15,進入廠區管理,admin
33,2018/2/6 上午 11:53:12,進入Gateway管理,admin
34,2018/2/6 上午 11:52:56,進入風機控制,admin
35,2018/2/6 上午 11:52:53,所有確認異常和註記,admin
36,2018/2/6 上午 11:52:44,登入,admin
37,2018/2/6 上午 08:50:01,192.168.107.154斷線,
38,2018/2/6 上午 08:50:01,192.168.107.155斷線,
39,2018/2/6 上午 08:50:01,192.168.107.157斷線,
40,2018/2/6 上午 08:50:01,192.168.107.158斷線,
41,2018/2/6 上午 08:50:01,192.168.107.161斷線,
42,2018/2/6 上午 08:50:01,192.168.107.159斷線,
43,2018/2/6 上午 08:50:01,192.168.107.163斷線,
44,2018/2/6 上午 08:50:01,192.168.107.164斷線,
45,2018/2/6 上午 08:50:01,192.168.107.165斷線,
46,2018/2/6 上午 08:50:01,192.168.107.166斷線,
47,2018/2/6 上午 08:50:01,192.168.107.167斷線,
48,2018/2/6 上午 08:50:01,192.168.107.168斷線,
49,2018/2/6 上午 08:50:01,192.168.107.169斷線,
50,2018/2/6 上午 08:50:01,192.168.107.170斷線,
51,2018/2/6 上午 08:50:01,192.168.107.171斷線,
52,2018/2/6 上午 08:50:01,192.168.107.172斷線,
53,2018/2/6 上午 08:50:01,192.168.107.173斷線,
54,2018/2/6 上午 08:50:01,192.168.107.174斷線,
55,2018/2/6 上午 08:50:01,192.168.107.175斷線,
56,2018/2/6 上午 08:50:01,192.168.107.176斷線,
57,2018/2/6 上午 08:50:01,192.168.107.177斷線,
58,2018/2/6 上午 08:50:01,192.168.107.179斷線,
59,2018/2/6 上午 08:50:01,192.168.107.178斷線,
60,2018/2/6 上午 08:49:51,192.168.107.153斷線,
