﻿2020/2/10 下午 02:50:04:Main:程式啟動
2020/2/10 下午 02:50:04:感應器數量1:2
2020/2/10 下午 02:50:04:風扇數量1:3837
2020/2/10 下午 02:50:06:-----192.168.101.201連線失敗
2020/2/10 下午 02:50:07:-----192.168.101.203連線失敗
2020/2/10 下午 02:50:08:-----192.168.101.204連線失敗
2020/2/10 下午 02:50:09:-----192.168.101.205連線失敗
2020/2/10 下午 02:50:10:-----192.168.101.206連線失敗
2020/2/10 下午 02:50:11:-----192.168.101.207連線失敗
2020/2/10 下午 02:50:12:-----192.168.101.208連線失敗
2020/2/10 下午 02:50:13:-----192.168.101.209連線失敗
2020/2/10 下午 02:50:14:-----192.168.101.210連線失敗
2020/2/10 下午 02:50:15:-----192.168.101.211連線失敗
2020/2/10 下午 02:50:16:-----192.168.101.202連線失敗
2020/2/10 下午 02:50:16:登入.....
2020/2/10 下午 02:50:17:-----192.168.101.212連線失敗
2020/2/10 下午 02:50:18:-----192.168.101.213連線失敗
2020/2/10 下午 02:50:19:-----192.168.101.214連線失敗
2020/2/10 下午 02:50:20:-----192.168.101.215連線失敗
2020/2/10 下午 02:50:21:背景流程花費:16071.6526ms
2020/2/10 下午 02:50:22:-----192.168.101.201重新連線失敗
2020/2/10 下午 02:50:23:-----192.168.101.203重新連線失敗
2020/2/10 下午 02:50:24:Main:關閉程式中..................
2020/2/10 下午 02:50:24:Main:關閉gateway
2020/2/10 下午 02:50:24:風扇異動:3837台
2020/2/10 下午 02:50:24:0台
2020/2/10 下午 02:50:24:-----192.168.101.204重新連線失敗
2020/2/10 下午 02:50:25:500台
2020/2/10 下午 02:50:25:-----192.168.101.205重新連線失敗
2020/2/10 下午 02:50:25:1000台
2020/2/10 下午 02:50:26:-----192.168.101.206重新連線失敗
2020/2/10 下午 02:50:26:1500台
2020/2/10 下午 02:50:27:-----192.168.101.207重新連線失敗
2020/2/10 下午 02:50:27:2000台
2020/2/10 下午 02:50:28:-----192.168.101.208重新連線失敗
2020/2/10 下午 02:50:28:2500台
2020/2/10 下午 02:50:29:-----192.168.101.209重新連線失敗
2020/2/10 下午 02:50:29:3000台
2020/2/10 下午 02:50:30:-----192.168.101.210重新連線失敗
2020/2/10 下午 02:50:30:3500台
2020/2/10 下午 02:50:31:-----192.168.101.211重新連線失敗
2020/2/10 下午 02:50:31:完成寫入風扇:3837台
2020/2/10 下午 02:50:31:感應器異動:2台
2020/2/10 下午 02:50:31:0台
2020/2/10 下午 02:50:31:完成寫入感應器:2台
2020/2/10 下午 02:50:31:Main:關閉程式完成..................
2020/2/10 下午 02:53:57:Main:程式啟動
2020/2/10 下午 02:53:57:感應器數量1:2
2020/2/10 下午 02:53:57:風扇數量1:3837
2020/2/10 下午 02:54:00:-----192.168.101.201連線失敗
2020/2/10 下午 02:54:01:-----192.168.101.203連線失敗
2020/2/10 下午 02:54:02:-----192.168.101.204連線失敗
2020/2/10 下午 02:54:03:-----192.168.101.205連線失敗
2020/2/10 下午 02:54:04:-----192.168.101.206連線失敗
2020/2/10 下午 02:54:05:-----192.168.101.207連線失敗
2020/2/10 下午 02:54:06:-----192.168.101.208連線失敗
2020/2/10 下午 02:54:07:-----192.168.101.209連線失敗
2020/2/10 下午 02:54:08:進入Gateway通訊1
2020/2/10 下午 02:54:08:-----192.168.101.210連線失敗
2020/2/10 下午 02:54:09:-----192.168.101.211連線失敗
2020/2/10 下午 02:54:10:登入.....
2020/2/10 下午 02:54:10:-----192.168.101.202連線失敗
2020/2/10 下午 02:54:11:-----192.168.101.212連線失敗
2020/2/10 下午 02:54:12:-----192.168.101.213連線失敗
2020/2/10 下午 02:54:13:-----192.168.101.214連線失敗
2020/2/10 下午 02:54:14:-----192.168.101.215連線失敗
2020/2/10 下午 02:54:15:背景流程花費:16076.8443ms
2020/2/10 下午 02:54:16:-----192.168.101.201重新連線失敗
2020/2/10 下午 02:54:17:-----192.168.101.203重新連線失敗
2020/2/10 下午 02:54:18:-----192.168.101.204重新連線失敗
2020/2/10 下午 02:54:19:-----192.168.101.205重新連線失敗
2020/2/10 下午 02:54:20:-----192.168.101.206重新連線失敗
2020/2/10 下午 02:54:21:-----192.168.101.207重新連線失敗
2020/2/10 下午 02:54:22:-----192.168.101.208重新連線失敗
2020/2/10 下午 02:54:23:-----192.168.101.209重新連線失敗
2020/2/10 下午 02:54:24:-----192.168.101.210重新連線失敗
2020/2/10 下午 02:54:25:-----192.168.101.211重新連線失敗
2020/2/10 下午 02:54:26:-----192.168.101.202重新連線失敗
2020/2/10 下午 02:54:27:-----192.168.101.212重新連線失敗
2020/2/10 下午 02:54:28:-----192.168.101.213重新連線失敗
2020/2/10 下午 02:54:29:-----192.168.101.214重新連線失敗
2020/2/10 下午 02:54:30:-----192.168.101.215重新連線失敗
2020/2/10 下午 02:54:31:背景流程花費:16053.2673ms
2020/2/10 下午 02:54:32:-----192.168.101.201重新連線失敗
2020/2/10 下午 02:54:33:-----192.168.101.203重新連線失敗
2020/2/10 下午 02:54:34:-----192.168.101.204重新連線失敗
2020/2/10 下午 02:54:35:-----192.168.101.205重新連線失敗
2020/2/10 下午 02:54:36:-----192.168.101.206重新連線失敗
2020/2/10 下午 02:54:37:-----192.168.101.207重新連線失敗
2020/2/10 下午 02:54:38:-----192.168.101.208重新連線失敗
2020/2/10 下午 02:54:39:-----192.168.101.209重新連線失敗
2020/2/10 下午 02:54:40:-----192.168.101.210重新連線失敗
2020/2/10 下午 02:54:41:-----192.168.101.211重新連線失敗
2020/2/10 下午 02:54:42:-----192.168.101.202重新連線失敗
2020/2/10 下午 02:54:43:-----192.168.101.212重新連線失敗
2020/2/10 下午 02:54:44:-----192.168.101.213重新連線失敗
2020/2/10 下午 02:54:45:-----192.168.101.214重新連線失敗
2020/2/10 下午 02:54:46:-----192.168.101.215重新連線失敗
2020/2/10 下午 02:54:47:背景流程花費:16086.4292ms
2020/2/10 下午 02:54:48:-----192.168.101.201重新連線失敗
2020/2/10 下午 02:54:49:-----192.168.101.203重新連線失敗
2020/2/10 下午 02:54:50:-----192.168.101.204重新連線失敗
2020/2/10 下午 02:54:51:-----192.168.101.205重新連線失敗
2020/2/10 下午 02:54:52:-----192.168.101.206重新連線失敗
2020/2/10 下午 02:54:53:-----192.168.101.207重新連線失敗
2020/2/10 下午 02:54:54:-----192.168.101.208重新連線失敗
2020/2/10 下午 02:54:55:-----192.168.101.209重新連線失敗
2020/2/10 下午 02:54:56:-----192.168.101.210重新連線失敗
2020/2/10 下午 02:54:57:-----192.168.101.211重新連線失敗
2020/2/10 下午 02:54:58:-----192.168.101.202重新連線失敗
2020/2/10 下午 02:54:59:-----192.168.101.212重新連線失敗
2020/2/10 下午 02:55:00:-----192.168.101.213重新連線失敗
2020/2/10 下午 02:55:01:-----192.168.101.214重新連線失敗
2020/2/10 下午 02:55:02:-----192.168.101.215重新連線失敗
2020/2/10 下午 02:55:03:背景流程花費:16055.0504ms
2020/2/10 下午 02:55:04:-----192.168.101.201重新連線失敗
2020/2/10 下午 02:55:05:-----192.168.101.203重新連線失敗
2020/2/10 下午 02:55:06:-----192.168.101.204重新連線失敗
2020/2/10 下午 02:55:07:-----192.168.101.205重新連線失敗
2020/2/10 下午 02:55:08:-----192.168.101.206重新連線失敗
2020/2/10 下午 02:55:09:-----192.168.101.207重新連線失敗
2020/2/10 下午 02:55:10:-----192.168.101.208重新連線失敗
2020/2/10 下午 02:55:11:-----192.168.101.209重新連線失敗
2020/2/10 下午 02:55:12:-----192.168.101.210重新連線失敗
2020/2/10 下午 02:55:13:-----192.168.101.211重新連線失敗
2020/2/10 下午 02:55:14:-----192.168.101.202重新連線失敗
2020/2/10 下午 02:55:15:-----192.168.101.212重新連線失敗
2020/2/10 下午 02:55:16:-----192.168.101.213重新連線失敗
2020/2/10 下午 02:55:16:Main:關閉程式中..................
2020/2/10 下午 02:55:16:Main:關閉gateway
2020/2/10 下午 02:55:16:風扇異動:3837台
2020/2/10 下午 02:55:16:0台
2020/2/10 下午 02:55:16:-----192.168.101.214重新連線失敗
2020/2/10 下午 02:55:17:500台
2020/2/10 下午 02:55:17:-----192.168.101.215重新連線失敗
2020/2/10 下午 02:55:18:1000台
2020/2/10 下午 02:55:18:背景流程花費:15141.1552ms
2020/2/10 下午 02:55:19:1500台
2020/2/10 下午 02:55:20:2000台
2020/2/10 下午 02:55:21:2500台
2020/2/10 下午 02:55:22:3000台
2020/2/10 下午 02:55:23:3500台
2020/2/10 下午 02:55:23:完成寫入風扇:3837台
2020/2/10 下午 02:55:23:感應器異動:2台
2020/2/10 下午 02:55:23:0台
2020/2/10 下午 02:55:23:完成寫入感應器:2台
2020/2/10 下午 02:55:23:Main:關閉程式完成..................
