﻿[
    {
        "ID": "1",
        "Name": "Sensor 1",
        "Status": "1"
    },
    {
        "ID": "2",
        "Name": "Sensor 2",
        "Status": "1"
    },
    {
        "ID": "3",
        "Name": "Sensor 3",
        "Status": "0"
    },
    {
        "ID": "4",
        "Name": "Sensor 4",
        "Status": "0"
    },
    {
        "ID": "5",
        "Name": "Sensor 5",
        "Status": "1"
    },
    {
        "ID": "6",
        "Name": "Sensor 6",
        "Status": "1"
    }
]