ID,時間,事件說明,工程師
0,2018/6/5 下午 02:16:31,進入警報代碼管理,admin
1,2018/6/5 下午 02:16:29,進入警報代碼管理,admin
2,2018/6/5 下午 02:16:25,進入消防群組管理,admin
3,2018/6/5 下午 02:16:23,進入Gateway通訊,admin
4,2018/6/5 下午 02:12:45,進入風機控制,admin
5,2018/6/5 下午 02:12:14,進入耗能計算,admin
6,2018/6/5 下午 02:11:04,進入消防群組管理,admin
7,2018/6/5 下午 02:09:57,進入群組管理,admin
8,2018/6/5 下午 02:09:47,進入Gateway通訊,admin
9,2018/6/5 下午 02:09:30,進入警報代碼管理,admin
10,2018/6/5 下午 02:09:17,進入歷史警報,admin
11,2018/6/5 下午 02:08:08,進入系統事件,admin
12,2018/6/5 下午 02:07:17,進入系統事件,admin
13,2018/6/5 下午 02:06:17,進入即時警報,admin
14,2018/6/5 下午 02:04:47,登入,admin
15,2018/6/5 下午 02:04:31,進入Gateway通訊,
16,2018/6/5 下午 02:04:28,進入即時警報,
17,2018/6/5 下午 02:04:23,程式啟動,
18,2018/6/5 下午 02:04:22,192.168.101.210連線成功,
19,2018/6/5 下午 02:04:22,192.168.101.211連線成功,
20,2018/6/5 下午 02:04:22,192.168.101.202連線成功,
21,2018/6/5 下午 02:04:22,192.168.101.206連線成功,
22,2018/6/5 下午 02:04:22,192.168.101.207連線成功,
23,2018/6/5 下午 02:04:22,192.168.101.208連線成功,
24,2018/6/5 下午 02:04:22,192.168.101.209連線成功,
25,2018/6/5 下午 02:04:22,192.168.101.204連線成功,
26,2018/6/5 下午 02:04:22,192.168.101.205連線成功,
27,2018/6/5 下午 02:04:22,192.168.101.203連線成功,
28,2018/6/5 下午 02:04:22,192.168.101.201連線成功,
29,2018/6/5 下午 02:04:15,關閉程式,
30,2018/6/5 下午 02:04:11,登出,admin
31,2018/6/5 下午 02:04:09,登入,admin
32,2018/6/5 下午 02:03:56,程式啟動,
33,2018/6/5 下午 02:03:56,192.168.101.211連線成功,
34,2018/6/5 下午 02:03:56,192.168.101.202連線成功,
35,2018/6/5 下午 02:03:56,192.168.101.207連線成功,
36,2018/6/5 下午 02:03:56,192.168.101.208連線成功,
37,2018/6/5 下午 02:03:56,192.168.101.209連線成功,
38,2018/6/5 下午 02:03:56,192.168.101.210連線成功,
39,2018/6/5 下午 02:03:56,192.168.101.204連線成功,
40,2018/6/5 下午 02:03:56,192.168.101.205連線成功,
41,2018/6/5 下午 02:03:56,192.168.101.206連線成功,
42,2018/6/5 下午 02:03:56,192.168.101.203連線成功,
43,2018/6/5 下午 02:03:56,192.168.101.201連線成功,
44,2018/6/5 下午 02:03:51,關閉程式,admin
45,2018/6/5 下午 02:03:47,進入風機控制,admin
46,2018/6/5 下午 02:03:44,登入,admin
47,2018/6/5 下午 02:03:41,程式啟動,
48,2018/6/5 下午 02:03:41,192.168.101.208連線成功,
49,2018/6/5 下午 02:03:41,192.168.101.209連線成功,
50,2018/6/5 下午 02:03:41,192.168.101.210連線成功,
51,2018/6/5 下午 02:03:41,192.168.101.211連線成功,
52,2018/6/5 下午 02:03:41,192.168.101.202連線成功,
53,2018/6/5 下午 02:03:41,192.168.101.205連線成功,
54,2018/6/5 下午 02:03:41,192.168.101.206連線成功,
55,2018/6/5 下午 02:03:41,192.168.101.207連線成功,
56,2018/6/5 下午 02:03:41,192.168.101.203連線成功,
57,2018/6/5 下午 02:03:41,192.168.101.204連線成功,
58,2018/6/5 下午 02:03:41,192.168.101.201連線成功,
59,2018/6/5 下午 02:03:36,關閉程式,admin
60,2018/6/5 下午 01:48:23,進入耗能計算,admin
61,2018/6/5 下午 01:48:18,進入Gateway通訊,admin
62,2018/6/5 下午 01:48:13,進入消防群組管理,admin
63,2018/6/5 下午 01:48:09,進入警報代碼管理,admin
64,2018/6/5 下午 01:48:05,進入群組管理,admin
65,2018/6/5 下午 01:48:00,進入消防群組管理,admin
66,2018/6/5 下午 01:47:41,進入消防群組管理,admin
67,2018/6/5 下午 01:47:25,進入消防群組管理,admin
68,2018/6/5 下午 01:45:26,修改風扇G01_04_34轉速,admin
69,2018/6/5 下午 01:26:03,風扇G01_04_34警報消失:0,admin
70,2018/6/5 上午 11:20:16,進入系統事件,admin
71,2018/6/5 上午 11:17:02,進入系統事件,admin
72,2018/6/5 上午 11:16:55,進入即時警報,admin
73,2018/6/5 上午 11:15:28,修改風扇G01_03_33轉速,admin
74,2018/6/5 上午 11:15:28,修改風扇G01_03_34轉速,admin
75,2018/6/5 上午 11:15:28,修改風扇G01_03_35轉速,admin
76,2018/6/5 上午 11:15:28,修改風扇G01_03_36轉速,admin
77,2018/6/5 上午 11:15:28,修改風扇G01_03_31轉速,admin
78,2018/6/5 上午 11:15:28,修改風扇G01_03_32轉速,admin
79,2018/6/5 上午 11:14:32,修改風扇G01_03_23轉速,admin
80,2018/6/5 上午 11:14:32,修改風扇G01_03_24轉速,admin
81,2018/6/5 上午 11:14:32,修改風扇G01_03_19轉速,admin
82,2018/6/5 上午 11:14:32,修改風扇G01_03_20轉速,admin
83,2018/6/5 上午 11:14:32,修改風扇G01_03_21轉速,admin
84,2018/6/5 上午 11:14:32,修改風扇G01_03_22轉速,admin
85,2018/6/5 上午 11:14:32,修改風扇G01_03_17轉速,admin
86,2018/6/5 上午 11:14:32,修改風扇G01_03_18轉速,admin
87,2018/6/5 上午 11:14:32,修改風扇G01_03_14轉速,admin
88,2018/6/5 上午 11:14:32,修改風扇G01_03_15轉速,admin
89,2018/6/5 上午 11:14:32,修改風扇G01_03_16轉速,admin
90,2018/6/5 上午 11:14:32,修改風扇G01_03_11轉速,admin
91,2018/6/5 上午 11:14:32,修改風扇G01_03_12轉速,admin
92,2018/6/5 上午 11:14:32,修改風扇G01_03_13轉速,admin
93,2018/6/5 上午 11:14:32,修改風扇G01_03_08轉速,admin
94,2018/6/5 上午 11:14:32,修改風扇G01_03_09轉速,admin
95,2018/6/5 上午 11:14:32,修改風扇G01_03_10轉速,admin
96,2018/6/5 上午 11:14:32,修改風扇G01_03_04轉速,admin
97,2018/6/5 上午 11:14:32,修改風扇G01_03_05轉速,admin
98,2018/6/5 上午 11:14:32,修改風扇G01_03_07轉速,admin
99,2018/6/5 上午 11:14:32,修改風扇G01_03_01轉速,admin
100,2018/6/5 上午 11:14:32,修改風扇G01_03_02轉速,admin
101,2018/6/5 上午 11:14:32,修改風扇G01_03_03轉速,admin
102,2018/6/5 上午 11:14:17,修改風扇G01_05_17轉速,admin
103,2018/6/5 上午 11:14:17,修改風扇G01_05_14轉速,admin
104,2018/6/5 上午 11:14:17,修改風扇G01_05_15轉速,admin
105,2018/6/5 上午 11:14:17,修改風扇G01_05_16轉速,admin
106,2018/6/5 上午 11:14:17,修改風扇G01_05_10轉速,admin
107,2018/6/5 上午 11:14:17,修改風扇G01_05_11轉速,admin
108,2018/6/5 上午 11:14:17,修改風扇G01_05_12轉速,admin
109,2018/6/5 上午 11:14:17,修改風扇G01_05_13轉速,admin
110,2018/6/5 上午 11:14:17,修改風扇G01_05_08轉速,admin
111,2018/6/5 上午 11:14:17,修改風扇G01_05_09轉速,admin
112,2018/6/5 上午 11:14:17,修改風扇G01_04_58轉速,admin
113,2018/6/5 上午 11:14:17,修改風扇G01_04_59轉速,admin
114,2018/6/5 上午 11:14:17,修改風扇G01_05_07轉速,admin
115,2018/6/5 上午 11:14:17,修改風扇G01_04_54轉速,admin
116,2018/6/5 上午 11:14:17,修改風扇G01_04_55轉速,admin
117,2018/6/5 上午 11:14:17,修改風扇G01_04_56轉速,admin
118,2018/6/5 上午 11:14:17,修改風扇G01_04_57轉速,admin
119,2018/6/5 上午 11:14:17,修改風扇G01_04_52轉速,admin
120,2018/6/5 上午 11:14:17,修改風扇G01_04_53轉速,admin
121,2018/6/5 上午 11:14:17,修改風扇G01_04_49轉速,admin
122,2018/6/5 上午 11:14:17,修改風扇G01_04_50轉速,admin
123,2018/6/5 上午 11:14:17,修改風扇G01_04_51轉速,admin
124,2018/6/5 上午 11:14:17,修改風扇G01_04_45轉速,admin
125,2018/6/5 上午 11:14:17,修改風扇G01_04_46轉速,admin
126,2018/6/5 上午 11:14:17,修改風扇G01_04_47轉速,admin
127,2018/6/5 上午 11:14:17,修改風扇G01_04_48轉速,admin
128,2018/6/5 上午 11:14:17,修改風扇G01_04_42轉速,admin
129,2018/6/5 上午 11:14:17,修改風扇G01_04_43轉速,admin
130,2018/6/5 上午 11:14:17,修改風扇G01_04_44轉速,admin
131,2018/6/5 上午 11:14:17,修改風扇G01_04_40轉速,admin
132,2018/6/5 上午 11:14:17,修改風扇G01_04_41轉速,admin
133,2018/6/5 上午 11:14:17,修改風扇G01_04_36轉速,admin
134,2018/6/5 上午 11:14:17,修改風扇G01_04_37轉速,admin
135,2018/6/5 上午 11:14:17,修改風扇G01_04_38轉速,admin
136,2018/6/5 上午 11:14:17,修改風扇G01_04_39轉速,admin
137,2018/6/5 上午 11:14:17,修改風扇G01_04_34轉速,admin
138,2018/6/5 上午 11:14:17,修改風扇G01_04_35轉速,admin
139,2018/6/5 上午 11:14:17,修改風扇G01_04_31轉速,admin
140,2018/6/5 上午 11:14:17,修改風扇G01_04_32轉速,admin
141,2018/6/5 上午 11:14:17,修改風扇G01_04_33轉速,admin
142,2018/6/5 上午 11:14:17,修改風扇G01_04_28轉速,admin
143,2018/6/5 上午 11:14:17,修改風扇G01_04_29轉速,admin
144,2018/6/5 上午 11:14:17,修改風扇G01_04_30轉速,admin
145,2018/6/5 上午 11:14:17,修改風扇G01_04_25轉速,admin
146,2018/6/5 上午 11:14:17,修改風扇G01_04_26轉速,admin
147,2018/6/5 上午 11:14:17,修改風扇G01_04_27轉速,admin
148,2018/6/5 上午 11:14:17,修改風扇G01_04_22轉速,admin
149,2018/6/5 上午 11:14:17,修改風扇G01_04_23轉速,admin
150,2018/6/5 上午 11:14:17,修改風扇G01_04_24轉速,admin
151,2018/6/5 上午 11:14:17,修改風扇G01_04_19轉速,admin
152,2018/6/5 上午 11:14:17,修改風扇G01_04_20轉速,admin
153,2018/6/5 上午 11:14:17,修改風扇G01_04_21轉速,admin
154,2018/6/5 上午 11:14:17,修改風扇G01_04_17轉速,admin
155,2018/6/5 上午 11:14:17,修改風扇G01_04_18轉速,admin
156,2018/6/5 上午 11:14:17,修改風扇G01_04_14轉速,admin
157,2018/6/5 上午 11:14:17,修改風扇G01_04_15轉速,admin
158,2018/6/5 上午 11:14:17,修改風扇G01_04_16轉速,admin
159,2018/6/5 上午 11:14:17,修改風扇G01_04_11轉速,admin
160,2018/6/5 上午 11:14:17,修改風扇G01_04_12轉速,admin
161,2018/6/5 上午 11:14:17,修改風扇G01_04_13轉速,admin
162,2018/6/5 上午 11:14:17,修改風扇G01_04_08轉速,admin
163,2018/6/5 上午 11:14:17,修改風扇G01_04_09轉速,admin
164,2018/6/5 上午 11:14:17,修改風扇G01_04_10轉速,admin
165,2018/6/5 上午 11:14:17,修改風扇G01_04_05轉速,admin
166,2018/6/5 上午 11:14:17,修改風扇G01_04_06轉速,admin
167,2018/6/5 上午 11:14:17,修改風扇G01_04_07轉速,admin
168,2018/6/5 上午 11:14:17,修改風扇G01_04_02轉速,admin
169,2018/6/5 上午 11:14:17,修改風扇G01_04_03轉速,admin
170,2018/6/5 上午 11:14:17,修改風扇G01_04_04轉速,admin
171,2018/6/5 上午 11:14:17,修改風扇G01_04_01轉速,admin
172,2018/6/5 上午 11:14:15,修改風扇G01_05_15轉速,admin
173,2018/6/5 上午 11:14:15,修改風扇G01_05_16轉速,admin
174,2018/6/5 上午 11:14:15,修改風扇G01_05_17轉速,admin
175,2018/6/5 上午 11:14:15,修改風扇G01_05_12轉速,admin
176,2018/6/5 上午 11:14:15,修改風扇G01_05_13轉速,admin
177,2018/6/5 上午 11:14:15,修改風扇G01_05_14轉速,admin
178,2018/6/5 上午 11:14:15,修改風扇G01_05_08轉速,admin
179,2018/6/5 上午 11:14:15,修改風扇G01_05_09轉速,admin
180,2018/6/5 上午 11:14:15,修改風扇G01_05_10轉速,admin
181,2018/6/5 上午 11:14:15,修改風扇G01_05_11轉速,admin
182,2018/6/5 上午 11:14:15,修改風扇G01_04_59轉速,admin
183,2018/6/5 上午 11:14:15,修改風扇G01_05_07轉速,admin
184,2018/6/5 上午 11:14:15,修改風扇G01_04_56轉速,admin
185,2018/6/5 上午 11:14:15,修改風扇G01_04_57轉速,admin
186,2018/6/5 上午 11:14:15,修改風扇G01_04_58轉速,admin
187,2018/6/5 上午 11:14:15,修改風扇G01_04_53轉速,admin
188,2018/6/5 上午 11:14:15,修改風扇G01_04_54轉速,admin
189,2018/6/5 上午 11:14:15,修改風扇G01_04_55轉速,admin
190,2018/6/5 上午 11:14:15,修改風扇G01_04_50轉速,admin
191,2018/6/5 上午 11:14:15,修改風扇G01_04_51轉速,admin
192,2018/6/5 上午 11:14:15,修改風扇G01_04_52轉速,admin
193,2018/6/5 上午 11:14:15,修改風扇G01_04_47轉速,admin
194,2018/6/5 上午 11:14:15,修改風扇G01_04_48轉速,admin
195,2018/6/5 上午 11:14:15,修改風扇G01_04_49轉速,admin
196,2018/6/5 上午 11:14:15,修改風扇G01_04_44轉速,admin
197,2018/6/5 上午 11:14:15,修改風扇G01_04_45轉速,admin
198,2018/6/5 上午 11:14:15,修改風扇G01_04_46轉速,admin
199,2018/6/5 上午 11:14:15,修改風扇G01_04_41轉速,admin
200,2018/6/5 上午 11:14:15,修改風扇G01_04_42轉速,admin
201,2018/6/5 上午 11:14:15,修改風扇G01_04_43轉速,admin
202,2018/6/5 上午 11:14:15,修改風扇G01_04_38轉速,admin
203,2018/6/5 上午 11:14:15,修改風扇G01_04_39轉速,admin
204,2018/6/5 上午 11:14:15,修改風扇G01_04_40轉速,admin
205,2018/6/5 上午 11:14:15,修改風扇G01_04_34轉速,admin
206,2018/6/5 上午 11:14:15,修改風扇G01_04_35轉速,admin
207,2018/6/5 上午 11:14:15,修改風扇G01_04_36轉速,admin
208,2018/6/5 上午 11:14:15,修改風扇G01_04_37轉速,admin
209,2018/6/5 上午 11:14:15,修改風扇G01_04_32轉速,admin
210,2018/6/5 上午 11:14:15,修改風扇G01_04_33轉速,admin
211,2018/6/5 上午 11:14:15,修改風扇G01_04_29轉速,admin
212,2018/6/5 上午 11:14:15,修改風扇G01_04_30轉速,admin
213,2018/6/5 上午 11:14:15,修改風扇G01_04_31轉速,admin
214,2018/6/5 上午 11:14:15,修改風扇G01_04_26轉速,admin
215,2018/6/5 上午 11:14:15,修改風扇G01_04_27轉速,admin
216,2018/6/5 上午 11:14:15,修改風扇G01_04_28轉速,admin
217,2018/6/5 上午 11:14:15,修改風扇G01_04_23轉速,admin
218,2018/6/5 上午 11:14:15,修改風扇G01_04_24轉速,admin
219,2018/6/5 上午 11:14:15,修改風扇G01_04_25轉速,admin
220,2018/6/5 上午 11:14:15,修改風扇G01_04_20轉速,admin
221,2018/6/5 上午 11:14:15,修改風扇G01_04_21轉速,admin
222,2018/6/5 上午 11:14:15,修改風扇G01_04_22轉速,admin
223,2018/6/5 上午 11:14:15,修改風扇G01_04_17轉速,admin
224,2018/6/5 上午 11:14:15,修改風扇G01_04_18轉速,admin
225,2018/6/5 上午 11:14:15,修改風扇G01_04_19轉速,admin
226,2018/6/5 上午 11:14:15,修改風扇G01_04_14轉速,admin
227,2018/6/5 上午 11:14:15,修改風扇G01_04_15轉速,admin
228,2018/6/5 上午 11:14:15,修改風扇G01_04_16轉速,admin
229,2018/6/5 上午 11:14:15,修改風扇G01_04_11轉速,admin
230,2018/6/5 上午 11:14:15,修改風扇G01_04_12轉速,admin
231,2018/6/5 上午 11:14:15,修改風扇G01_04_13轉速,admin
232,2018/6/5 上午 11:14:15,修改風扇G01_04_08轉速,admin
233,2018/6/5 上午 11:14:15,修改風扇G01_04_09轉速,admin
234,2018/6/5 上午 11:14:15,修改風扇G01_04_10轉速,admin
235,2018/6/5 上午 11:14:15,修改風扇G01_04_05轉速,admin
236,2018/6/5 上午 11:14:15,修改風扇G01_04_06轉速,admin
237,2018/6/5 上午 11:14:15,修改風扇G01_04_07轉速,admin
238,2018/6/5 上午 11:14:15,修改風扇G01_04_02轉速,admin
239,2018/6/5 上午 11:14:15,修改風扇G01_04_03轉速,admin
240,2018/6/5 上午 11:14:15,修改風扇G01_04_04轉速,admin
241,2018/6/5 上午 11:14:15,修改風扇G01_04_01轉速,admin
242,2018/6/5 上午 11:14:10,修改風扇G01_01_14轉速,admin
243,2018/6/5 上午 11:14:10,修改風扇G01_01_16轉速,admin
244,2018/6/5 上午 11:14:10,修改風扇G01_01_15轉速,admin
245,2018/6/5 上午 11:14:10,修改風扇G01_05_06轉速,admin
246,2018/6/5 上午 11:14:10,修改風扇G01_01_45轉速,admin
247,2018/6/5 上午 11:14:10,修改風扇G01_01_11轉速,admin
248,2018/6/5 上午 11:14:10,修改風扇G01_01_12轉速,admin
249,2018/6/5 上午 11:14:10,修改風扇G01_01_13轉速,admin
250,2018/6/5 上午 11:14:10,修改風扇G01_05_04轉速,admin
251,2018/6/5 上午 11:14:10,修改風扇G01_05_05轉速,admin
252,2018/6/5 上午 11:14:10,修改風扇G01_05_01轉速,admin
253,2018/6/5 上午 11:14:10,修改風扇G01_05_02轉速,admin
254,2018/6/5 上午 11:14:10,修改風扇G01_05_03轉速,admin
255,2018/6/5 上午 11:14:10,修改風扇G01_02_35轉速,admin
256,2018/6/5 上午 11:14:10,修改風扇G01_02_36轉速,admin
257,2018/6/5 上午 11:14:10,修改風扇G01_02_05轉速,admin
258,2018/6/5 上午 11:14:10,修改風扇G01_02_33轉速,admin
259,2018/6/5 上午 11:14:10,修改風扇G01_02_34轉速,admin
260,2018/6/5 上午 11:14:10,修改風扇G01_02_30轉速,admin
261,2018/6/5 上午 11:14:10,修改風扇G01_02_31轉速,admin
262,2018/6/5 上午 11:14:10,修改風扇G01_02_32轉速,admin
263,2018/6/5 上午 11:14:10,修改風扇G01_02_28轉速,admin
264,2018/6/5 上午 11:14:10,修改風扇G01_02_29轉速,admin
265,2018/6/5 上午 11:14:10,修改風扇G01_02_25轉速,admin
266,2018/6/5 上午 11:14:10,修改風扇G01_02_26轉速,admin
267,2018/6/5 上午 11:14:10,修改風扇G01_02_27轉速,admin
268,2018/6/5 上午 11:14:10,修改風扇G01_02_23轉速,admin
269,2018/6/5 上午 11:14:10,修改風扇G01_02_24轉速,admin
270,2018/6/5 上午 11:14:10,修改風扇G01_02_20轉速,admin
271,2018/6/5 上午 11:14:10,修改風扇G01_02_21轉速,admin
272,2018/6/5 上午 11:14:10,修改風扇G01_02_22轉速,admin
273,2018/6/5 上午 11:14:10,修改風扇G01_02_18轉速,admin
274,2018/6/5 上午 11:14:10,修改風扇G01_02_19轉速,admin
275,2018/6/5 上午 11:14:10,修改風扇G01_02_16轉速,admin
276,2018/6/5 上午 11:14:10,修改風扇G01_02_17轉速,admin
277,2018/6/5 上午 11:14:10,修改風扇G01_02_14轉速,admin
278,2018/6/5 上午 11:14:10,修改風扇G01_02_15轉速,admin
279,2018/6/5 上午 11:14:10,修改風扇G01_02_12轉速,admin
280,2018/6/5 上午 11:14:10,修改風扇G01_02_13轉速,admin
281,2018/6/5 上午 11:14:10,修改風扇G01_02_10轉速,admin
282,2018/6/5 上午 11:14:10,修改風扇G01_02_11轉速,admin
283,2018/6/5 上午 11:14:10,修改風扇G01_02_07轉速,admin
284,2018/6/5 上午 11:14:10,修改風扇G01_02_08轉速,admin
285,2018/6/5 上午 11:14:10,修改風扇G01_02_09轉速,admin
286,2018/6/5 上午 11:14:10,修改風扇G01_02_04轉速,admin
287,2018/6/5 上午 11:14:10,修改風扇G01_02_06轉速,admin
288,2018/6/5 上午 11:14:10,修改風扇G01_02_02轉速,admin
289,2018/6/5 上午 11:14:10,修改風扇G01_02_03轉速,admin
290,2018/6/5 上午 11:14:10,修改風扇G01_01_44轉速,admin
291,2018/6/5 上午 11:14:10,修改風扇G01_02_01轉速,admin
292,2018/6/5 上午 11:14:10,修改風扇G01_01_42轉速,admin
293,2018/6/5 上午 11:14:10,修改風扇G01_01_43轉速,admin
294,2018/6/5 上午 11:14:10,修改風扇G01_01_40轉速,admin
295,2018/6/5 上午 11:14:10,修改風扇G01_01_41轉速,admin
296,2018/6/5 上午 11:14:10,修改風扇G01_01_38轉速,admin
297,2018/6/5 上午 11:14:10,修改風扇G01_01_39轉速,admin
298,2018/6/5 上午 11:14:10,修改風扇G01_01_37轉速,admin
299,2018/6/5 上午 11:14:10,修改風扇G01_01_35轉速,admin
300,2018/6/5 上午 11:14:10,修改風扇G01_01_36轉速,admin
301,2018/6/5 上午 11:14:10,修改風扇G01_01_33轉速,admin
302,2018/6/5 上午 11:14:10,修改風扇G01_01_34轉速,admin
303,2018/6/5 上午 11:14:10,修改風扇G01_01_31轉速,admin
304,2018/6/5 上午 11:14:10,修改風扇G01_01_32轉速,admin
305,2018/6/5 上午 11:14:10,修改風扇G01_01_29轉速,admin
306,2018/6/5 上午 11:14:10,修改風扇G01_01_30轉速,admin
307,2018/6/5 上午 11:14:10,修改風扇G01_01_27轉速,admin
308,2018/6/5 上午 11:14:10,修改風扇G01_01_28轉速,admin
309,2018/6/5 上午 11:14:10,修改風扇G01_01_24轉速,admin
310,2018/6/5 上午 11:14:10,修改風扇G01_01_25轉速,admin
311,2018/6/5 上午 11:14:10,修改風扇G01_01_26轉速,admin
312,2018/6/5 上午 11:14:10,修改風扇G01_01_22轉速,admin
313,2018/6/5 上午 11:14:10,修改風扇G01_01_23轉速,admin
314,2018/6/5 上午 11:14:10,修改風扇G01_01_20轉速,admin
315,2018/6/5 上午 11:14:10,修改風扇G01_01_21轉速,admin
316,2018/6/5 上午 11:14:10,修改風扇G01_01_17轉速,admin
317,2018/6/5 上午 11:14:10,修改風扇G01_01_18轉速,admin
318,2018/6/5 上午 11:14:10,修改風扇G01_01_19轉速,admin
319,2018/6/5 上午 11:14:10,修改風扇G01_01_09轉速,admin
320,2018/6/5 上午 11:14:10,修改風扇G01_01_10轉速,admin
321,2018/6/5 上午 11:14:10,修改風扇G01_01_08轉速,admin
322,2018/6/5 上午 11:14:10,修改風扇G01_01_05轉速,admin
323,2018/6/5 上午 11:14:10,修改風扇G01_01_06轉速,admin
324,2018/6/5 上午 11:14:10,修改風扇G01_01_07轉速,admin
325,2018/6/5 上午 11:14:10,修改風扇G01_01_03轉速,admin
326,2018/6/5 上午 11:14:10,修改風扇G01_01_04轉速,admin
327,2018/6/5 上午 11:14:10,修改風扇G01_01_02轉速,admin
328,2018/6/5 上午 11:14:10,修改風扇G01_01_01轉速,admin
329,2018/6/5 上午 11:13:50,進入風機控制,admin
330,2018/6/5 上午 11:13:17,登入,admin
331,2018/6/5 上午 10:06:07,進入查詢資料,
332,2018/6/5 上午 10:05:59,進入耗能計算,
333,2018/6/5 上午 10:05:51,進入Gateway通訊,
334,2018/6/5 上午 10:05:46,進入警報代碼管理,
335,2018/6/5 上午 10:05:42,進入歷史警報,
336,2018/6/5 上午 10:05:33,進入系統事件,
337,2018/6/5 上午 10:05:20,進入即時警報,
338,2018/6/5 上午 08:40:51,風扇G04_02_32警報消失:0,
339,2018/6/5 上午 08:39:26,風扇G04_02_32發生警報:9,
340,2018/6/5 上午 04:49:29,風扇G02_06_06警報消失:0,
341,2018/6/5 上午 04:46:52,風扇G02_06_06發生警報:4,
342,2018/6/5 上午 02:41:56,風扇G04_02_32警報消失:0,
343,2018/6/5 上午 02:40:19,風扇G04_02_32發生警報:9,
