﻿2018/3/30 上午 08:41:39:背景流程花費:3687.879ms
2018/3/30 上午 08:41:53:背景流程花費:3656.5486ms
2018/3/30 上午 08:42:07:背景流程花費:3687.8267ms
2018/3/30 上午 08:42:20:背景流程花費:3672.2061ms
2018/3/30 上午 08:42:34:背景流程花費:3719.0566ms
2018/3/30 上午 08:42:48:背景流程花費:3672.2633ms
2018/3/30 上午 08:43:01:背景流程花費:3672.2053ms
2018/3/30 上午 08:43:15:背景流程花費:3672.2044ms
2018/3/30 上午 08:43:29:背景流程花費:3703.5006ms
2018/3/30 上午 08:43:43:背景流程花費:3719.1269ms
2018/3/30 上午 08:43:56:背景流程花費:3703.5029ms
2018/3/30 上午 08:44:10:背景流程花費:3687.8724ms
2018/3/30 上午 08:44:24:背景流程花費:3672.2246ms
2018/3/30 上午 08:44:37:背景流程花費:3719.1254ms
2018/3/30 上午 08:44:51:背景流程花費:3750.3644ms
2018/3/30 上午 08:45:05:背景流程花費:3719.1322ms
2018/3/30 上午 08:45:19:背景流程花費:3719.1086ms
2018/3/30 上午 08:45:32:背景流程花費:3719.1342ms
2018/3/30 上午 08:45:46:背景流程花費:3687.8718ms
2018/3/30 上午 08:46:00:背景流程花費:3734.7644ms
2018/3/30 上午 08:46:14:背景流程花費:3734.7595ms
2018/3/30 上午 08:46:27:背景流程花費:3719.1232ms
2018/3/30 上午 08:46:41:背景流程花費:3703.5026ms
2018/3/30 上午 08:46:55:背景流程花費:3719.1522ms
2018/3/30 上午 08:47:08:背景流程花費:3719.1325ms
2018/3/30 上午 08:47:22:背景流程花費:3672.2451ms
2018/3/30 上午 08:47:36:背景流程花費:3703.5043ms
2018/3/30 上午 08:47:50:背景流程花費:3703.5023ms
2018/3/30 上午 08:48:03:背景流程花費:3703.5018ms
2018/3/30 上午 08:48:17:背景流程花費:3734.7602ms
2018/3/30 上午 08:48:31:背景流程花費:3672.2471ms
2018/3/30 上午 08:48:44:背景流程花費:3750.3843ms
2018/3/30 上午 08:48:58:背景流程花費:3672.2291ms
2018/3/30 上午 08:49:12:背景流程花費:3719.1348ms
2018/3/30 上午 08:49:26:背景流程花費:3734.757ms
2018/3/30 上午 08:49:39:背景流程花費:3719.1271ms
2018/3/30 上午 08:49:53:背景流程花費:3719.1308ms
2018/3/30 上午 08:50:07:背景流程花費:3719.1314ms
2018/3/30 上午 08:50:21:背景流程花費:3719.1252ms
2018/3/30 上午 08:50:34:背景流程花費:3734.7445ms
2018/3/30 上午 08:50:48:背景流程花費:3703.5165ms
2018/3/30 上午 08:51:02:背景流程花費:3719.1316ms
2018/3/30 上午 08:51:16:背景流程花費:3719.1089ms
2018/3/30 上午 08:51:29:背景流程花費:3719.1294ms
2018/3/30 上午 08:51:43:背景流程花費:3719.1063ms
2018/3/30 上午 08:51:57:背景流程花費:3719.1297ms
2018/3/30 上午 08:52:10:背景流程花費:3734.7516ms
2018/3/30 上午 08:52:24:背景流程花費:3719.1143ms
2018/3/30 上午 08:52:38:背景流程花費:3703.5037ms
2018/3/30 上午 08:52:52:背景流程花費:3734.7567ms
2018/3/30 上午 08:53:05:背景流程花費:3734.7578ms
2018/3/30 上午 08:53:19:背景流程花費:3687.8776ms
2018/3/30 上午 08:53:33:背景流程花費:3719.1288ms
2018/3/30 上午 08:53:47:背景流程花費:3703.498ms
2018/3/30 上午 08:54:00:背景流程花費:3719.1371ms
2018/3/30 上午 08:54:14:背景流程花費:3719.1254ms
2018/3/30 上午 08:54:28:背景流程花費:3719.1265ms
2018/3/30 上午 08:54:42:背景流程花費:3734.7502ms
2018/3/30 上午 08:54:55:背景流程花費:3703.4992ms
2018/3/30 上午 08:55:09:背景流程花費:3719.1482ms
2018/3/30 上午 08:55:23:背景流程花費:3719.1072ms
2018/3/30 上午 08:55:36:背景流程花費:3703.475ms
2018/3/30 上午 08:55:50:背景流程花費:3703.477ms
2018/3/30 上午 08:56:04:背景流程花費:3734.7351ms
2018/3/30 上午 08:56:18:背景流程花費:3719.1041ms
2018/3/30 上午 08:56:31:背景流程花費:3719.1021ms
2018/3/30 上午 08:56:45:背景流程花費:3719.1024ms
2018/3/30 上午 08:56:59:背景流程花費:3719.1038ms
2018/3/30 上午 08:57:13:背景流程花費:3719.1024ms
2018/3/30 上午 08:57:26:背景流程花費:3719.0993ms
2018/3/30 上午 08:57:40:背景流程花費:3687.8557ms
2018/3/30 上午 08:57:54:背景流程花費:3734.7351ms
2018/3/30 上午 08:58:08:背景流程花費:3719.1075ms
2018/3/30 上午 08:58:21:背景流程花費:3703.4739ms
2018/3/30 上午 08:58:35:背景流程花費:3719.1123ms
2018/3/30 上午 08:58:49:背景流程花費:3703.4767ms
2018/3/30 上午 08:59:02:背景流程花費:3719.1089ms
2018/3/30 上午 08:59:16:背景流程花費:3687.8505ms
2018/3/30 上午 08:59:30:背景流程花費:3672.224ms
2018/3/30 上午 08:59:44:背景流程花費:3734.7351ms
2018/3/30 上午 08:59:57:背景流程花費:3703.4753ms
2018/3/30 上午 09:00:11:背景流程花費:3703.4825ms
2018/3/30 上午 09:00:25:背景流程花費:3719.1032ms
2018/3/30 上午 09:00:38:背景流程花費:3703.5109ms
2018/3/30 上午 09:00:52:背景流程花費:3687.855ms
2018/3/30 上午 09:01:06:背景流程花費:3719.1032ms
2018/3/30 上午 09:01:20:背景流程花費:3719.1012ms
2018/3/30 上午 09:01:33:背景流程花費:3703.4755ms
2018/3/30 上午 09:01:47:背景流程花費:3703.4819ms
2018/3/30 上午 09:02:01:背景流程花費:3719.1089ms
2018/3/30 上午 09:02:15:背景流程花費:3719.1021ms
2018/3/30 上午 09:02:28:背景流程花費:3687.8502ms
2018/3/30 上午 09:02:42:背景流程花費:3719.1015ms
2018/3/30 上午 09:02:56:背景流程花費:3719.1077ms
2018/3/30 上午 09:03:10:背景流程花費:3750.3556ms
2018/3/30 上午 09:03:23:背景流程花費:3719.1021ms
2018/3/30 上午 09:03:37:背景流程花費:3719.1089ms
2018/3/30 上午 09:03:51:背景流程花費:3719.1044ms
2018/3/30 上午 09:04:04:背景流程花費:3687.8491ms
2018/3/30 上午 09:04:18:背景流程花費:3719.093ms
2018/3/30 上午 09:04:32:背景流程花費:3719.1024ms
2018/3/30 上午 09:04:46:背景流程花費:3703.4759ms
2018/3/30 上午 09:04:59:背景流程花費:3703.5105ms
2018/3/30 上午 09:05:13:背景流程花費:3719.1086ms
2018/3/30 上午 09:05:27:背景流程花費:3687.851ms
2018/3/30 上午 09:05:40:背景流程花費:3672.2377ms
2018/3/30 上午 09:05:54:背景流程花費:3719.1072ms
2018/3/30 上午 09:06:08:背景流程花費:3703.4821ms
2018/3/30 上午 09:06:22:背景流程花費:3765.9816ms
2018/3/30 上午 09:06:35:背景流程花費:3719.1032ms
2018/3/30 上午 09:06:49:背景流程花費:3703.4813ms
2018/3/30 上午 09:07:03:背景流程花費:3719.1083ms
2018/3/30 上午 09:07:17:背景流程花費:3672.2206ms
2018/3/30 上午 09:07:30:背景流程花費:3750.3679ms
2018/3/30 上午 09:07:44:背景流程花費:3703.4864ms
2018/3/30 上午 09:07:58:背景流程花費:3719.1084ms
2018/3/30 上午 09:08:12:背景流程花費:3750.3553ms
2018/3/30 上午 09:08:25:背景流程花費:3719.1041ms
2018/3/30 上午 09:08:39:背景流程花費:3719.1038ms
2018/3/30 上午 09:08:53:背景流程花費:3703.4645ms
2018/3/30 上午 09:09:06:背景流程花費:3719.1015ms
2018/3/30 上午 09:09:20:背景流程花費:3703.4884ms
2018/3/30 上午 09:09:34:背景流程花費:3719.1015ms
2018/3/30 上午 09:09:48:背景流程花費:3719.1001ms
2018/3/30 上午 09:10:01:背景流程花費:3719.1021ms
2018/3/30 上午 09:10:15:背景流程花費:3719.1086ms
2018/3/30 上午 09:10:29:背景流程花費:3703.4887ms
2018/3/30 上午 09:10:43:背景流程花費:3719.1041ms
2018/3/30 上午 09:10:56:背景流程花費:3719.1069ms
2018/3/30 上午 09:11:10:背景流程花費:3734.7282ms
2018/3/30 上午 09:11:24:背景流程花費:3719.099ms
2018/3/30 上午 09:11:38:背景流程花費:3703.4765ms
2018/3/30 上午 09:11:51:背景流程花費:3719.1087ms
2018/3/30 上午 09:12:05:背景流程花費:3719.1018ms
2018/3/30 上午 09:12:19:背景流程花費:3719.1086ms
2018/3/30 上午 09:12:32:背景流程花費:3719.1015ms
2018/3/30 上午 09:12:46:背景流程花費:3734.7334ms
2018/3/30 上午 09:13:00:背景流程花費:3719.1032ms
2018/3/30 上午 09:13:14:背景流程花費:3703.4813ms
2018/3/30 上午 09:13:27:背景流程花費:3719.1072ms
2018/3/30 上午 09:13:41:背景流程花費:3703.4821ms
2018/3/30 上午 09:13:55:背景流程花費:3687.855ms
2018/3/30 上午 09:14:09:背景流程花費:3703.4813ms
2018/3/30 上午 09:14:22:背景流程花費:3687.8505ms
2018/3/30 上午 09:14:36:背景流程花費:3703.4739ms
2018/3/30 上午 09:14:50:背景流程花費:3719.1083ms
2018/3/30 上午 09:15:03:背景流程花費:3719.1018ms
2018/3/30 上午 09:15:17:背景流程花費:3719.1044ms
2018/3/30 上午 09:15:31:背景流程花費:3703.4813ms
2018/3/30 上午 09:15:45:背景流程花費:3719.1064ms
2018/3/30 上午 09:15:58:背景流程花費:3687.8499ms
2018/3/30 上午 09:16:12:背景流程花費:3719.1086ms
2018/3/30 上午 09:16:26:背景流程花費:3719.1041ms
2018/3/30 上午 09:16:40:背景流程花費:3719.108ms
2018/3/30 上午 09:16:53:背景流程花費:3703.4758ms
2018/3/30 上午 09:17:07:背景流程花費:3703.4776ms
2018/3/30 上午 09:17:21:背景流程花費:3703.4819ms
2018/3/30 上午 09:17:34:背景流程花費:3687.8494ms
2018/3/30 上午 09:17:48:背景流程花費:3703.4773ms
2018/3/30 上午 09:18:02:背景流程花費:3719.1086ms
2018/3/30 上午 09:18:16:背景流程花費:3703.4756ms
2018/3/30 上午 09:18:29:背景流程花費:3719.1075ms
2018/3/30 上午 09:18:43:背景流程花費:3719.1021ms
2018/3/30 上午 09:18:57:背景流程花費:3719.1049ms
2018/3/30 上午 09:19:11:背景流程花費:3672.2232ms
2018/3/30 上午 09:19:24:背景流程花費:3703.4755ms
2018/3/30 上午 09:19:38:背景流程花費:3703.4759ms
2018/3/30 上午 09:19:52:背景流程花費:3703.4807ms
2018/3/30 上午 09:20:13:背景流程花費:3719.1041ms
2018/3/30 上午 09:20:26:背景流程花費:7078.8345ms
2018/3/30 上午 09:20:39:背景流程花費:3687.885ms
2018/3/30 上午 09:20:53:背景流程花費:3656.5501ms
2018/3/30 上午 09:21:07:背景流程花費:3656.5497ms
2018/3/30 上午 09:21:20:背景流程花費:3656.5498ms
2018/3/30 上午 09:21:34:背景流程花費:3656.5512ms
2018/3/30 上午 09:21:48:背景流程花費:3672.1774ms
2018/3/30 上午 09:22:01:背景流程花費:3687.8554ms
2018/3/30 上午 09:22:15:背景流程花費:3687.8465ms
2018/3/30 上午 09:22:29:背景流程花費:3703.475ms
2018/3/30 上午 09:22:42:背景流程花費:3687.8502ms
2018/3/30 上午 09:22:56:背景流程花費:3687.8878ms
2018/3/30 上午 09:23:10:背景流程花費:3703.4858ms
2018/3/30 上午 09:23:24:背景流程花費:3719.1086ms
2018/3/30 上午 09:23:37:背景流程花費:3687.8508ms
2018/3/30 上午 09:23:51:背景流程花費:3703.4764ms
2018/3/30 上午 09:24:05:背景流程花費:3703.4813ms
2018/3/30 上午 09:24:18:背景流程花費:3672.2238ms
2018/3/30 上午 09:24:32:背景流程花費:3687.8846ms
2018/3/30 上午 09:24:46:背景流程花費:3687.859ms
2018/3/30 上午 09:25:00:背景流程花費:3703.4758ms
2018/3/30 上午 09:25:13:背景流程花費:3703.4816ms
2018/3/30 上午 09:25:27:背景流程花費:3687.8557ms
2018/3/30 上午 09:25:41:背景流程花費:3719.1086ms
2018/3/30 上午 09:25:55:背景流程花費:3719.1038ms
2018/3/30 上午 09:26:08:背景流程花費:3703.4887ms
2018/3/30 上午 09:26:22:背景流程花費:3687.8388ms
2018/3/30 上午 09:26:36:背景流程花費:3719.1023ms
2018/3/30 上午 09:26:49:背景流程花費:3734.7343ms
2018/3/30 上午 09:27:03:背景流程花費:3719.1092ms
2018/3/30 上午 09:27:17:背景流程花費:3703.4807ms
2018/3/30 上午 09:27:31:背景流程花費:3703.4815ms
2018/3/30 上午 09:27:44:背景流程花費:3687.8616ms
2018/3/30 上午 09:27:58:背景流程花費:3687.838ms
2018/3/30 上午 09:28:12:背景流程花費:3719.1083ms
2018/3/30 上午 09:28:25:背景流程花費:3687.855ms
2018/3/30 上午 09:28:39:背景流程花費:3703.4767ms
2018/3/30 上午 09:28:53:背景流程花費:3703.473ms
2018/3/30 上午 09:29:07:背景流程花費:3687.8511ms
2018/3/30 上午 09:29:20:背景流程花費:3687.8613ms
2018/3/30 上午 09:29:34:背景流程花費:3703.4779ms
2018/3/30 上午 09:29:48:背景流程花費:3719.1058ms
2018/3/30 上午 09:30:01:背景流程花費:3687.8488ms
2018/3/30 上午 09:30:15:背景流程花費:3687.8537ms
2018/3/30 上午 09:30:29:背景流程花費:3687.8838ms
2018/3/30 上午 09:30:43:背景流程花費:3687.8505ms
2018/3/30 上午 09:30:56:背景流程花費:3687.8852ms
2018/3/30 上午 09:31:10:背景流程花費:3719.1024ms
2018/3/30 上午 09:31:24:背景流程花費:3734.7302ms
2018/3/30 上午 09:31:37:背景流程花費:3672.2223ms
2018/3/30 上午 09:31:51:背景流程花費:3703.4821ms
2018/3/30 上午 09:32:05:背景流程花費:3687.8553ms
2018/3/30 上午 09:32:19:背景流程花費:3687.8551ms
2018/3/30 上午 09:32:32:背景流程花費:3687.8497ms
2018/3/30 上午 09:32:46:背景流程花費:3687.8505ms
2018/3/30 上午 09:33:00:背景流程花費:3687.854ms
2018/3/30 上午 09:33:13:背景流程花費:3687.8468ms
2018/3/30 上午 09:33:27:背景流程花費:3687.8548ms
2018/3/30 上午 09:33:41:背景流程花費:3656.5965ms
2018/3/30 上午 09:33:54:背景流程花費:3656.5953ms
2018/3/30 上午 09:34:08:背景流程花費:3687.8832ms
2018/3/30 上午 09:34:22:背景流程花費:3703.4821ms
2018/3/30 上午 09:34:36:背景流程花費:3719.1038ms
2018/3/30 上午 09:34:49:背景流程花費:3687.8491ms
2018/3/30 上午 09:35:03:背景流程花費:3687.8551ms
2018/3/30 上午 09:35:17:背景流程花費:3687.8559ms
2018/3/30 上午 09:35:30:背景流程花費:3656.5972ms
2018/3/30 上午 09:35:44:背景流程花費:3703.4756ms
2018/3/30 上午 09:35:58:背景流程花費:3687.8551ms
2018/3/30 上午 09:36:12:背景流程花費:3703.4762ms
2018/3/30 上午 09:36:25:背景流程花費:3687.8506ms
2018/3/30 上午 09:36:39:背景流程花費:3672.2223ms
2018/3/30 上午 09:36:53:背景流程花費:3703.4761ms
2018/3/30 上午 09:37:06:背景流程花費:3672.2263ms
2018/3/30 上午 09:37:20:背景流程花費:3687.848ms
2018/3/30 上午 09:37:34:背景流程花費:3687.8502ms
2018/3/30 上午 09:37:47:背景流程花費:3687.8502ms
2018/3/30 上午 09:38:01:背景流程花費:3703.4764ms
2018/3/30 上午 09:38:15:背景流程花費:3703.4822ms
2018/3/30 上午 09:38:29:背景流程花費:3703.4773ms
2018/3/30 上午 09:38:42:背景流程花費:3672.2291ms
2018/3/30 上午 09:38:56:背景流程花費:3656.5956ms
2018/3/30 上午 09:39:10:背景流程花費:3703.4736ms
2018/3/30 上午 09:39:23:背景流程花費:3687.8502ms
2018/3/30 上午 09:39:37:背景流程花費:3687.8506ms
2018/3/30 上午 09:39:51:背景流程花費:3703.4821ms
2018/3/30 上午 09:40:05:背景流程花費:3703.477ms
2018/3/30 上午 09:40:18:背景流程花費:3672.2278ms
2018/3/30 上午 09:40:32:背景流程花費:3687.8591ms
2018/3/30 上午 09:40:46:背景流程花費:3703.4736ms
2018/3/30 上午 09:40:59:背景流程花費:3687.867ms
2018/3/30 上午 09:41:13:背景流程花費:3719.1035ms
2018/3/30 上午 09:41:27:背景流程花費:3687.8462ms
2018/3/30 上午 09:41:40:背景流程花費:3687.8553ms
2018/3/30 上午 09:41:54:背景流程花費:3656.6246ms
2018/3/30 上午 09:42:08:背景流程花費:3703.477ms
2018/3/30 上午 09:42:22:背景流程花費:3719.1092ms
2018/3/30 上午 09:42:35:背景流程花費:3703.4568ms
2018/3/30 上午 09:42:49:背景流程花費:3687.8554ms
2018/3/30 上午 09:43:03:背景流程花費:3687.8551ms
2018/3/30 上午 09:43:16:背景流程花費:3703.4773ms
2018/3/30 上午 09:43:30:背景流程花費:3687.8556ms
2018/3/30 上午 09:43:44:背景流程花費:3703.4755ms
2018/3/30 上午 09:43:58:背景流程花費:3687.8548ms
2018/3/30 上午 09:44:11:背景流程花費:3687.8479ms
2018/3/30 上午 09:44:25:背景流程花費:3703.4816ms
2018/3/30 上午 09:44:39:背景流程花費:3656.6007ms
2018/3/30 上午 09:44:52:背景流程花費:3703.4825ms
2018/3/30 上午 09:45:06:背景流程花費:3734.7306ms
2018/3/30 上午 09:45:20:背景流程花費:3703.4756ms
2018/3/30 上午 09:45:34:背景流程花費:3703.475ms
2018/3/30 上午 09:45:47:背景流程花費:3672.2272ms
2018/3/30 上午 09:46:01:背景流程花費:3687.8491ms
2018/3/30 上午 09:46:15:背景流程花費:3687.8554ms
2018/3/30 上午 09:46:28:背景流程花費:3703.4818ms
2018/3/30 上午 09:46:42:背景流程花費:3734.7337ms
2018/3/30 上午 09:46:56:背景流程花費:3687.8801ms
2018/3/30 上午 09:47:10:背景流程花費:3734.7302ms
2018/3/30 上午 09:47:23:背景流程花費:3672.2261ms
2018/3/30 上午 09:47:37:背景流程花費:3672.2235ms
2018/3/30 上午 09:47:51:背景流程花費:3703.4776ms
2018/3/30 上午 09:48:04:背景流程花費:3687.8542ms
2018/3/30 上午 09:48:18:背景流程花費:3703.4773ms
2018/3/30 上午 09:48:32:背景流程花費:3703.4733ms
2018/3/30 上午 09:48:46:背景流程花費:3687.8491ms
2018/3/30 上午 09:48:59:背景流程花費:3719.1086ms
2018/3/30 上午 09:49:13:背景流程花費:3703.4756ms
2018/3/30 上午 09:49:27:背景流程花費:3687.8488ms
2018/3/30 上午 09:49:40:背景流程花費:3703.4762ms
2018/3/30 上午 09:49:54:背景流程花費:3719.1015ms
2018/3/30 上午 09:50:08:背景流程花費:3703.4821ms
2018/3/30 上午 09:50:22:背景流程花費:3687.8551ms
2018/3/30 上午 09:50:35:背景流程花費:3719.1064ms
2018/3/30 上午 11:14:21:背景流程花費:3672.2238ms
2018/3/30 上午 11:14:33:背景流程花費:2468.931ms
2018/3/30 上午 11:14:47:背景流程花費:3672.1771ms
2018/3/30 上午 11:15:01:背景流程花費:3672.1788ms
2018/3/30 上午 11:15:14:背景流程花費:3656.5509ms
2018/3/30 上午 11:15:28:背景流程花費:3672.1777ms
2018/3/30 上午 11:15:42:背景流程花費:3656.55ms
2018/3/30 上午 11:15:56:背景流程花費:3687.8002ms
2018/3/30 上午 11:16:09:背景流程花費:3719.0824ms
2018/3/30 上午 11:16:23:背景流程花費:3687.8488ms
2018/3/30 上午 11:16:37:背景流程花費:3719.1041ms
2018/3/30 下午 03:31:36:背景流程花費:3703.4684ms
2018/3/30 下午 03:31:48:背景流程花費:2265.8056ms
2018/3/30 下午 03:32:02:背景流程花費:3656.581ms
2018/3/30 下午 03:32:15:背景流程花費:3672.1737ms
2018/3/30 下午 03:32:29:背景流程花費:3672.1981ms
2018/3/30 下午 03:32:43:背景流程花費:3656.5748ms
2018/3/30 下午 03:32:56:背景流程花費:3656.5859ms
2018/3/30 下午 03:33:10:背景流程花費:3672.2021ms
2018/3/30 下午 03:33:24:背景流程花費:3734.7493ms
2018/3/30 下午 03:33:38:背景流程花費:3703.5112ms
2018/3/30 下午 03:33:51:背景流程花費:3687.846ms
2018/3/30 下午 03:34:05:背景流程花費:3672.2419ms
2018/3/30 下午 03:34:19:背景流程花費:3703.5089ms
2018/3/30 下午 03:34:32:背景流程花費:3703.5365ms
2018/3/30 下午 03:34:46:背景流程花費:3703.4978ms
2018/3/30 下午 03:35:00:背景流程花費:3719.1277ms
2018/3/30 下午 03:35:14:背景流程花費:3703.4981ms
2018/3/30 下午 03:35:27:背景流程花費:3703.4742ms
2018/3/30 下午 03:35:41:背景流程花費:3672.2519ms
2018/3/30 下午 03:35:55:背景流程花費:3703.5044ms
2018/3/30 下午 03:36:08:背景流程花費:3703.4961ms
2018/3/30 下午 03:36:22:背景流程花費:3703.4998ms
2018/3/30 下午 03:36:36:背景流程花費:3719.1265ms
2018/3/30 下午 03:36:50:背景流程花費:3687.9123ms
2018/3/30 下午 03:37:03:背景流程花費:3687.8528ms
2018/3/30 下午 03:37:17:背景流程花費:3656.624ms
2018/3/30 下午 03:37:31:背景流程花費:3734.7269ms
2018/3/30 下午 03:37:44:背景流程花費:3703.5091ms
2018/3/30 下午 03:37:58:背景流程花費:3703.5044ms
2018/3/30 下午 03:38:12:背景流程花費:3703.4997ms
2018/3/30 下午 03:38:26:背景流程花費:3687.8773ms
2018/3/30 下午 03:38:39:背景流程花費:3703.4804ms
2018/3/30 下午 03:38:53:背景流程花費:3672.261ms
2018/3/30 下午 03:39:07:背景流程花費:3703.4747ms
2018/3/30 下午 03:39:20:背景流程花費:3687.8727ms
2018/3/30 下午 03:39:34:背景流程花費:3703.4321ms
2018/3/30 下午 03:39:48:背景流程花費:3703.5317ms
2018/3/30 下午 03:40:01:背景流程花費:3687.8551ms
2018/3/30 下午 03:40:15:背景流程花費:3703.4813ms
2018/3/30 下午 03:40:29:背景流程花費:3656.6262ms
2018/3/30 下午 03:40:43:背景流程花費:3687.8772ms
2018/3/30 下午 03:40:56:背景流程花費:3734.7644ms
2018/3/30 下午 03:41:10:背景流程花費:3703.5422ms
2018/3/30 下午 03:41:24:背景流程花費:3687.8547ms
2018/3/30 下午 03:41:37:背景流程花費:3703.4995ms
2018/3/30 下午 03:41:51:背景流程花費:3687.8488ms
2018/3/30 下午 03:42:05:背景流程花費:3687.8719ms
2018/3/30 下午 03:42:19:背景流程花費:3703.5046ms
2018/3/30 下午 03:42:32:背景流程花費:3687.8684ms
2018/3/30 下午 03:42:46:背景流程花費:3719.203ms
2018/3/30 下午 03:43:00:背景流程花費:3703.5112ms
2018/3/30 下午 03:43:13:背景流程花費:3703.5048ms
2018/3/30 下午 03:43:27:背景流程花費:3687.8878ms
2018/3/30 下午 03:43:41:背景流程花費:3672.2445ms
2018/3/30 下午 03:43:55:背景流程花費:3703.4952ms
2018/3/30 下午 03:44:08:背景流程花費:3703.5043ms
2018/3/30 下午 03:44:22:背景流程花費:3703.5149ms
2018/3/30 下午 03:44:36:背景流程花費:3703.5074ms
2018/3/30 下午 03:44:49:背景流程花費:3703.4912ms
2018/3/30 下午 03:45:03:背景流程花費:3710.9354ms
2018/3/30 下午 03:45:17:背景流程花費:3673.3561ms
2018/3/30 下午 03:45:31:背景流程花費:3703.5026ms
2018/3/30 下午 03:45:44:背景流程花費:3703.5028ms
2018/3/30 下午 03:45:58:背景流程花費:3703.5052ms
2018/3/30 下午 03:46:12:背景流程花費:3703.5344ms
2018/3/30 下午 03:46:26:背景流程花費:3719.1636ms
2018/3/30 下午 03:46:39:背景流程花費:3703.4969ms
2018/3/30 下午 03:46:53:背景流程花費:3703.5ms
2018/3/30 下午 03:47:07:背景流程花費:3703.4986ms
2018/3/30 下午 03:47:20:背景流程花費:3703.5001ms
2018/3/30 下午 03:47:34:背景流程花費:3719.1205ms
2018/3/30 下午 03:47:48:背景流程花費:3703.5046ms
2018/3/30 下午 03:48:02:背景流程花費:3703.4867ms
2018/3/30 下午 03:48:15:背景流程花費:3719.0984ms
2018/3/30 下午 03:48:29:背景流程花費:3672.2175ms
2018/3/30 下午 03:48:43:背景流程花費:3687.8836ms
2018/3/30 下午 03:48:56:背景流程花費:3703.4713ms
2018/3/30 下午 03:49:10:背景流程花費:3719.1362ms
2018/3/30 下午 03:49:24:背景流程花費:3703.5026ms
2018/3/30 下午 03:49:38:背景流程花費:3719.0981ms
2018/3/30 下午 03:49:51:背景流程花費:3703.475ms
2018/3/30 下午 03:50:05:背景流程花費:3687.8497ms
2018/3/30 下午 03:50:19:背景流程花費:3703.5032ms
2018/3/30 下午 03:50:32:背景流程花費:3703.4969ms
2018/3/30 下午 03:50:46:背景流程花費:3687.8852ms
2018/3/30 下午 03:51:00:背景流程花費:3687.8792ms
2018/3/30 下午 03:51:14:背景流程花費:3703.4986ms
2018/3/30 下午 03:51:27:背景流程花費:3687.8755ms
2018/3/30 下午 03:51:41:背景流程花費:3719.1208ms
2018/3/30 下午 03:51:55:背景流程花費:3734.8432ms
2018/3/30 下午 03:52:08:背景流程花費:3687.8727ms
2018/3/30 下午 03:52:22:背景流程花費:3719.1306ms
2018/3/30 下午 03:52:36:背景流程花費:3703.4964ms
2018/3/30 下午 03:52:50:背景流程花費:3703.5034ms
2018/3/30 下午 03:53:03:背景流程花費:3703.4645ms
2018/3/30 下午 03:53:17:背景流程花費:3672.2454ms
2018/3/30 下午 03:53:31:背景流程花費:3703.4989ms
2018/3/30 下午 03:53:44:背景流程花費:3687.9623ms
2018/3/30 下午 03:53:58:背景流程花費:3703.4958ms
2018/3/30 下午 03:54:12:背景流程花費:3687.8733ms
2018/3/30 下午 03:54:26:背景流程花費:3703.5054ms
2018/3/30 下午 03:54:39:背景流程花費:3672.2413ms
2018/3/30 下午 03:54:53:背景流程花費:3719.132ms
2018/3/30 下午 03:55:07:背景流程花費:3703.5017ms
2018/3/30 下午 03:55:20:背景流程花費:3687.8978ms
2018/3/30 下午 03:55:34:背景流程花費:3703.4947ms
2018/3/30 下午 03:55:48:背景流程花費:3687.8727ms
2018/3/30 下午 03:56:02:背景流程花費:3703.4986ms
2018/3/30 下午 03:56:15:背景流程花費:3703.4899ms
2018/3/30 下午 03:56:29:關閉程式中..................
2018/3/30 下午 03:56:29:關閉gateway
2018/3/30 下午 03:56:29:風扇異動:2641台
2018/3/30 下午 03:56:29:0台
2018/3/30 下午 03:56:29:背景流程花費:3687.867ms
2018/3/30 下午 03:56:29:500台
2018/3/30 下午 03:56:30:1000台
2018/3/30 下午 03:56:30:1500台
2018/3/30 下午 03:56:31:2000台
2018/3/30 下午 03:56:31:2500台
2018/3/30 下午 03:56:31:完成關閉風扇:2641台
2018/3/30 下午 03:56:31:關閉程式完成..................
2018/3/30 下午 03:56:38:程式啟動
2018/3/30 下午 03:56:51:背景流程花費:3797.2996ms
2018/3/30 下午 03:57:05:背景流程花費:3734.7508ms
2018/3/30 下午 03:57:19:背景流程花費:3750.3746ms
2018/3/30 下午 03:57:32:背景流程花費:3687.8761ms
2018/3/30 下午 03:57:46:背景流程花費:3734.7266ms
2018/3/30 下午 03:58:00:背景流程花費:3719.1214ms
2018/3/30 下午 03:58:14:背景流程花費:3687.8724ms
2018/3/30 下午 03:58:27:背景流程花費:3734.755ms
2018/3/30 下午 03:58:41:背景流程花費:3734.7485ms
2018/3/30 下午 03:58:55:背景流程花費:3719.1259ms
2018/3/30 下午 03:59:09:背景流程花費:3734.7485ms
2018/3/30 下午 03:59:22:背景流程花費:3703.4949ms
2018/3/30 下午 03:59:36:背景流程花費:3734.7246ms
2018/3/30 下午 03:59:50:背景流程花費:3719.1226ms
2018/3/30 下午 04:00:02:進入風機控制
2018/3/30 下午 04:00:04:背景流程花費:3719.1384ms
2018/3/30 下午 04:00:17:背景流程花費:3734.7522ms
2018/3/30 下午 04:00:31:背景流程花費:3719.124ms
2018/3/30 下午 04:00:45:背景流程花費:3719.1234ms
2018/3/30 下午 04:00:59:背景流程花費:3750.3909ms
2018/3/30 下午 04:01:12:背景流程花費:3750.3735ms
2018/3/30 下午 04:01:26:背景流程花費:3734.7814ms
2018/3/30 下午 04:01:40:背景流程花費:3734.7542ms
2018/3/30 下午 04:01:54:背景流程花費:3719.1197ms
2018/3/30 下午 04:02:07:背景流程花費:3765.9804ms
2018/3/30 下午 04:02:21:背景流程花費:3734.7581ms
2018/3/30 下午 04:02:35:背景流程花費:3750.4116ms
2018/3/30 下午 04:02:49:背景流程花費:3734.7499ms
2018/3/30 下午 04:03:02:背景流程花費:3734.7283ms
2018/3/30 下午 04:03:16:背景流程花費:3719.151ms
2018/3/30 下午 04:03:30:背景流程花費:3750.3522ms
2018/3/30 下午 04:03:44:背景流程花費:3703.51ms
2018/3/30 下午 04:03:57:背景流程花費:3734.7482ms
2018/3/30 下午 04:04:11:背景流程花費:3734.7516ms
2018/3/30 下午 04:04:25:背景流程花費:3734.7485ms
2018/3/30 下午 04:04:39:背景流程花費:3719.1297ms
2018/3/30 下午 04:04:52:背景流程花費:3734.7476ms
2018/3/30 下午 04:05:06:背景流程花費:3734.7533ms
2018/3/30 下午 04:05:20:背景流程花費:3687.8713ms
2018/3/30 下午 04:05:33:背景流程花費:3719.2292ms
2018/3/30 下午 04:05:47:背景流程花費:3734.7513ms
2018/3/30 下午 04:06:01:背景流程花費:3687.8708ms
2018/3/30 下午 04:06:15:背景流程花費:3734.7513ms
2018/3/30 下午 04:06:28:背景流程花費:3719.1234ms
2018/3/30 下午 04:06:42:背景流程花費:3734.7485ms
2018/3/30 下午 04:06:56:背景流程花費:3703.4986ms
2018/3/30 下午 04:07:10:背景流程花費:3734.7547ms
2018/3/30 下午 04:07:23:背景流程花費:3812.8864ms
2018/3/30 下午 04:07:37:背景流程花費:3734.7511ms
2018/3/30 下午 04:07:51:背景流程花費:3719.1246ms
2018/3/30 下午 04:08:05:背景流程花費:3734.6847ms
2018/3/30 下午 04:08:18:背景流程花費:3734.7459ms
2018/3/30 下午 04:08:32:背景流程花費:3734.7854ms
2018/3/30 下午 04:08:46:背景流程花費:3734.7058ms
2018/3/30 下午 04:09:00:背景流程花費:3734.7522ms
2018/3/30 下午 04:09:13:背景流程花費:3734.7741ms
2018/3/30 下午 04:09:27:背景流程花費:3719.1237ms
2018/3/30 下午 04:09:41:背景流程花費:3719.151ms
2018/3/30 下午 04:09:55:背景流程花費:3734.7482ms
2018/3/30 下午 04:10:08:背景流程花費:3734.7524ms
2018/3/30 下午 04:10:22:背景流程花費:3719.0989ms
2018/3/30 下午 04:10:36:背景流程花費:3734.753ms
2018/3/30 下午 04:10:50:背景流程花費:3719.1009ms
2018/3/30 下午 04:11:03:背景流程花費:3719.1246ms
2018/3/30 下午 04:11:17:背景流程花費:3734.7593ms
2018/3/30 下午 04:11:31:背景流程花費:3703.4987ms
2018/3/30 下午 04:11:45:背景流程花費:3750.3522ms
2018/3/30 下午 04:11:58:背景流程花費:3719.1251ms
2018/3/30 下午 04:12:12:背景流程花費:3750.3499ms
2018/3/30 下午 04:12:26:背景流程花費:3687.8767ms
2018/3/30 下午 04:12:40:背景流程花費:3734.7282ms
2018/3/30 下午 04:12:53:背景流程花費:3719.1245ms
2018/3/30 下午 04:13:07:背景流程花費:3734.7462ms
2018/3/30 下午 04:13:21:背景流程花費:3719.1186ms
2018/3/30 下午 04:13:35:背景流程花費:3719.1257ms
2018/3/30 下午 04:13:48:背景流程花費:3734.7533ms
2018/3/30 下午 04:14:02:背景流程花費:3719.1263ms
2018/3/30 下午 04:14:16:背景流程花費:3734.7539ms
2018/3/30 下午 04:14:30:背景流程花費:3719.1214ms
2018/3/30 下午 04:14:43:背景流程花費:3734.7485ms
2018/3/30 下午 04:14:57:背景流程花費:3734.7564ms
2018/3/30 下午 04:15:11:背景流程花費:3719.0981ms
2018/3/30 下午 04:15:24:背景流程花費:3719.1254ms
2018/3/30 下午 04:15:38:背景流程花費:3750.3792ms
2018/3/30 下午 04:15:52:背景流程花費:3687.8044ms
2018/3/30 下午 04:16:06:背景流程花費:3734.7592ms
2018/3/30 下午 04:16:19:背景流程花費:3719.1198ms
2018/3/30 下午 04:16:33:背景流程花費:3719.1306ms
2018/3/30 下午 04:16:47:背景流程花費:3734.7507ms
2018/3/30 下午 04:17:01:背景流程花費:3719.1271ms
2018/3/30 下午 04:17:14:背景流程花費:3766.0046ms
2018/3/30 下午 04:17:28:背景流程花費:3750.3778ms
2018/3/30 下午 04:17:42:背景流程花費:3734.7277ms
2018/3/30 下午 04:17:56:背景流程花費:3734.7286ms
2018/3/30 下午 04:18:09:背景流程花費:3687.8397ms
2018/3/30 下午 04:18:23:背景流程花費:3719.1237ms
2018/3/30 下午 04:18:37:背景流程花費:3734.7792ms
2018/3/30 下午 04:18:51:背景流程花費:3719.1268ms
2018/3/30 下午 04:19:04:背景流程花費:3719.1291ms
2018/3/30 下午 04:19:18:背景流程花費:3719.0799ms
2018/3/30 下午 04:19:32:背景流程花費:3687.8707ms
2018/3/30 下午 04:19:46:背景流程花費:3734.7488ms
2018/3/30 下午 04:19:59:背景流程花費:3719.1279ms
2018/3/30 下午 04:20:13:背景流程花費:3734.7576ms
2018/3/30 下午 04:20:27:背景流程花費:3719.1317ms
2018/3/30 下午 04:20:41:背景流程花費:3734.7519ms
2018/3/30 下午 04:20:54:背景流程花費:3719.1257ms
2018/3/30 下午 04:21:08:背景流程花費:3703.5015ms
2018/3/30 下午 04:21:22:背景流程花費:3734.7482ms
2018/3/30 下午 04:21:35:背景流程花費:3750.3796ms
2018/3/30 下午 04:21:49:背景流程花費:3719.1288ms
2018/3/30 下午 04:22:03:背景流程花費:3734.7451ms
2018/3/30 下午 04:22:17:背景流程花費:3719.1246ms
2018/3/30 下午 04:22:30:背景流程花費:3719.1012ms
2018/3/30 下午 04:22:44:背景流程花費:3734.7505ms
2018/3/30 下午 04:22:58:背景流程花費:3719.1729ms
2018/3/30 下午 04:23:12:背景流程花費:3750.3846ms
2018/3/30 下午 04:23:25:背景流程花費:3719.1009ms
2018/3/30 下午 04:23:39:背景流程花費:3734.7274ms
2018/3/30 下午 04:23:53:背景流程花費:3719.1502ms
2018/3/30 下午 04:24:07:背景流程花費:3719.1038ms
2018/3/30 下午 04:24:20:背景流程花費:3719.1208ms
2018/3/30 下午 04:24:34:背景流程花費:3750.3892ms
2018/3/30 下午 04:24:48:背景流程花費:3719.1254ms
2018/3/30 下午 04:25:02:背景流程花費:3719.1249ms
2018/3/30 下午 04:25:15:背景流程花費:3719.1222ms
2018/3/30 下午 04:25:29:背景流程花費:3734.7482ms
2018/3/30 下午 04:25:43:背景流程花費:3719.1251ms
2018/3/30 下午 04:25:57:背景流程花費:3719.1252ms
2018/3/30 下午 04:26:10:背景流程花費:3734.7564ms
2018/3/30 下午 04:26:24:背景流程花費:3734.7571ms
2018/3/30 下午 04:26:38:背景流程花費:3687.8733ms
2018/3/30 下午 04:26:51:背景流程花費:3687.8738ms
2018/3/30 下午 04:27:05:背景流程花費:3719.126ms
2018/3/30 下午 04:27:19:背景流程花費:3719.1615ms
2018/3/30 下午 04:27:33:背景流程花費:3703.4952ms
2018/3/30 下午 04:27:46:背景流程花費:3734.7507ms
2018/3/30 下午 04:28:00:背景流程花費:3703.51ms
2018/3/30 下午 04:28:14:背景流程花費:3687.8718ms
2018/3/30 下午 04:28:28:背景流程花費:3734.751ms
2018/3/30 下午 04:28:41:背景流程花費:3719.1311ms
2018/3/30 下午 04:28:55:背景流程花費:3719.1197ms
2018/3/30 下午 04:29:09:背景流程花費:3719.1522ms
2018/3/30 下午 04:29:23:背景流程花費:3719.1336ms
2018/3/30 下午 04:29:36:背景流程花費:3719.1268ms
2018/3/30 下午 04:29:50:背景流程花費:3703.498ms
2018/3/30 下午 04:30:04:背景流程花費:3750.3821ms
2018/3/30 下午 04:30:18:背景流程花費:3734.728ms
2018/3/30 下午 04:30:31:背景流程花費:3719.1265ms
2018/3/30 下午 04:30:45:背景流程花費:3734.7434ms
2018/3/30 下午 04:30:59:背景流程花費:3719.1319ms
2018/3/30 下午 04:31:12:背景流程花費:3719.1271ms
2018/3/30 下午 04:31:26:背景流程花費:3719.1245ms
2018/3/30 下午 04:31:40:背景流程花費:3750.4265ms
2018/3/30 下午 04:31:54:背景流程花費:3719.1362ms
2018/3/30 下午 04:32:07:背景流程花費:3719.1006ms
2018/3/30 下午 04:32:21:背景流程花費:3719.1331ms
2018/3/30 下午 04:32:35:背景流程花費:3734.7521ms
2018/3/30 下午 04:32:49:背景流程花費:3719.1303ms
2018/3/30 下午 04:33:02:背景流程花費:3719.1262ms
2018/3/30 下午 04:33:16:背景流程花費:3734.7613ms
2018/3/30 下午 04:33:30:背景流程花費:3719.161ms
2018/3/30 下午 04:33:44:背景流程花費:3719.1276ms
2018/3/30 下午 04:33:57:背景流程花費:3719.1322ms
2018/3/30 下午 04:34:11:背景流程花費:3734.759ms
2018/3/30 下午 04:34:25:背景流程花費:3734.7528ms
2018/3/30 下午 04:34:39:背景流程花費:3734.7564ms
2018/3/30 下午 04:34:52:背景流程花費:3750.3613ms
2018/3/30 下午 04:35:06:背景流程花費:3719.1325ms
2018/3/30 下午 04:35:20:背景流程花費:3687.8778ms
2018/3/30 下午 04:35:34:背景流程花費:3719.1311ms
2018/3/30 下午 04:35:47:背景流程花費:3734.7257ms
2018/3/30 下午 04:36:01:背景流程花費:3719.124ms
2018/3/30 下午 04:36:15:背景流程花費:3719.1269ms
2018/3/30 下午 04:36:28:背景流程花費:3719.1379ms
2018/3/30 下午 04:36:42:背景流程花費:3719.1376ms
2018/3/30 下午 04:36:56:背景流程花費:3687.8707ms
2018/3/30 下午 04:37:10:背景流程花費:3734.7533ms
2018/3/30 下午 04:37:23:背景流程花費:3734.7524ms
2018/3/30 下午 04:37:37:背景流程花費:3719.1393ms
2018/3/30 下午 04:37:51:背景流程花費:3672.2729ms
2018/3/30 下午 04:38:05:背景流程花費:3734.7283ms
2018/3/30 下午 04:38:18:背景流程花費:3734.7528ms
2018/3/30 下午 04:38:32:背景流程花費:3734.759ms
2018/3/30 下午 04:38:46:背景流程花費:3703.5021ms
2018/3/30 下午 04:39:00:背景流程花費:3734.7874ms
2018/3/30 下午 04:39:13:背景流程花費:3719.1108ms
2018/3/30 下午 04:39:27:背景流程花費:3719.1234ms
2018/3/30 下午 04:39:41:背景流程花費:3734.7528ms
2018/3/30 下午 04:39:55:背景流程花費:3719.1297ms
2018/3/30 下午 04:40:08:背景流程花費:3719.1257ms
2018/3/30 下午 04:40:22:背景流程花費:3719.1359ms
2018/3/30 下午 04:40:36:背景流程花費:3719.1333ms
2018/3/30 下午 04:40:49:背景流程花費:3734.7443ms
2018/3/30 下午 05:28:33:背景流程花費:3719.176ms
2018/3/30 下午 05:28:48:背景流程花費:3953.463ms
2018/3/30 下午 05:29:02:背景流程花費:3687.8312ms
2018/3/30 下午 05:29:16:背景流程花費:3687.8261ms
2018/3/30 下午 05:29:29:背景流程花費:3687.8267ms
2018/3/30 下午 05:29:37:關閉程式中..................
2018/3/30 下午 05:29:37:關閉gateway
2018/3/30 下午 05:29:37:風扇異動:2641台
2018/3/30 下午 05:29:37:0台
2018/3/30 下午 05:29:37:500台
2018/3/30 下午 05:29:38:1000台
2018/3/30 下午 05:29:38:1500台
2018/3/30 下午 05:29:38:2000台
2018/3/30 下午 05:29:38:2500台
2018/3/30 下午 05:29:38:完成關閉風扇:2641台
2018/3/30 下午 05:29:38:關閉程式完成..................
2018/3/30 下午 05:29:42:程式啟動
2018/3/30 下午 05:29:56:背景流程花費:3719.1367ms
2018/3/30 下午 05:30:10:背景流程花費:3703.4301ms
2018/3/30 下午 05:30:24:背景流程花費:3734.7348ms
2018/3/30 下午 05:30:37:背景流程花費:3734.7288ms
2018/3/30 下午 05:30:51:背景流程花費:3750.3608ms
2018/3/30 下午 05:31:05:背景流程花費:3750.357ms
2018/3/30 下午 05:31:13:進入風機控制
2018/3/30 下午 05:31:19:背景流程花費:3687.8491ms
2018/3/30 下午 05:31:32:背景流程花費:3719.103ms
2018/3/30 下午 05:31:46:背景流程花費:3734.7354ms
2018/3/30 下午 05:32:00:背景流程花費:3734.73ms
2018/3/30 下午 05:32:13:背景流程花費:3719.1072ms
2018/3/30 下午 05:32:27:背景流程花費:3719.1009ms
2018/3/30 下午 05:32:41:背景流程花費:3719.1033ms
2018/3/30 下午 05:32:55:背景流程花費:3734.7297ms
2018/3/30 下午 05:33:08:背景流程花費:3703.489ms
2018/3/30 下午 05:33:22:背景流程花費:3719.1072ms
2018/3/30 下午 05:33:36:背景流程花費:3719.1035ms
2018/3/30 下午 05:33:50:背景流程花費:3719.1089ms
2018/3/30 下午 05:34:03:背景流程花費:3703.4773ms
2018/3/30 下午 05:34:17:背景流程花費:3719.1038ms
2018/3/30 下午 05:34:31:背景流程花費:3719.0887ms
2018/3/30 下午 05:34:45:背景流程花費:3703.4799ms
2018/3/30 下午 05:34:58:背景流程花費:3750.357ms
2018/3/30 下午 05:35:12:背景流程花費:3703.4781ms
2018/3/30 下午 05:35:26:背景流程花費:3719.1078ms
2018/3/30 下午 05:35:39:背景流程花費:3719.1038ms
2018/3/30 下午 05:35:53:背景流程花費:3719.1038ms
2018/3/30 下午 05:36:07:背景流程花費:3719.1342ms
2018/3/30 下午 05:36:21:背景流程花費:3719.1084ms
2018/3/30 下午 05:36:34:背景流程花費:3734.7339ms
2018/3/30 下午 05:36:48:背景流程花費:3719.1035ms
2018/3/30 下午 05:37:02:背景流程花費:3719.1038ms
2018/3/30 下午 05:37:16:背景流程花費:3719.103ms
2018/3/30 下午 05:37:29:背景流程花費:3734.656ms
2018/3/30 下午 05:37:43:背景流程花費:3734.7306ms
2018/3/30 下午 05:37:57:背景流程花費:3719.1038ms
2018/3/30 下午 05:38:11:背景流程花費:3734.7349ms
2018/3/30 下午 05:38:24:背景流程花費:3719.103ms
2018/3/30 下午 05:38:38:背景流程花費:3719.1036ms
2018/3/30 下午 05:38:52:背景流程花費:3719.1089ms
2018/3/30 下午 05:39:06:背景流程花費:3734.7348ms
2018/3/30 下午 05:39:19:背景流程花費:3734.7291ms
2018/3/30 下午 05:39:33:背景流程花費:3812.8695ms
2018/3/30 下午 05:39:47:背景流程花費:3719.1197ms
2018/3/30 下午 05:40:01:背景流程花費:3719.1024ms
2018/3/30 下午 05:40:14:背景流程花費:3734.7184ms
2018/3/30 下午 05:40:28:背景流程花費:3734.7354ms
2018/3/30 下午 05:40:42:背景流程花費:3719.112ms
2018/3/30 下午 05:40:56:背景流程花費:3734.7354ms
2018/3/30 下午 05:41:09:背景流程花費:3734.7303ms
2018/3/30 下午 05:41:23:背景流程花費:3719.1032ms
2018/3/30 下午 05:41:37:背景流程花費:3719.1038ms
2018/3/30 下午 05:41:51:背景流程花費:3719.0389ms
2018/3/30 下午 05:42:04:背景流程花費:3734.7302ms
2018/3/30 下午 05:42:18:背景流程花費:3719.1026ms
2018/3/30 下午 05:42:32:背景流程花費:3719.1117ms
2018/3/30 下午 05:42:46:背景流程花費:3734.7277ms
2018/3/30 下午 05:42:59:背景流程花費:3719.1081ms
2018/3/30 下午 05:43:13:背景流程花費:3734.7351ms
2018/3/30 下午 05:43:27:背景流程花費:3719.1137ms
2018/3/30 下午 05:43:41:背景流程花費:3750.3573ms
2018/3/30 下午 05:43:54:背景流程花費:3719.1035ms
2018/3/30 下午 05:44:08:背景流程花費:3734.7297ms
2018/3/30 下午 05:44:22:背景流程花費:3719.1081ms
2018/3/30 下午 05:44:36:背景流程花費:3734.7302ms
2018/3/30 下午 05:44:49:背景流程花費:3719.1035ms
2018/3/30 下午 05:45:03:背景流程花費:3719.1037ms
2018/3/30 下午 05:45:17:背景流程花費:3719.1041ms
2018/3/30 下午 05:45:30:背景流程花費:3687.8543ms
2018/3/30 下午 05:45:44:背景流程花費:3734.7177ms
2018/3/30 下午 05:45:58:背景流程花費:3719.1086ms
2018/3/30 下午 05:46:12:背景流程花費:3734.7348ms
2018/3/30 下午 05:46:25:背景流程花費:3719.1089ms
2018/3/30 下午 05:46:39:背景流程花費:3734.7303ms
2018/3/30 下午 05:46:53:背景流程花費:3719.1043ms
2018/3/30 下午 05:47:07:背景流程花費:3687.8559ms
2018/3/30 下午 05:47:20:背景流程花費:3734.7354ms
2018/3/30 下午 05:47:34:背景流程花費:3719.1038ms
2018/3/30 下午 05:47:48:背景流程花費:3734.728ms
2018/3/30 下午 05:48:02:背景流程花費:3719.1037ms
2018/3/30 下午 05:48:15:背景流程花費:3719.104ms
2018/3/30 下午 05:48:29:背景流程花費:3719.1103ms
2018/3/30 下午 05:48:43:背景流程花費:3687.855ms
2018/3/30 下午 05:48:56:背景流程花費:3719.1024ms
2018/3/30 下午 05:49:10:背景流程花費:3719.1041ms
2018/3/30 下午 05:49:24:背景流程花費:3750.3556ms
2018/3/30 下午 05:49:38:背景流程花費:3734.7351ms
2018/3/30 下午 05:49:51:背景流程花費:3703.477ms
2018/3/30 下午 05:50:05:背景流程花費:3734.7246ms
2018/3/30 下午 05:50:19:背景流程花費:3719.1004ms
2018/3/30 下午 05:50:33:背景流程花費:3719.093ms
2018/3/30 下午 05:50:46:背景流程花費:3719.1035ms
2018/3/30 下午 05:51:00:背景流程花費:3734.7297ms
2018/3/30 下午 05:51:14:背景流程花費:3719.1086ms
2018/3/30 下午 05:51:28:背景流程花費:3719.1081ms
2018/3/30 下午 05:51:41:背景流程花費:3719.1083ms
2018/3/30 下午 05:51:55:背景流程花費:3734.7308ms
2018/3/30 下午 05:52:09:背景流程花費:3719.1041ms
2018/3/30 下午 05:52:23:背景流程花費:3734.7303ms
2018/3/30 下午 05:52:36:背景流程花費:3703.477ms
2018/3/30 下午 05:52:50:背景流程花費:3734.7346ms
2018/3/30 下午 05:53:04:背景流程花費:3719.1087ms
2018/3/30 下午 05:53:18:背景流程花費:3719.1021ms
2018/3/30 下午 05:53:31:背景流程花費:3719.1081ms
2018/3/30 下午 05:53:45:背景流程花費:3734.7348ms
2018/3/30 下午 05:53:59:背景流程花費:3719.1089ms
2018/3/30 下午 05:54:12:背景流程花費:3719.0952ms
2018/3/30 下午 05:54:26:背景流程花費:3719.0805ms
2018/3/30 下午 05:54:40:背景流程花費:3719.1032ms
2018/3/30 下午 05:54:54:背景流程花費:3734.7306ms
2018/3/30 下午 05:55:07:背景流程花費:3719.1049ms
2018/3/30 下午 05:55:21:背景流程花費:3719.1038ms
2018/3/30 下午 05:55:35:背景流程花費:3719.1035ms
2018/3/30 下午 05:55:49:背景流程花費:3719.0981ms
2018/3/30 下午 05:56:02:背景流程花費:3734.7342ms
2018/3/30 下午 05:56:16:背景流程花費:3734.7306ms
2018/3/30 下午 05:56:30:背景流程花費:3719.1078ms
2018/3/30 下午 05:56:44:背景流程花費:3719.1081ms
2018/3/30 下午 05:56:57:背景流程花費:3719.0697ms
2018/3/30 下午 05:57:11:背景流程花費:3734.7303ms
2018/3/30 下午 05:57:25:背景流程花費:3687.8551ms
2018/3/30 下午 05:57:39:背景流程花費:3719.1041ms
2018/3/30 下午 05:57:52:背景流程花費:3719.1032ms
2018/3/30 下午 05:58:06:背景流程花費:3734.73ms
2018/3/30 下午 05:58:20:背景流程花費:3719.1038ms
2018/3/30 下午 05:58:33:背景流程花費:3719.1032ms
2018/3/30 下午 05:58:47:背景流程花費:3734.7579ms
2018/3/30 下午 05:59:01:背景流程花費:3719.1038ms
2018/3/30 下午 05:59:15:背景流程花費:3719.1328ms
2018/3/30 下午 05:59:28:背景流程花費:3687.8497ms
2018/3/30 下午 05:59:42:背景流程花費:3719.1081ms
2018/3/30 下午 05:59:56:背景流程花費:3719.1035ms
2018/3/30 下午 06:00:10:背景流程花費:3719.1033ms
2018/3/30 下午 06:00:23:背景流程花費:3719.1084ms
2018/3/30 下午 06:00:37:背景流程花費:3719.1018ms
2018/3/30 下午 06:00:51:背景流程花費:3734.7414ms
2018/3/30 下午 06:01:05:背景流程花費:3719.1035ms
2018/3/30 下午 06:01:18:背景流程花費:3719.1038ms
2018/3/30 下午 06:01:32:背景流程花費:3719.1086ms
2018/3/30 下午 06:01:46:背景流程花費:3734.7346ms
2018/3/30 下午 06:02:00:背景流程花費:3719.1081ms
2018/3/30 下午 06:02:13:背景流程花費:3734.7308ms
2018/3/30 下午 06:02:27:背景流程花費:3719.1032ms
2018/3/30 下午 06:02:41:背景流程花費:3719.104ms
2018/3/30 下午 06:02:54:背景流程花費:3719.1038ms
2018/3/30 下午 06:03:08:背景流程花費:3719.1032ms
2018/3/30 下午 06:03:22:背景流程花費:3719.1078ms
2018/3/30 下午 06:03:36:背景流程花費:3734.7388ms
2018/3/30 下午 06:03:49:背景流程花費:3719.1038ms
2018/3/30 下午 06:04:03:背景流程花費:3719.1038ms
2018/3/30 下午 06:04:17:背景流程花費:3734.7297ms
2018/3/30 下午 06:04:31:背景流程花費:3719.1032ms
2018/3/30 下午 06:04:44:背景流程花費:3719.108ms
2018/3/30 下午 06:04:58:背景流程花費:3687.8844ms
2018/3/30 下午 06:05:12:背景流程花費:3719.1081ms
2018/3/30 下午 06:05:26:背景流程花費:3734.7274ms
2018/3/30 下午 06:05:39:背景流程花費:3719.1084ms
2018/3/30 下午 06:05:53:背景流程花費:3734.7306ms
2018/3/30 下午 06:06:07:背景流程花費:3672.2288ms
2018/3/30 下午 06:06:21:背景流程花費:3734.741ms
2018/3/30 下午 06:06:34:背景流程花費:3719.1086ms
2018/3/30 下午 06:06:48:背景流程花費:3734.7348ms
2018/3/30 下午 06:07:02:背景流程花費:3719.1041ms
2018/3/30 下午 06:07:15:背景流程花費:3719.1035ms
2018/3/30 下午 06:07:29:背景流程花費:3719.1035ms
2018/3/30 下午 06:07:43:背景流程花費:3719.1081ms
2018/3/30 下午 06:07:57:背景流程花費:3734.7351ms
2018/3/30 下午 06:08:10:背景流程花費:3719.1037ms
2018/3/30 下午 06:08:24:背景流程花費:3719.1038ms
2018/3/30 下午 06:08:38:背景流程花費:3734.7351ms
2018/3/30 下午 06:08:52:背景流程花費:3719.1035ms
2018/3/30 下午 06:09:05:背景流程花費:3719.1027ms
2018/3/30 下午 06:09:19:背景流程花費:3734.7351ms
2018/3/30 下午 06:09:33:背景流程花費:3719.1385ms
2018/3/30 下午 06:09:47:背景流程花費:3719.1078ms
2018/3/30 下午 06:10:00:背景流程花費:3703.477ms
2018/3/30 下午 06:10:14:背景流程花費:3734.7297ms
2018/3/30 下午 06:10:28:背景流程花費:3687.8545ms
2018/3/30 下午 06:10:42:背景流程花費:3703.4807ms
2018/3/30 下午 06:10:55:背景流程花費:3734.73ms
2018/3/30 下午 06:11:09:背景流程花費:3719.0343ms
2018/3/30 下午 06:11:23:背景流程花費:3703.481ms
2018/3/30 下午 06:11:36:背景流程花費:3703.477ms
2018/3/30 下午 06:11:50:背景流程花費:3734.7285ms
2018/3/30 下午 06:12:04:背景流程花費:3703.4813ms
2018/3/30 下午 06:12:18:背景流程花費:3734.7388ms
2018/3/30 下午 06:12:31:背景流程花費:3719.1035ms
2018/3/30 下午 06:12:45:背景流程花費:3734.7308ms
2018/3/30 下午 06:12:59:背景流程花費:3719.1029ms
2018/3/30 下午 06:13:13:背景流程花費:3719.1035ms
2018/3/30 下午 06:13:26:背景流程花費:3719.0813ms
2018/3/30 下午 06:13:40:背景流程花費:3703.4771ms
2018/3/30 下午 06:13:54:背景流程花費:3765.9838ms
2018/3/30 下午 06:14:08:背景流程花費:3719.1084ms
2018/3/30 下午 06:14:21:背景流程花費:3719.1035ms
2018/3/30 下午 06:14:35:背景流程花費:3719.1078ms
2018/3/30 下午 06:14:49:背景流程花費:3734.7232ms
2018/3/30 下午 06:15:03:背景流程花費:3719.103ms
2018/3/30 下午 06:15:16:背景流程花費:3719.1086ms
2018/3/30 下午 06:15:30:背景流程花費:3719.108ms
2018/3/30 下午 06:15:44:背景流程花費:3734.7303ms
2018/3/30 下午 06:15:57:背景流程花費:3719.1018ms
2018/3/30 下午 06:16:11:背景流程花費:3719.104ms
2018/3/30 下午 06:16:25:背景流程花費:3687.8551ms
