﻿2018/3/10 上午 12:00:12:背景流程花費:12001.2547ms
2018/3/10 上午 12:00:28:背景流程花費:11923.1423ms
2018/3/10 上午 12:00:45:背景流程花費:12001.28ms
2018/3/10 上午 12:01:02:背景流程花費:12001.2763ms
2018/3/10 上午 12:01:20:背景流程花費:12001.2765ms
2018/3/10 上午 12:01:37:背景流程花費:12001.2913ms
2018/3/10 上午 12:01:53:背景流程花費:11907.5178ms
2018/3/10 上午 12:02:10:背景流程花費:12001.2777ms
2018/3/10 上午 12:02:27:背景流程花費:12001.2791ms
2018/3/10 上午 12:02:44:背景流程花費:12001.3056ms
2018/3/10 上午 12:03:02:背景流程花費:12001.2561ms
2018/3/10 上午 12:03:18:背景流程花費:11923.1446ms
2018/3/10 上午 12:03:35:背景流程花費:12001.2778ms
2018/3/10 上午 12:03:52:背景流程花費:12001.2965ms
2018/3/10 上午 12:04:10:背景流程花費:12001.2774ms
2018/3/10 上午 12:04:27:背景流程花費:12001.2319ms
2018/3/10 上午 12:04:43:背景流程花費:11907.5163ms
2018/3/10 上午 12:05:00:背景流程花費:12001.2956ms
2018/3/10 上午 12:05:17:背景流程花費:12001.2786ms
2018/3/10 上午 12:05:35:背景流程花費:12001.2805ms
2018/3/10 上午 12:05:52:背景流程花費:12001.2492ms
2018/3/10 上午 12:06:08:背景流程花費:11907.5155ms
2018/3/10 上午 12:06:25:背景流程花費:12001.2761ms
2018/3/10 上午 12:06:42:背景流程花費:12001.2768ms
2018/3/10 上午 12:06:59:背景流程花費:12001.2757ms
2018/3/10 上午 12:07:17:背景流程花費:12001.2453ms
2018/3/10 上午 12:07:33:背景流程花費:11923.1437ms
2018/3/10 上午 12:07:50:背景流程花費:12001.278ms
2018/3/10 上午 12:08:07:背景流程花費:12001.2766ms
2018/3/10 上午 12:08:25:背景流程花費:12001.2769ms
2018/3/10 上午 12:08:42:背景流程花費:12001.2555ms
2018/3/10 上午 12:08:58:背景流程花費:11907.516ms
2018/3/10 上午 12:09:15:背景流程花費:12001.2769ms
2018/3/10 上午 12:09:32:背景流程花費:12001.2769ms
2018/3/10 上午 12:09:49:背景流程花費:12001.2766ms
2018/3/10 上午 12:10:07:背景流程花費:12001.243ms
2018/3/10 上午 12:10:23:背景流程花費:11923.1434ms
2018/3/10 上午 12:10:40:背景流程花費:12001.2771ms
2018/3/10 上午 12:10:57:背景流程花費:12001.2757ms
2018/3/10 上午 12:11:15:背景流程花費:12001.2718ms
2018/3/10 上午 12:11:32:背景流程花費:12001.2468ms
2018/3/10 上午 12:11:48:背景流程花費:11907.5172ms
2018/3/10 上午 12:12:05:背景流程花費:12001.274ms
2018/3/10 上午 12:12:22:背景流程花費:12001.2765ms
2018/3/10 上午 12:12:39:背景流程花費:12001.2766ms
2018/3/10 上午 12:12:57:背景流程花費:12001.2143ms
2018/3/10 上午 12:13:13:背景流程花費:11907.5405ms
2018/3/10 上午 12:13:30:背景流程花費:12001.2777ms
2018/3/10 上午 12:13:47:背景流程花費:12001.2772ms
2018/3/10 上午 12:14:04:背景流程花費:12001.2772ms
2018/3/10 上午 12:14:22:背景流程花費:12001.2479ms
2018/3/10 上午 12:14:38:背景流程花費:11923.1425ms
2018/3/10 上午 12:14:55:背景流程花費:12001.2765ms
2018/3/10 上午 12:15:12:背景流程花費:12001.2772ms
2018/3/10 上午 12:15:30:背景流程花費:12001.2763ms
2018/3/10 上午 12:15:47:背景流程花費:12001.2481ms
2018/3/10 上午 12:16:03:背景流程花費:11907.5154ms
2018/3/10 上午 12:16:20:背景流程花費:12001.2768ms
2018/3/10 上午 12:16:37:背景流程花費:12001.2754ms
2018/3/10 上午 12:16:54:背景流程花費:12001.2769ms
2018/3/10 上午 12:17:12:背景流程花費:12001.278ms
2018/3/10 上午 12:17:29:背景流程花費:12001.2763ms
2018/3/10 上午 12:17:46:背景流程花費:12001.2428ms
2018/3/10 上午 12:18:03:背景流程花費:12001.2962ms
2018/3/10 上午 12:18:20:背景流程花費:12001.2766ms
2018/3/10 上午 12:18:37:背景流程花費:12001.2752ms
2018/3/10 上午 12:18:54:背景流程花費:11954.395ms
2018/3/10 上午 12:19:11:背景流程花費:12001.2769ms
2018/3/10 上午 12:19:28:背景流程花費:12001.2766ms
2018/3/10 上午 12:19:45:背景流程花費:12001.2692ms
2018/3/10 上午 12:20:02:背景流程花費:12001.2499ms
2018/3/10 上午 12:20:19:背景流程花費:11938.77ms
2018/3/10 上午 12:20:36:背景流程花費:12001.2694ms
2018/3/10 上午 12:20:53:背景流程花費:12001.2777ms
2018/3/10 上午 12:21:09:背景流程花費:11032.4394ms
2018/3/10 上午 12:21:26:背景流程花費:12001.2755ms
2018/3/10 上午 12:21:43:背景流程花費:12001.2766ms
2018/3/10 上午 12:22:00:背景流程花費:12001.2763ms
2018/3/10 上午 12:22:17:背景流程花費:12001.2757ms
2018/3/10 上午 12:22:34:背景流程花費:11969.9946ms
2018/3/10 上午 12:22:51:背景流程花費:12001.2769ms
2018/3/10 上午 12:23:08:背景流程花費:12001.278ms
2018/3/10 上午 12:23:25:背景流程花費:12001.2763ms
2018/3/10 上午 12:23:42:背景流程花費:12001.2473ms
2018/3/10 上午 12:23:59:背景流程花費:11907.5363ms
2018/3/10 上午 12:24:16:背景流程花費:12001.2783ms
2018/3/10 上午 12:24:33:背景流程花費:12001.2768ms
2018/3/10 上午 12:24:50:背景流程花費:12001.2757ms
2018/3/10 上午 12:25:07:背景流程花費:12001.2348ms
2018/3/10 上午 12:25:24:背景流程花費:11923.1434ms
2018/3/10 上午 12:25:41:背景流程花費:12001.2786ms
2018/3/10 上午 12:25:58:背景流程花費:12001.27ms
2018/3/10 上午 12:26:15:背景流程花費:12001.2766ms
2018/3/10 上午 12:26:32:背景流程花費:12001.2476ms
2018/3/10 上午 12:26:49:背景流程花費:11907.516ms
2018/3/10 上午 12:27:06:背景流程花費:12001.2763ms
2018/3/10 上午 12:27:23:背景流程花費:12001.276ms
2018/3/10 上午 12:27:40:背景流程花費:12001.2763ms
2018/3/10 上午 12:27:57:背景流程花費:12001.2418ms
2018/3/10 上午 12:28:14:背景流程花費:11907.5161ms
2018/3/10 上午 12:28:31:背景流程花費:12001.2768ms
2018/3/10 上午 12:28:48:背景流程花費:12001.2789ms
2018/3/10 上午 12:29:05:背景流程花費:12001.2766ms
2018/3/10 上午 12:29:22:背景流程花費:12001.2498ms
2018/3/10 上午 12:29:39:背景流程花費:11923.1434ms
2018/3/10 上午 12:29:56:背景流程花費:12001.3079ms
2018/3/10 上午 12:30:13:背景流程花費:12001.2729ms
2018/3/10 上午 12:30:30:背景流程花費:12001.2774ms
2018/3/10 上午 12:30:47:背景流程花費:12001.2103ms
2018/3/10 上午 12:31:04:背景流程花費:11907.5319ms
2018/3/10 上午 12:31:21:背景流程花費:12001.2768ms
2018/3/10 上午 12:31:38:背景流程花費:12001.282ms
2018/3/10 上午 12:31:55:背景流程花費:12001.276ms
2018/3/10 上午 12:32:12:背景流程花費:12001.2487ms
2018/3/10 上午 12:32:29:背景流程花費:11923.1437ms
2018/3/10 上午 12:32:46:背景流程花費:12001.2763ms
2018/3/10 上午 12:33:03:背景流程花費:12001.2765ms
2018/3/10 上午 12:33:20:背景流程花費:12001.2765ms
2018/3/10 上午 12:33:37:背景流程花費:12001.2499ms
2018/3/10 上午 12:33:54:背景流程花費:11907.5462ms
2018/3/10 上午 12:34:11:背景流程花費:12001.2765ms
2018/3/10 上午 12:34:28:背景流程花費:12001.2757ms
2018/3/10 上午 12:34:45:背景流程花費:12001.2772ms
2018/3/10 上午 12:35:02:背景流程花費:12001.2208ms
2018/3/10 上午 12:35:19:背景流程花費:11923.1446ms
2018/3/10 上午 12:35:36:背景流程花費:12001.2761ms
2018/3/10 上午 12:35:53:背景流程花費:12001.2681ms
2018/3/10 上午 12:36:10:背景流程花費:12001.2772ms
2018/3/10 上午 12:36:27:背景流程花費:12001.2519ms
2018/3/10 上午 12:36:44:背景流程花費:11923.1121ms
2018/3/10 上午 12:37:01:背景流程花費:12001.2765ms
2018/3/10 上午 12:37:18:背景流程花費:12001.2717ms
2018/3/10 上午 12:37:34:背景流程花費:11079.3031ms
2018/3/10 上午 12:37:51:背景流程花費:12001.2729ms
2018/3/10 上午 12:38:08:背景流程花費:12001.2957ms
2018/3/10 上午 12:38:25:背景流程花費:12001.2695ms
2018/3/10 上午 12:38:42:背景流程花費:12001.2459ms
2018/3/10 上午 12:38:59:背景流程花費:11907.5166ms
2018/3/10 上午 12:39:16:背景流程花費:12001.2729ms
2018/3/10 上午 12:39:33:背景流程花費:12001.2794ms
2018/3/10 上午 12:39:50:背景流程花費:12001.2757ms
2018/3/10 上午 12:40:07:背景流程花費:12001.2416ms
2018/3/10 上午 12:40:24:背景流程花費:11907.5354ms
2018/3/10 上午 12:40:41:背景流程花費:12001.2768ms
2018/3/10 上午 12:40:58:背景流程花費:12001.28ms
2018/3/10 上午 12:41:15:背景流程花費:12001.2749ms
2018/3/10 上午 12:41:32:背景流程花費:12001.2751ms
2018/3/10 上午 12:41:49:背景流程花費:12001.2777ms
2018/3/10 上午 12:42:06:背景流程花費:12001.2763ms
2018/3/10 上午 12:42:23:背景流程花費:12001.2786ms
2018/3/10 上午 12:42:40:背景流程花費:12001.2769ms
2018/3/10 上午 12:42:57:背景流程花費:12001.2754ms
2018/3/10 上午 12:43:14:背景流程花費:12001.2763ms
2018/3/10 上午 12:43:31:背景流程花費:12001.2737ms
2018/3/10 上午 12:43:48:背景流程花費:12001.2766ms
2018/3/10 上午 12:44:04:背景流程花費:11032.4238ms
2018/3/10 上午 12:44:21:背景流程花費:12001.2766ms
2018/3/10 上午 12:44:38:背景流程花費:12001.2772ms
2018/3/10 上午 12:44:55:背景流程花費:12001.2769ms
2018/3/10 上午 12:45:12:背景流程花費:12001.2453ms
2018/3/10 上午 12:45:29:背景流程花費:11907.5172ms
2018/3/10 上午 12:45:46:背景流程花費:12001.2729ms
2018/3/10 上午 12:46:03:背景流程花費:12001.2763ms
2018/3/10 上午 12:46:20:背景流程花費:12001.2769ms
2018/3/10 上午 12:46:37:背景流程花費:12001.2459ms
2018/3/10 上午 12:46:54:背景流程花費:11923.1479ms
2018/3/10 上午 12:47:11:背景流程花費:12001.2769ms
2018/3/10 上午 12:47:28:背景流程花費:12001.2766ms
2018/3/10 上午 12:47:45:背景流程花費:12001.2755ms
2018/3/10 上午 12:48:02:背景流程花費:12001.2556ms
2018/3/10 上午 12:48:19:背景流程花費:11907.5169ms
2018/3/10 上午 12:48:36:背景流程花費:12001.3113ms
2018/3/10 上午 12:48:53:背景流程花費:12001.2754ms
2018/3/10 上午 12:49:10:背景流程花費:12001.2766ms
2018/3/10 上午 12:49:27:背景流程花費:12001.2328ms
2018/3/10 上午 12:49:44:背景流程花費:11923.1409ms
2018/3/10 上午 12:50:01:背景流程花費:12001.2757ms
2018/3/10 上午 12:50:18:背景流程花費:12001.28ms
2018/3/10 上午 12:50:35:背景流程花費:12001.3082ms
2018/3/10 上午 12:50:52:背景流程花費:12001.247ms
2018/3/10 上午 12:51:09:背景流程花費:12001.2778ms
2018/3/10 上午 12:51:26:背景流程花費:12001.2889ms
2018/3/10 上午 12:51:43:背景流程花費:12001.276ms
2018/3/10 上午 12:52:00:背景流程花費:12001.2763ms
2018/3/10 上午 12:52:17:背景流程花費:12001.2755ms
2018/3/10 上午 12:52:34:背景流程花費:11938.7693ms
2018/3/10 上午 12:52:51:背景流程花費:12001.2771ms
2018/3/10 上午 12:53:08:背景流程花費:12001.2758ms
2018/3/10 上午 12:53:25:背景流程花費:12001.2712ms
2018/3/10 上午 12:53:42:背景流程花費:12001.2413ms
2018/3/10 上午 12:53:59:背景流程花費:11923.142ms
2018/3/10 上午 12:54:16:背景流程花費:12001.2766ms
2018/3/10 上午 12:54:33:背景流程花費:12001.2777ms
2018/3/10 上午 12:54:50:背景流程花費:12001.2771ms
2018/3/10 上午 12:55:07:背景流程花費:12001.2561ms
2018/3/10 上午 12:55:24:背景流程花費:11907.5149ms
2018/3/10 上午 12:55:41:背景流程花費:12001.2778ms
2018/3/10 上午 12:55:58:背景流程花費:12001.2831ms
2018/3/10 上午 12:56:15:背景流程花費:12001.2766ms
2018/3/10 上午 12:56:32:背景流程花費:12001.2455ms
2018/3/10 上午 12:56:49:背景流程花費:11923.1431ms
2018/3/10 上午 12:57:06:背景流程花費:12001.2757ms
2018/3/10 上午 12:57:23:背景流程花費:12001.2763ms
2018/3/10 上午 12:57:40:背景流程花費:12001.2766ms
2018/3/10 上午 12:57:57:背景流程花費:12001.2106ms
2018/3/10 上午 12:58:14:背景流程花費:11907.5167ms
2018/3/10 上午 12:58:31:背景流程花費:12001.2766ms
2018/3/10 上午 12:58:48:背景流程花費:12001.2695ms
2018/3/10 上午 12:59:05:背景流程花費:12001.2763ms
2018/3/10 上午 12:59:22:背景流程花費:12001.2484ms
2018/3/10 上午 12:59:39:背景流程花費:11923.144ms
2018/3/10 上午 12:59:56:背景流程花費:12001.2755ms
2018/3/10 上午 01:00:13:背景流程花費:12001.2761ms
2018/3/10 上午 01:00:30:背景流程花費:12001.2393ms
2018/3/10 上午 01:00:47:背景流程花費:12001.2489ms
2018/3/10 上午 01:01:04:背景流程花費:11907.5174ms
2018/3/10 上午 01:01:21:背景流程花費:12001.2402ms
2018/3/10 上午 01:01:38:背景流程花費:12001.2766ms
2018/3/10 上午 01:01:55:背景流程花費:12001.2777ms
2018/3/10 上午 01:02:12:背景流程花費:12001.2993ms
2018/3/10 上午 01:02:29:背景流程花費:11938.7694ms
2018/3/10 上午 01:02:46:背景流程花費:12001.2598ms
2018/3/10 上午 01:03:03:背景流程花費:12001.2769ms
2018/3/10 上午 01:03:20:背景流程花費:12001.2704ms
2018/3/10 上午 01:03:37:背景流程花費:12001.2478ms
2018/3/10 上午 01:03:54:背景流程花費:11923.1434ms
2018/3/10 上午 01:04:11:背景流程花費:12001.2763ms
2018/3/10 上午 01:04:28:背景流程花費:12001.2763ms
2018/3/10 上午 01:04:45:背景流程花費:12001.2772ms
2018/3/10 上午 01:05:02:背景流程花費:12001.2481ms
2018/3/10 上午 01:05:19:背景流程花費:11907.5161ms
2018/3/10 上午 01:05:36:背景流程花費:12001.2755ms
2018/3/10 上午 01:05:53:背景流程花費:12001.2757ms
2018/3/10 上午 01:06:10:背景流程花費:12001.2741ms
2018/3/10 上午 01:06:27:背景流程花費:12001.2459ms
2018/3/10 上午 01:06:44:背景流程花費:11923.1435ms
2018/3/10 上午 01:07:01:背景流程花費:12001.2771ms
2018/3/10 上午 01:07:18:背景流程花費:12001.2766ms
2018/3/10 上午 01:07:35:背景流程花費:12001.2769ms
2018/3/10 上午 01:07:52:背景流程花費:12001.214ms
2018/3/10 上午 01:08:09:背景流程花費:11907.5177ms
2018/3/10 上午 01:08:26:背景流程花費:12001.2768ms
2018/3/10 上午 01:08:43:背景流程花費:12001.2768ms
2018/3/10 上午 01:09:00:背景流程花費:12001.3087ms
2018/3/10 上午 01:09:17:背景流程花費:12001.2484ms
2018/3/10 上午 01:09:34:背景流程花費:11907.518ms
2018/3/10 上午 01:09:51:背景流程花費:12001.276ms
2018/3/10 上午 01:10:08:背景流程花費:12001.2766ms
2018/3/10 上午 01:10:25:背景流程花費:12001.2754ms
2018/3/10 上午 01:10:42:背景流程花費:12001.255ms
2018/3/10 上午 01:10:59:背景流程花費:11923.1445ms
2018/3/10 上午 01:11:16:背景流程花費:12001.2963ms
2018/3/10 上午 01:11:33:背景流程花費:12001.276ms
2018/3/10 上午 01:11:50:背景流程花費:12001.2763ms
2018/3/10 上午 01:12:07:背景流程花費:12001.2498ms
2018/3/10 上午 01:12:24:背景流程花費:11907.536ms
2018/3/10 上午 01:12:41:背景流程花費:12001.2766ms
2018/3/10 上午 01:12:58:背景流程花費:12001.2766ms
2018/3/10 上午 01:13:15:背景流程花費:12001.2812ms
2018/3/10 上午 01:13:32:背景流程花費:12001.2485ms
2018/3/10 上午 01:13:49:背景流程花費:11923.1429ms
2018/3/10 上午 01:14:06:背景流程花費:12001.2766ms
2018/3/10 上午 01:14:23:背景流程花費:12001.2768ms
2018/3/10 上午 01:14:40:背景流程花費:12001.2777ms
2018/3/10 上午 01:14:57:背景流程花費:12001.2459ms
2018/3/10 上午 01:15:14:背景流程花費:11907.5203ms
2018/3/10 上午 01:15:31:背景流程花費:12001.2769ms
2018/3/10 上午 01:15:48:背景流程花費:12001.2766ms
2018/3/10 上午 01:16:05:背景流程花費:12001.276ms
2018/3/10 上午 01:16:22:背景流程花費:12001.2478ms
2018/3/10 上午 01:16:39:背景流程花費:11923.1434ms
2018/3/10 上午 01:16:56:背景流程花費:12001.2758ms
2018/3/10 上午 01:17:13:背景流程花費:12001.2771ms
2018/3/10 上午 01:17:30:背景流程花費:12001.2775ms
2018/3/10 上午 01:17:47:背景流程花費:12001.2473ms
2018/3/10 上午 01:18:04:背景流程花費:11907.5166ms
2018/3/10 上午 01:18:21:背景流程花費:12001.2427ms
2018/3/10 上午 01:18:38:背景流程花費:12001.2766ms
2018/3/10 上午 01:18:55:背景流程花費:12001.2839ms
2018/3/10 上午 01:19:12:背景流程花費:12001.2129ms
2018/3/10 上午 01:19:29:背景流程花費:11907.5181ms
2018/3/10 上午 01:19:46:背景流程花費:12001.2771ms
2018/3/10 上午 01:20:03:背景流程花費:12001.2766ms
2018/3/10 上午 01:20:20:背景流程花費:12001.2763ms
2018/3/10 上午 01:20:37:背景流程花費:12001.261ms
2018/3/10 上午 01:20:54:背景流程花費:11923.1491ms
2018/3/10 上午 01:21:11:背景流程花費:12001.2763ms
2018/3/10 上午 01:21:28:背景流程花費:12001.2763ms
2018/3/10 上午 01:21:45:背景流程花費:12001.2761ms
2018/3/10 上午 01:22:02:背景流程花費:12001.2575ms
2018/3/10 上午 01:22:19:背景流程花費:11907.5166ms
2018/3/10 上午 01:22:36:背景流程花費:12001.2766ms
2018/3/10 上午 01:22:53:背景流程花費:12001.276ms
2018/3/10 上午 01:23:10:背景流程花費:12001.2763ms
2018/3/10 上午 01:23:27:背景流程花費:12001.2467ms
2018/3/10 上午 01:23:44:背景流程花費:11923.1462ms
2018/3/10 上午 01:24:01:背景流程花費:12001.2765ms
2018/3/10 上午 01:24:18:背景流程花費:12001.2757ms
2018/3/10 上午 01:24:35:背景流程花費:12001.2775ms
2018/3/10 上午 01:24:52:背景流程花費:12001.2467ms
2018/3/10 上午 01:25:09:背景流程花費:11907.4956ms
2018/3/10 上午 01:25:26:背景流程花費:12001.2774ms
2018/3/10 上午 01:25:43:背景流程花費:12001.2766ms
2018/3/10 上午 01:26:00:背景流程花費:12001.2775ms
2018/3/10 上午 01:26:17:背景流程花費:12001.2308ms
2018/3/10 上午 01:26:34:背景流程花費:11923.1435ms
2018/3/10 上午 01:26:51:背景流程花費:12001.2738ms
2018/3/10 上午 01:27:08:背景流程花費:12001.2766ms
2018/3/10 上午 01:27:25:背景流程花費:12001.2763ms
2018/3/10 上午 01:27:42:背景流程花費:12001.2456ms
2018/3/10 上午 01:27:59:背景流程花費:11907.5172ms
2018/3/10 上午 01:28:16:背景流程花費:12001.2792ms
2018/3/10 上午 01:28:33:背景流程花費:12001.2581ms
2018/3/10 上午 01:28:50:背景流程花費:12001.2769ms
2018/3/10 上午 01:29:07:背景流程花費:12001.247ms
2018/3/10 上午 01:29:24:背景流程花費:11907.5177ms
2018/3/10 上午 01:29:41:背景流程花費:12001.2572ms
2018/3/10 上午 01:29:58:背景流程花費:12001.3079ms
2018/3/10 上午 01:30:15:背景流程花費:12001.2734ms
2018/3/10 上午 01:30:32:背景流程花費:12001.2561ms
2018/3/10 上午 01:30:49:背景流程花費:11923.1426ms
2018/3/10 上午 01:31:06:背景流程花費:12001.2763ms
2018/3/10 上午 01:31:23:背景流程花費:12001.276ms
2018/3/10 上午 01:31:40:背景流程花費:12001.2772ms
2018/3/10 上午 01:31:57:背景流程花費:12001.2325ms
2018/3/10 上午 01:32:14:背景流程花費:11907.5138ms
2018/3/10 上午 01:32:31:背景流程花費:12001.2755ms
2018/3/10 上午 01:32:48:背景流程花費:12001.2752ms
2018/3/10 上午 01:33:05:背景流程花費:12001.2749ms
2018/3/10 上午 01:33:22:背景流程花費:12001.2134ms
2018/3/10 上午 01:33:39:背景流程花費:11923.1434ms
2018/3/10 上午 01:33:56:背景流程花費:12001.2763ms
2018/3/10 上午 01:34:13:背景流程花費:12001.2754ms
2018/3/10 上午 01:34:30:背景流程花費:12001.2743ms
2018/3/10 上午 01:34:47:背景流程花費:12001.2487ms
2018/3/10 上午 01:35:04:背景流程花費:11907.5155ms
2018/3/10 上午 01:35:21:背景流程花費:12001.2763ms
2018/3/10 上午 01:35:38:背景流程花費:12001.2768ms
2018/3/10 上午 01:35:55:背景流程花費:12001.2424ms
2018/3/10 上午 01:36:12:背景流程花費:12001.305ms
2018/3/10 上午 01:36:29:背景流程花費:11907.5166ms
2018/3/10 上午 01:36:46:背景流程花費:12001.2769ms
2018/3/10 上午 01:37:03:背景流程花費:12001.2851ms
2018/3/10 上午 01:37:20:背景流程花費:12001.2771ms
2018/3/10 上午 01:37:37:背景流程花費:12001.253ms
2018/3/10 上午 01:37:54:背景流程花費:11923.1517ms
2018/3/10 上午 01:38:11:背景流程花費:12001.2786ms
2018/3/10 上午 01:38:28:背景流程花費:12001.2763ms
2018/3/10 上午 01:38:45:背景流程花費:12001.29ms
2018/3/10 上午 01:39:02:背景流程花費:12001.2444ms
2018/3/10 上午 01:39:19:背景流程花費:11907.5431ms
2018/3/10 上午 01:39:36:背景流程花費:12001.3124ms
2018/3/10 上午 01:39:53:背景流程花費:12001.2811ms
2018/3/10 上午 01:40:10:背景流程花費:12001.2789ms
2018/3/10 上午 01:40:27:背景流程花費:12001.3121ms
2018/3/10 上午 01:40:44:背景流程花費:11938.7708ms
2018/3/10 上午 01:41:01:背景流程花費:12001.2766ms
2018/3/10 上午 01:41:18:背景流程花費:12001.2644ms
2018/3/10 上午 01:41:34:背景流程花費:11016.7967ms
2018/3/10 上午 01:41:51:背景流程花費:12001.3064ms
2018/3/10 上午 01:42:08:背景流程花費:12001.2766ms
2018/3/10 上午 01:42:25:背景流程花費:12001.2766ms
2018/3/10 上午 01:42:42:背景流程花費:12001.2755ms
2018/3/10 上午 01:42:59:背景流程花費:11954.3958ms
2018/3/10 上午 01:43:16:背景流程花費:12001.2715ms
2018/3/10 上午 01:43:33:背景流程花費:12001.2766ms
2018/3/10 上午 01:43:50:背景流程花費:12001.2763ms
2018/3/10 上午 01:44:07:背景流程花費:12001.2567ms
2018/3/10 上午 01:44:24:背景流程花費:11907.5152ms
2018/3/10 上午 01:44:41:背景流程花費:12001.2772ms
2018/3/10 上午 01:44:58:背景流程花費:12001.2507ms
2018/3/10 上午 01:45:15:背景流程花費:12001.2701ms
2018/3/10 上午 01:45:32:背景流程花費:12001.2552ms
2018/3/10 上午 01:45:49:背景流程花費:11923.1479ms
2018/3/10 上午 01:46:06:背景流程花費:12001.2763ms
2018/3/10 上午 01:46:23:背景流程花費:12001.2765ms
2018/3/10 上午 01:46:40:背景流程花費:12001.282ms
2018/3/10 上午 01:46:57:背景流程花費:12001.2458ms
2018/3/10 上午 01:47:14:背景流程花費:11907.5166ms
2018/3/10 上午 01:47:31:背景流程花費:12001.2817ms
2018/3/10 上午 01:47:48:背景流程花費:12001.2772ms
2018/3/10 上午 01:48:05:背景流程花費:12001.2766ms
2018/3/10 上午 01:48:22:背景流程花費:12001.2467ms
2018/3/10 上午 01:48:39:背景流程花費:11923.1454ms
2018/3/10 上午 01:48:56:背景流程花費:12001.276ms
2018/3/10 上午 01:49:13:背景流程花費:12001.2769ms
2018/3/10 上午 01:49:30:背景流程花費:12001.2769ms
2018/3/10 上午 01:49:47:背景流程花費:12001.2465ms
2018/3/10 上午 01:50:04:背景流程花費:11907.5172ms
2018/3/10 上午 01:50:21:背景流程花費:12001.2774ms
2018/3/10 上午 01:50:38:背景流程花費:12001.2811ms
2018/3/10 上午 01:50:55:背景流程花費:12001.3059ms
2018/3/10 上午 01:51:12:背景流程花費:12001.245ms
2018/3/10 上午 01:51:29:背景流程花費:11907.5226ms
2018/3/10 上午 01:51:46:背景流程花費:12001.2766ms
2018/3/10 上午 01:52:03:背景流程花費:12001.2823ms
2018/3/10 上午 01:52:20:背景流程花費:12001.301ms
2018/3/10 上午 01:52:37:背景流程花費:12001.249ms
2018/3/10 上午 01:52:54:背景流程花費:11923.1423ms
2018/3/10 上午 01:53:11:背景流程花費:12001.3169ms
2018/3/10 上午 01:53:28:背景流程花費:12001.2937ms
2018/3/10 上午 01:53:45:背景流程花費:12001.2774ms
2018/3/10 上午 01:54:02:背景流程花費:12001.2863ms
2018/3/10 上午 01:54:19:背景流程花費:11907.5157ms
2018/3/10 上午 01:54:36:背景流程花費:12001.2928ms
2018/3/10 上午 01:54:53:背景流程花費:12001.3124ms
2018/3/10 上午 01:55:10:背景流程花費:12001.276ms
2018/3/10 上午 01:55:27:背景流程花費:12001.245ms
2018/3/10 上午 01:55:44:背景流程花費:11923.1707ms
2018/3/10 上午 01:56:01:背景流程花費:12001.2766ms
2018/3/10 上午 01:56:18:背景流程花費:12001.2746ms
2018/3/10 上午 01:56:35:背景流程花費:12001.2115ms
2018/3/10 上午 01:56:52:背景流程花費:12001.2459ms
2018/3/10 上午 01:57:09:背景流程花費:11907.5229ms
2018/3/10 上午 01:57:26:背景流程花費:12001.2114ms
2018/3/10 上午 01:57:43:背景流程花費:12001.2752ms
2018/3/10 上午 01:58:00:背景流程花費:12001.2783ms
2018/3/10 上午 01:58:17:背景流程花費:12001.249ms
2018/3/10 上午 01:58:34:背景流程花費:11907.5211ms
2018/3/10 上午 01:58:51:背景流程花費:12001.2712ms
2018/3/10 上午 01:59:08:背景流程花費:12001.2769ms
2018/3/10 上午 01:59:25:背景流程花費:12001.2757ms
2018/3/10 上午 01:59:42:背景流程花費:12001.2567ms
2018/3/10 上午 01:59:59:背景流程花費:11923.1457ms
2018/3/10 上午 02:00:16:背景流程花費:12001.2584ms
2018/3/10 上午 02:00:33:背景流程花費:12001.2766ms
2018/3/10 上午 02:00:50:背景流程花費:12001.2769ms
2018/3/10 上午 02:01:07:背景流程花費:12001.2561ms
2018/3/10 上午 02:01:24:背景流程花費:11907.5055ms
2018/3/10 上午 02:01:41:背景流程花費:12001.2771ms
2018/3/10 上午 02:01:58:背景流程花費:12001.2763ms
2018/3/10 上午 02:02:15:背景流程花費:12001.2697ms
2018/3/10 上午 02:02:32:背景流程花費:12001.245ms
2018/3/10 上午 02:02:49:背景流程花費:11923.1491ms
2018/3/10 上午 02:03:06:背景流程花費:12001.2751ms
2018/3/10 上午 02:03:23:背景流程花費:12001.2765ms
2018/3/10 上午 02:03:40:背景流程花費:12001.2769ms
2018/3/10 上午 02:03:57:背景流程花費:12001.243ms
2018/3/10 上午 02:04:14:背景流程花費:12001.2763ms
2018/3/10 上午 02:04:31:背景流程花費:12001.2772ms
2018/3/10 上午 02:04:48:背景流程花費:12001.2783ms
2018/3/10 上午 02:05:05:背景流程花費:12001.2754ms
2018/3/10 上午 02:05:22:背景流程花費:12001.2706ms
2018/3/10 上午 02:05:40:背景流程花費:12001.276ms
2018/3/10 上午 02:05:57:背景流程花費:12001.2774ms
2018/3/10 上午 02:06:14:背景流程花費:12001.276ms
2018/3/10 上午 02:06:31:背景流程花費:12001.2766ms
2018/3/10 上午 02:06:48:背景流程花費:12001.2758ms
2018/3/10 上午 02:07:05:背景流程花費:11985.6504ms
2018/3/10 上午 02:07:22:背景流程花費:12001.2758ms
2018/3/10 上午 02:07:39:背景流程花費:12001.2769ms
2018/3/10 上午 02:07:56:背景流程花費:12001.278ms
2018/3/10 上午 02:08:13:背景流程花費:12001.2464ms
2018/3/10 上午 02:08:30:背景流程花費:11907.5195ms
2018/3/10 上午 02:08:47:背景流程花費:12001.2766ms
2018/3/10 上午 02:09:04:背景流程花費:12001.2427ms
2018/3/10 上午 02:09:21:背景流程花費:12001.2706ms
2018/3/10 上午 02:09:38:背景流程花費:12001.2553ms
2018/3/10 上午 02:09:55:背景流程花費:11923.1443ms
2018/3/10 上午 02:10:12:背景流程花費:12001.2757ms
2018/3/10 上午 02:10:29:背景流程花費:12001.2771ms
2018/3/10 上午 02:10:46:背景流程花費:12001.2752ms
2018/3/10 上午 02:11:03:背景流程花費:12001.2487ms
2018/3/10 上午 02:11:20:背景流程花費:11907.5177ms
2018/3/10 上午 02:11:37:背景流程花費:12001.2763ms
2018/3/10 上午 02:11:54:背景流程花費:12001.2775ms
2018/3/10 上午 02:12:11:背景流程花費:12001.2706ms
2018/3/10 上午 02:12:28:背景流程花費:12001.2478ms
2018/3/10 上午 02:12:45:背景流程花費:11923.1385ms
2018/3/10 上午 02:13:02:背景流程花費:12001.2842ms
2018/3/10 上午 02:13:19:背景流程花費:12001.2766ms
2018/3/10 上午 02:13:36:背景流程花費:12001.2763ms
2018/3/10 上午 02:13:53:背景流程花費:12001.2541ms
2018/3/10 上午 02:14:10:背景流程花費:11907.5171ms
2018/3/10 上午 02:14:27:背景流程花費:12001.2712ms
2018/3/10 上午 02:14:44:背景流程花費:12001.2766ms
2018/3/10 上午 02:15:01:背景流程花費:12001.2769ms
2018/3/10 上午 02:15:18:背景流程花費:12001.2456ms
2018/3/10 上午 02:15:35:背景流程花費:11923.1426ms
2018/3/10 上午 02:15:52:背景流程花費:12001.2831ms
2018/3/10 上午 02:16:09:背景流程花費:12001.2814ms
2018/3/10 上午 02:16:26:背景流程花費:12001.2763ms
2018/3/10 上午 02:16:43:背景流程花費:12001.2475ms
2018/3/10 上午 02:17:00:背景流程花費:11907.5166ms
2018/3/10 上午 02:17:17:背景流程花費:12001.276ms
2018/3/10 上午 02:17:34:背景流程花費:12001.2771ms
2018/3/10 上午 02:17:51:背景流程花費:12001.2817ms
2018/3/10 上午 02:18:08:背景流程花費:12001.2402ms
2018/3/10 上午 02:18:25:背景流程花費:11907.528ms
2018/3/10 上午 02:18:42:背景流程花費:12001.2712ms
2018/3/10 上午 02:18:59:背景流程花費:12001.2877ms
2018/3/10 上午 02:19:16:背景流程花費:12001.2771ms
2018/3/10 上午 02:19:33:背景流程花費:12001.2448ms
2018/3/10 上午 02:19:50:背景流程花費:11923.1403ms
2018/3/10 上午 02:20:07:背景流程花費:12001.28ms
2018/3/10 上午 02:20:24:背景流程花費:12001.2766ms
2018/3/10 上午 02:20:41:背景流程花費:12001.2695ms
2018/3/10 上午 02:20:58:背景流程花費:12001.2479ms
2018/3/10 上午 02:21:15:背景流程花費:11907.511ms
2018/3/10 上午 02:21:32:背景流程花費:12001.241ms
2018/3/10 上午 02:21:49:背景流程花費:12001.2817ms
2018/3/10 上午 02:22:05:背景流程花費:11032.4227ms
2018/3/10 上午 02:22:22:背景流程花費:12001.2766ms
2018/3/10 上午 02:22:39:背景流程花費:12001.2772ms
2018/3/10 上午 02:22:55:背景流程花費:11016.7922ms
2018/3/10 上午 02:23:12:背景流程花費:12001.2763ms
2018/3/10 上午 02:23:29:背景流程花費:12001.2792ms
2018/3/10 上午 02:23:46:背景流程花費:12001.2703ms
2018/3/10 上午 02:24:03:背景流程花費:12001.2413ms
2018/3/10 上午 02:24:20:背景流程花費:11907.5154ms
2018/3/10 上午 02:24:37:背景流程花費:12001.2829ms
2018/3/10 上午 02:24:54:背景流程花費:12001.276ms
2018/3/10 上午 02:25:11:背景流程花費:12001.2766ms
2018/3/10 上午 02:25:28:背景流程花費:12001.313ms
2018/3/10 上午 02:25:45:背景流程花費:11907.5163ms
2018/3/10 上午 02:26:02:背景流程花費:12001.2831ms
2018/3/10 上午 02:26:19:背景流程花費:12001.2857ms
2018/3/10 上午 02:26:36:背景流程花費:12001.2768ms
2018/3/10 上午 02:26:53:背景流程花費:12001.2351ms
2018/3/10 上午 02:27:10:背景流程花費:11923.1315ms
2018/3/10 上午 02:27:27:背景流程花費:12001.274ms
2018/3/10 上午 02:27:44:背景流程花費:12001.276ms
2018/3/10 上午 02:28:01:背景流程花費:12001.2154ms
2018/3/10 上午 02:28:18:背景流程花費:12001.2402ms
2018/3/10 上午 02:28:35:背景流程花費:11907.5243ms
2018/3/10 上午 02:28:52:背景流程花費:12001.286ms
2018/3/10 上午 02:29:09:背景流程花費:12001.2709ms
2018/3/10 上午 02:29:26:背景流程花費:12001.2763ms
2018/3/10 上午 02:29:43:背景流程花費:12001.2262ms
2018/3/10 上午 02:30:00:背景流程花費:12001.2761ms
2018/3/10 上午 02:30:17:背景流程花費:12001.2768ms
2018/3/10 上午 02:30:34:背景流程花費:12001.2763ms
2018/3/10 上午 02:30:51:背景流程花費:12001.2763ms
2018/3/10 上午 02:31:08:背景流程花費:12001.3073ms
2018/3/10 上午 02:31:25:背景流程花費:11954.4261ms
2018/3/10 上午 02:31:42:背景流程花費:12001.2754ms
2018/3/10 上午 02:31:59:背景流程花費:12001.2766ms
2018/3/10 上午 02:32:16:背景流程花費:12001.2766ms
2018/3/10 上午 02:32:33:背景流程花費:12001.2462ms
2018/3/10 上午 02:32:50:背景流程花費:11907.5201ms
2018/3/10 上午 02:33:07:背景流程花費:12001.2763ms
2018/3/10 上午 02:33:24:背景流程花費:12001.2746ms
2018/3/10 上午 02:33:41:背景流程花費:12001.295ms
2018/3/10 上午 02:33:58:背景流程花費:12001.2496ms
2018/3/10 上午 02:34:15:背景流程花費:11923.1491ms
2018/3/10 上午 02:34:32:背景流程花費:12001.2518ms
2018/3/10 上午 02:34:49:背景流程花費:12001.2749ms
2018/3/10 上午 02:35:06:背景流程花費:12001.2768ms
2018/3/10 上午 02:35:23:背景流程花費:12001.2458ms
2018/3/10 上午 02:35:40:背景流程花費:11907.5171ms
2018/3/10 上午 02:35:57:背景流程花費:12001.276ms
2018/3/10 上午 02:36:14:背景流程花費:12001.2772ms
2018/3/10 上午 02:36:31:背景流程花費:12001.2843ms
2018/3/10 上午 02:36:48:背景流程花費:12001.2433ms
2018/3/10 上午 02:37:05:背景流程花費:11923.1437ms
2018/3/10 上午 02:37:22:背景流程花費:12001.282ms
2018/3/10 上午 02:37:39:背景流程花費:12001.2826ms
2018/3/10 上午 02:37:56:背景流程花費:12001.2709ms
2018/3/10 上午 02:38:13:背景流程花費:12001.2482ms
2018/3/10 上午 02:38:30:背景流程花費:11907.5169ms
2018/3/10 上午 02:38:47:背景流程花費:12001.2834ms
2018/3/10 上午 02:39:04:背景流程花費:12001.2766ms
2018/3/10 上午 02:39:21:背景流程花費:12001.2774ms
2018/3/10 上午 02:39:38:背景流程花費:12001.2276ms
2018/3/10 上午 02:39:55:背景流程花費:11923.1414ms
2018/3/10 上午 02:40:12:背景流程花費:12001.2772ms
2018/3/10 上午 02:40:29:背景流程花費:12001.2763ms
2018/3/10 上午 02:40:46:背景流程花費:12001.2774ms
2018/3/10 上午 02:41:03:背景流程花費:12016.8678ms
2018/3/10 上午 02:41:20:背景流程花費:11891.8975ms
2018/3/10 上午 02:41:37:背景流程花費:12001.2766ms
2018/3/10 上午 02:41:54:背景流程花費:12001.2706ms
2018/3/10 上午 02:42:11:背景流程花費:12001.2701ms
2018/3/10 上午 02:42:28:背景流程花費:12001.2467ms
2018/3/10 上午 02:42:45:背景流程花費:11907.5166ms
2018/3/10 上午 02:43:02:背景流程花費:12001.2766ms
2018/3/10 上午 02:43:19:背景流程花費:12001.2766ms
2018/3/10 上午 02:43:36:背景流程花費:12001.2755ms
2018/3/10 上午 02:43:53:背景流程花費:12001.2405ms
2018/3/10 上午 02:44:10:背景流程花費:11923.136ms
2018/3/10 上午 02:44:27:背景流程花費:12001.2763ms
2018/3/10 上午 02:44:44:背景流程花費:12001.2757ms
2018/3/10 上午 02:45:01:背景流程花費:12001.241ms
2018/3/10 上午 02:45:18:背景流程花費:12001.2473ms
2018/3/10 上午 02:45:35:背景流程花費:11923.1466ms
2018/3/10 上午 02:45:52:背景流程花費:12001.2481ms
2018/3/10 上午 02:46:09:背景流程花費:12001.2771ms
2018/3/10 上午 02:46:26:背景流程花費:12001.276ms
2018/3/10 上午 02:46:43:背景流程花費:12001.305ms
2018/3/10 上午 02:47:00:背景流程花費:11923.1377ms
2018/3/10 上午 02:47:17:背景流程花費:12001.2831ms
2018/3/10 上午 02:47:34:背景流程花費:12001.2761ms
2018/3/10 上午 02:47:51:背景流程花費:12001.2416ms
2018/3/10 上午 02:48:08:背景流程花費:12001.2419ms
2018/3/10 上午 02:48:25:背景流程花費:11907.5177ms
2018/3/10 上午 02:48:42:背景流程花費:12001.2769ms
2018/3/10 上午 02:48:59:背景流程花費:12001.2413ms
2018/3/10 上午 02:49:16:背景流程花費:12001.2772ms
2018/3/10 上午 02:49:33:背景流程花費:12001.2698ms
2018/3/10 上午 02:49:50:背景流程花費:11985.6503ms
2018/3/10 上午 02:50:07:背景流程花費:12001.2765ms
2018/3/10 上午 02:50:24:背景流程花費:12001.2826ms
2018/3/10 上午 02:50:40:背景流程花費:11001.1702ms
2018/3/10 上午 02:50:57:背景流程花費:12001.3121ms
2018/3/10 上午 02:51:14:背景流程花費:12001.282ms
2018/3/10 上午 02:51:31:背景流程花費:12001.2712ms
2018/3/10 上午 02:51:48:背景流程花費:12001.2271ms
2018/3/10 上午 02:52:05:背景流程花費:11923.142ms
2018/3/10 上午 02:52:22:背景流程花費:12001.2786ms
2018/3/10 上午 02:52:39:背景流程花費:12001.2741ms
2018/3/10 上午 02:52:56:背景流程花費:12001.2777ms
2018/3/10 上午 02:53:13:背景流程花費:12001.239ms
2018/3/10 上午 02:53:30:背景流程花費:11907.551ms
2018/3/10 上午 02:53:47:背景流程花費:12001.2766ms
2018/3/10 上午 02:54:04:背景流程花費:12001.2706ms
2018/3/10 上午 02:54:21:背景流程花費:12001.2758ms
2018/3/10 上午 02:54:38:背景流程花費:12001.2458ms
2018/3/10 上午 02:54:55:背景流程花費:11907.5217ms
2018/3/10 上午 02:55:12:背景流程花費:12001.2757ms
2018/3/10 上午 02:55:29:背景流程花費:12001.2754ms
2018/3/10 上午 02:55:46:背景流程花費:12001.243ms
2018/3/10 上午 02:56:03:背景流程花費:12001.249ms
2018/3/10 上午 02:56:20:背景流程花費:11923.1392ms
2018/3/10 上午 02:56:37:背景流程花費:12001.2758ms
2018/3/10 上午 02:56:54:背景流程花費:12001.2748ms
2018/3/10 上午 02:57:11:背景流程花費:12001.2749ms
2018/3/10 上午 02:57:28:背景流程花費:12001.241ms
2018/3/10 上午 02:57:45:背景流程花費:11907.5172ms
2018/3/10 上午 02:58:02:背景流程花費:12001.2592ms
2018/3/10 上午 02:58:19:背景流程花費:12001.278ms
2018/3/10 上午 02:58:36:背景流程花費:12001.2763ms
2018/3/10 上午 02:58:53:背景流程花費:12001.2456ms
2018/3/10 上午 02:59:10:背景流程花費:11923.1406ms
2018/3/10 上午 02:59:27:背景流程花費:12001.2769ms
2018/3/10 上午 02:59:44:背景流程花費:12001.2834ms
2018/3/10 上午 03:00:01:背景流程花費:12001.2706ms
2018/3/10 上午 03:00:18:背景流程花費:12001.2433ms
2018/3/10 上午 03:00:35:背景流程花費:11907.5157ms
2018/3/10 上午 03:00:52:背景流程花費:12001.2703ms
2018/3/10 上午 03:01:09:背景流程花費:12001.2666ms
2018/3/10 上午 03:01:25:背景流程花費:11048.0689ms
2018/3/10 上午 03:01:42:背景流程花費:12001.2766ms
2018/3/10 上午 03:01:59:背景流程花費:12001.2763ms
2018/3/10 上午 03:02:16:背景流程花費:12001.2766ms
2018/3/10 上午 03:02:33:背景流程花費:12001.2752ms
2018/3/10 上午 03:02:50:背景流程花費:11954.3956ms
2018/3/10 上午 03:03:07:背景流程花費:12001.2766ms
2018/3/10 上午 03:03:24:背景流程花費:12001.2766ms
2018/3/10 上午 03:03:41:背景流程花費:12001.2771ms
2018/3/10 上午 03:03:58:背景流程花費:12001.2385ms
2018/3/10 上午 03:04:15:背景流程花費:11970.0415ms
2018/3/10 上午 03:04:32:背景流程花費:12001.2825ms
2018/3/10 上午 03:04:49:背景流程花費:12001.2831ms
2018/3/10 上午 03:05:05:背景流程花費:11016.7973ms
2018/3/10 上午 03:05:22:背景流程花費:12001.2715ms
2018/3/10 上午 03:05:39:背景流程花費:12001.276ms
2018/3/10 上午 03:05:56:背景流程花費:12001.2792ms
2018/3/10 上午 03:06:13:背景流程花費:12001.2405ms
2018/3/10 上午 03:06:30:背景流程花費:11923.144ms
2018/3/10 上午 03:06:47:背景流程花費:12001.2715ms
2018/3/10 上午 03:07:04:背景流程花費:12001.2769ms
2018/3/10 上午 03:07:21:背景流程花費:12001.2772ms
2018/3/10 上午 03:07:38:背景流程花費:12001.247ms
2018/3/10 上午 03:07:55:背景流程花費:11907.518ms
2018/3/10 上午 03:08:12:背景流程花費:12001.2761ms
2018/3/10 上午 03:08:29:背景流程花費:12001.2766ms
2018/3/10 上午 03:08:46:背景流程花費:12001.274ms
2018/3/10 上午 03:09:03:背景流程花費:12001.2034ms
2018/3/10 上午 03:09:20:背景流程花費:11923.1449ms
2018/3/10 上午 03:09:37:背景流程花費:12001.2704ms
2018/3/10 上午 03:09:54:背景流程花費:12001.2527ms
2018/3/10 上午 03:10:11:背景流程花費:12016.9307ms
2018/3/10 上午 03:10:28:背景流程花費:12016.9ms
2018/3/10 上午 03:10:45:背景流程花費:11876.2707ms
2018/3/10 上午 03:11:02:背景流程花費:12016.8954ms
2018/3/10 上午 03:11:19:背景流程花費:12001.2826ms
2018/3/10 上午 03:11:36:背景流程花費:12001.2763ms
2018/3/10 上午 03:11:53:背景流程花費:12016.8775ms
2018/3/10 上午 03:12:10:背景流程花費:11876.2647ms
2018/3/10 上午 03:12:27:背景流程花費:12001.2757ms
2018/3/10 上午 03:12:44:背景流程花費:12001.2765ms
2018/3/10 上午 03:13:01:背景流程花費:12001.2763ms
2018/3/10 上午 03:13:18:背景流程花費:12001.2478ms
2018/3/10 上午 03:13:35:背景流程花費:11923.1437ms
2018/3/10 上午 03:13:52:背景流程花費:12001.2798ms
2018/3/10 上午 03:14:09:背景流程花費:12001.2695ms
2018/3/10 上午 03:14:26:背景流程花費:12001.2769ms
2018/3/10 上午 03:14:43:背景流程花費:12001.2473ms
2018/3/10 上午 03:15:00:背景流程花費:11907.5184ms
2018/3/10 上午 03:15:17:背景流程花費:12001.2829ms
2018/3/10 上午 03:15:34:背景流程花費:12001.2829ms
2018/3/10 上午 03:15:51:背景流程花費:12001.2831ms
2018/3/10 上午 03:16:08:背景流程花費:12001.243ms
2018/3/10 上午 03:16:25:背景流程花費:11923.136ms
2018/3/10 上午 03:16:42:背景流程花費:12001.2698ms
2018/3/10 上午 03:16:59:背景流程花費:12001.2757ms
2018/3/10 上午 03:17:15:背景流程花費:11048.0529ms
2018/3/10 上午 03:17:32:背景流程花費:12016.8974ms
2018/3/10 上午 03:17:49:背景流程花費:12001.2763ms
2018/3/10 上午 03:18:06:背景流程花費:12001.245ms
2018/3/10 上午 03:18:23:背景流程花費:12001.2956ms
2018/3/10 上午 03:18:40:背景流程花費:11938.7694ms
2018/3/10 上午 03:18:57:背景流程花費:12001.2658ms
2018/3/10 上午 03:19:14:背景流程花費:12001.2771ms
2018/3/10 上午 03:19:31:背景流程花費:12001.2828ms
2018/3/10 上午 03:19:48:背景流程花費:12001.208ms
2018/3/10 上午 03:20:05:背景流程花費:11938.7702ms
2018/3/10 上午 03:20:22:背景流程花費:12001.2831ms
2018/3/10 上午 03:20:39:背景流程花費:12001.247ms
2018/3/10 上午 03:20:56:背景流程花費:12001.2766ms
2018/3/10 上午 03:21:13:背景流程花費:12001.2698ms
2018/3/10 上午 03:21:30:背景流程花費:11938.7344ms
2018/3/10 上午 03:21:47:背景流程花費:12001.2706ms
2018/3/10 上午 03:22:04:背景流程花費:12001.2691ms
2018/3/10 上午 03:22:21:背景流程花費:12001.2829ms
2018/3/10 上午 03:22:38:背景流程花費:12001.243ms
2018/3/10 上午 03:22:55:背景流程花費:11907.516ms
2018/3/10 上午 03:23:12:背景流程花費:12001.286ms
2018/3/10 上午 03:23:29:背景流程花費:12001.2829ms
2018/3/10 上午 03:23:46:背景流程花費:12001.2769ms
2018/3/10 上午 03:24:03:背景流程花費:12001.2473ms
2018/3/10 上午 03:24:20:背景流程花費:11907.5157ms
2018/3/10 上午 03:24:37:背景流程花費:12001.2831ms
2018/3/10 上午 03:24:54:背景流程花費:12001.2825ms
2018/3/10 上午 03:25:11:背景流程花費:12001.2607ms
2018/3/10 上午 03:25:28:背景流程花費:12001.247ms
2018/3/10 上午 03:25:45:背景流程花費:11923.1918ms
2018/3/10 上午 03:26:02:背景流程花費:12001.2757ms
2018/3/10 上午 03:26:19:背景流程花費:12001.2704ms
2018/3/10 上午 03:26:36:背景流程花費:12001.299ms
2018/3/10 上午 03:26:53:背景流程花費:12001.2584ms
2018/3/10 上午 03:27:10:背景流程花費:11907.5243ms
2018/3/10 上午 03:27:27:背景流程花費:12001.2766ms
2018/3/10 上午 03:27:44:背景流程花費:12001.303ms
2018/3/10 上午 03:28:01:背景流程花費:12001.2709ms
2018/3/10 上午 03:28:18:背景流程花費:12001.2783ms
2018/3/10 上午 03:28:35:背景流程花費:12001.2766ms
2018/3/10 上午 03:28:52:背景流程花費:12001.2831ms
2018/3/10 上午 03:29:09:背景流程花費:12001.2769ms
2018/3/10 上午 03:29:26:背景流程花費:12001.2769ms
2018/3/10 上午 03:29:43:背景流程花費:12001.3025ms
2018/3/10 上午 03:30:00:背景流程花費:11954.4039ms
2018/3/10 上午 03:30:17:背景流程花費:12016.8692ms
2018/3/10 上午 03:30:34:背景流程花費:12001.2701ms
2018/3/10 上午 03:30:51:背景流程花費:11048.0486ms
2018/3/10 上午 03:31:08:背景流程花費:12001.2749ms
2018/3/10 上午 03:31:25:背景流程花費:12001.2769ms
2018/3/10 上午 03:31:42:背景流程花費:12001.2826ms
2018/3/10 上午 03:31:59:背景流程花費:12001.2393ms
2018/3/10 上午 03:32:16:背景流程花費:11923.1506ms
2018/3/10 上午 03:32:33:背景流程花費:12001.2825ms
2018/3/10 上午 03:32:50:背景流程花費:12001.2689ms
2018/3/10 上午 03:33:07:背景流程花費:12001.276ms
2018/3/10 上午 03:33:24:背景流程花費:12001.2561ms
2018/3/10 上午 03:33:41:背景流程花費:11923.1431ms
2018/3/10 上午 03:33:58:背景流程花費:12001.2766ms
2018/3/10 上午 03:34:15:背景流程花費:12001.2811ms
2018/3/10 上午 03:34:31:背景流程花費:11016.7976ms
2018/3/10 上午 03:34:48:背景流程花費:12001.2772ms
2018/3/10 上午 03:35:05:背景流程花費:12001.2695ms
2018/3/10 上午 03:35:22:背景流程花費:12001.2783ms
2018/3/10 上午 03:35:39:背景流程花費:12001.2595ms
2018/3/10 上午 03:35:56:背景流程花費:11970.0059ms
2018/3/10 上午 03:36:13:背景流程花費:12001.276ms
2018/3/10 上午 03:36:30:背景流程花費:12001.2734ms
2018/3/10 上午 03:36:47:背景流程花費:12001.2777ms
2018/3/10 上午 03:37:04:背景流程花費:12001.2411ms
2018/3/10 上午 03:37:21:背景流程花費:11907.5314ms
2018/3/10 上午 03:37:38:背景流程花費:12001.28ms
2018/3/10 上午 03:37:55:背景流程花費:12001.2766ms
2018/3/10 上午 03:38:12:背景流程花費:12001.2748ms
2018/3/10 上午 03:38:29:背景流程花費:12001.2424ms
2018/3/10 上午 03:38:46:背景流程花費:11923.1423ms
2018/3/10 上午 03:39:03:背景流程花費:12001.2757ms
2018/3/10 上午 03:39:20:背景流程花費:12001.2772ms
2018/3/10 上午 03:39:37:背景流程花費:12001.2826ms
2018/3/10 上午 03:39:54:背景流程花費:12001.2396ms
2018/3/10 上午 03:40:11:背景流程花費:11907.5237ms
2018/3/10 上午 03:40:28:背景流程花費:12001.2771ms
2018/3/10 上午 03:40:45:背景流程花費:12001.2734ms
2018/3/10 上午 03:41:02:背景流程花費:12001.2763ms
2018/3/10 上午 03:41:19:背景流程花費:12001.2277ms
2018/3/10 上午 03:41:36:背景流程花費:11970.0224ms
2018/3/10 上午 03:41:53:背景流程花費:12001.282ms
2018/3/10 上午 03:42:10:背景流程花費:12001.2418ms
2018/3/10 上午 03:42:26:背景流程花費:11016.7879ms
2018/3/10 上午 03:42:43:背景流程花費:12001.2766ms
2018/3/10 上午 03:43:00:背景流程花費:12001.2996ms
2018/3/10 上午 03:43:17:背景流程花費:12001.2772ms
2018/3/10 上午 03:43:34:背景流程花費:12001.2396ms
2018/3/10 上午 03:43:51:背景流程花費:11954.3956ms
2018/3/10 上午 03:44:08:背景流程花費:12001.278ms
2018/3/10 上午 03:44:25:背景流程花費:12001.2704ms
2018/3/10 上午 03:44:41:背景流程花費:11032.4454ms
2018/3/10 上午 03:44:58:背景流程花費:12001.2763ms
2018/3/10 上午 03:45:15:背景流程花費:12001.2769ms
2018/3/10 上午 03:45:32:背景流程花費:12001.2777ms
2018/3/10 上午 03:45:49:背景流程花費:12001.2419ms
2018/3/10 上午 03:46:06:背景流程花費:11923.1437ms
2018/3/10 上午 03:46:23:背景流程花費:12001.2763ms
2018/3/10 上午 03:46:40:背景流程花費:12001.2754ms
2018/3/10 上午 03:46:57:背景流程花費:12001.2765ms
2018/3/10 上午 03:47:14:背景流程花費:12001.2419ms
2018/3/10 上午 03:47:31:背景流程花費:11907.5243ms
2018/3/10 上午 03:47:48:背景流程花費:12001.2777ms
2018/3/10 上午 03:48:05:背景流程花費:12001.3068ms
2018/3/10 上午 03:48:22:背景流程花費:12001.276ms
2018/3/10 上午 03:48:39:背景流程花費:12001.2519ms
2018/3/10 上午 03:48:56:背景流程花費:11907.5232ms
2018/3/10 上午 03:49:13:背景流程花費:12001.278ms
2018/3/10 上午 03:49:30:背景流程花費:12001.278ms
2018/3/10 上午 03:49:47:背景流程花費:12001.2766ms
2018/3/10 上午 03:50:04:背景流程花費:12001.2479ms
2018/3/10 上午 03:50:21:背景流程花費:11923.1432ms
2018/3/10 上午 03:50:38:背景流程花費:12001.2834ms
2018/3/10 上午 03:50:55:背景流程花費:12001.2822ms
2018/3/10 上午 03:51:12:背景流程花費:12001.2817ms
2018/3/10 上午 03:51:29:背景流程花費:12001.2411ms
2018/3/10 上午 03:51:46:背景流程花費:11907.5157ms
2018/3/10 上午 03:52:03:背景流程花費:12001.2763ms
2018/3/10 上午 03:52:20:背景流程花費:12001.2512ms
2018/3/10 上午 03:52:37:背景流程花費:12001.2763ms
2018/3/10 上午 03:52:54:背景流程花費:12001.2758ms
2018/3/10 上午 03:53:11:背景流程花費:12001.2783ms
2018/3/10 上午 03:53:28:背景流程花費:12001.2757ms
2018/3/10 上午 03:53:45:背景流程花費:12001.2763ms
2018/3/10 上午 03:54:02:背景流程花費:12001.2769ms
2018/3/10 上午 03:54:19:背景流程花費:12001.2979ms
2018/3/10 上午 03:54:36:背景流程花費:11954.3953ms
2018/3/10 上午 03:54:53:背景流程花費:12001.2772ms
2018/3/10 上午 03:55:10:背景流程花費:12001.2937ms
2018/3/10 上午 03:55:27:背景流程花費:12001.2769ms
2018/3/10 上午 03:55:44:背景流程花費:12001.2493ms
2018/3/10 上午 03:56:01:背景流程花費:11907.5152ms
2018/3/10 上午 03:56:18:背景流程花費:12001.2766ms
2018/3/10 上午 03:56:35:背景流程花費:12001.2704ms
2018/3/10 上午 03:56:52:背景流程花費:12001.2757ms
2018/3/10 上午 03:57:09:背景流程花費:12001.243ms
2018/3/10 上午 03:57:26:背景流程花費:11923.1406ms
2018/3/10 上午 03:57:43:背景流程花費:12001.2817ms
2018/3/10 上午 03:58:00:背景流程花費:12001.2761ms
2018/3/10 上午 03:58:17:背景流程花費:12001.2763ms
2018/3/10 上午 03:58:34:背景流程花費:12001.243ms
2018/3/10 上午 03:58:51:背景流程花費:11907.516ms
2018/3/10 上午 03:59:08:背景流程花費:12001.2757ms
2018/3/10 上午 03:59:25:背景流程花費:12001.2763ms
2018/3/10 上午 03:59:42:背景流程花費:12001.2669ms
2018/3/10 上午 03:59:59:背景流程花費:12001.2402ms
2018/3/10 上午 04:00:16:背景流程花費:11923.1497ms
2018/3/10 上午 04:00:33:背景流程花費:12001.2826ms
2018/3/10 上午 04:00:50:背景流程花費:12001.2737ms
2018/3/10 上午 04:01:06:背景流程花費:11016.7678ms
2018/3/10 上午 04:01:23:背景流程花費:12001.2766ms
2018/3/10 上午 04:01:40:背景流程花費:12001.2706ms
2018/3/10 上午 04:01:57:背景流程花費:12001.3483ms
2018/3/10 上午 04:02:14:背景流程花費:12001.2999ms
2018/3/10 上午 04:02:31:背景流程花費:12001.2772ms
2018/3/10 上午 04:02:48:背景流程花費:12001.2837ms
2018/3/10 上午 04:03:05:背景流程花費:12001.2766ms
2018/3/10 上午 04:03:21:背景流程花費:11032.4244ms
2018/3/10 上午 04:03:38:背景流程花費:12001.2703ms
2018/3/10 上午 04:03:55:背景流程花費:12001.2777ms
2018/3/10 上午 04:04:12:背景流程花費:12001.2706ms
2018/3/10 上午 04:04:29:背景流程花費:12001.2402ms
2018/3/10 上午 04:04:46:背景流程花費:11923.1423ms
2018/3/10 上午 04:05:03:背景流程花費:12001.2769ms
2018/3/10 上午 04:05:20:背景流程花費:12001.2777ms
2018/3/10 上午 04:05:37:背景流程花費:12001.2763ms
2018/3/10 上午 04:05:54:背景流程花費:12001.2558ms
2018/3/10 上午 04:06:11:背景流程花費:11907.5163ms
2018/3/10 上午 04:06:28:背景流程花費:12001.2766ms
2018/3/10 上午 04:06:45:背景流程花費:12001.2766ms
2018/3/10 上午 04:07:01:背景流程花費:11048.0768ms
2018/3/10 上午 04:47:19:背景流程花費:2417613.8815ms
2018/3/10 上午 04:47:29:背景流程花費:0ms
2018/3/10 上午 04:47:46:背景流程花費:12001.3637ms
2018/3/10 上午 04:48:03:背景流程花費:12001.2956ms
2018/3/10 上午 04:48:20:背景流程花費:11423.1741ms
2018/3/10 上午 04:48:37:背景流程花費:12016.9032ms
2018/3/10 上午 04:48:54:背景流程花費:12001.185ms
2018/3/10 上午 04:49:11:背景流程花費:12016.8166ms
2018/3/10 上午 04:49:28:背景流程花費:12001.2763ms
2018/3/10 上午 04:49:46:背景流程花費:12032.5322ms
2018/3/10 上午 04:50:03:背景流程花費:12016.8701ms
2018/3/10 上午 04:50:20:背景流程花費:11563.7599ms
2018/3/10 上午 04:50:37:背景流程花費:12016.8855ms
2018/3/10 上午 04:50:54:背景流程花費:12016.9051ms
2018/3/10 上午 04:51:11:背景流程花費:12016.9042ms
2018/3/10 上午 04:51:28:背景流程花費:12001.2499ms
2018/3/10 上午 04:51:45:背景流程花費:11860.6371ms
2018/3/10 上午 04:52:02:背景流程花費:12001.2752ms
2018/3/10 上午 04:52:20:背景流程花費:11407.433ms
2018/3/10 上午 04:52:37:背景流程花費:12016.8975ms
2018/3/10 上午 04:52:54:背景流程花費:12001.2829ms
2018/3/10 上午 04:53:11:背景流程花費:12001.2464ms
2018/3/10 上午 04:53:28:背景流程花費:12001.251ms
2018/3/10 上午 04:53:45:背景流程花費:11907.5322ms
2018/3/10 上午 04:54:02:背景流程花費:12001.2408ms
2018/3/10 上午 04:54:19:背景流程花費:12001.2765ms
2018/3/10 上午 04:54:36:背景流程花費:12001.2763ms
2018/3/10 上午 04:54:53:背景流程花費:12001.3129ms
2018/3/10 上午 04:55:10:背景流程花費:11938.773ms
2018/3/10 上午 04:55:27:背景流程花費:12001.3087ms
2018/3/10 上午 04:55:44:背景流程花費:12001.2933ms
2018/3/10 上午 04:56:01:背景流程花費:12001.2667ms
2018/3/10 上午 04:56:18:背景流程花費:12001.2746ms
2018/3/10 上午 04:56:35:背景流程花費:11907.5123ms
2018/3/10 上午 04:56:52:背景流程花費:12001.2766ms
2018/3/10 上午 04:57:09:背景流程花費:12001.2771ms
2018/3/10 上午 04:57:26:背景流程花費:12001.2834ms
2018/3/10 上午 04:57:43:背景流程花費:12001.2387ms
2018/3/10 上午 04:58:00:背景流程花費:11923.136ms
2018/3/10 上午 04:58:17:背景流程花費:12001.2797ms
2018/3/10 上午 04:58:34:背景流程花費:12001.2735ms
2018/3/10 上午 04:58:51:背景流程花費:12001.2757ms
2018/3/10 上午 04:59:08:背景流程花費:12001.2384ms
2018/3/10 上午 04:59:25:背景流程花費:11907.5172ms
2018/3/10 上午 04:59:42:背景流程花費:12001.2769ms
2018/3/10 上午 04:59:59:背景流程花費:12001.2766ms
2018/3/10 上午 05:00:16:背景流程花費:12001.2783ms
2018/3/10 上午 05:00:33:背景流程花費:12001.2692ms
2018/3/10 上午 05:00:50:背景流程花費:11923.1435ms
2018/3/10 上午 05:01:07:背景流程花費:12001.2766ms
2018/3/10 上午 05:01:24:背景流程花費:12001.2774ms
2018/3/10 上午 05:01:41:背景流程花費:12001.2757ms
2018/3/10 上午 05:01:58:背景流程花費:12001.2709ms
2018/3/10 上午 05:02:15:背景流程花費:11907.5172ms
2018/3/10 上午 05:02:32:背景流程花費:12001.2723ms
2018/3/10 上午 05:03:27:背景流程花費:12001.2771ms
2018/3/10 上午 05:03:41:背景流程花費:15.5432ms
2018/3/10 上午 05:03:58:背景流程花費:12001.2754ms
2018/3/10 上午 05:04:15:背景流程花費:12001.2769ms
2018/3/10 上午 05:04:32:背景流程花費:12001.2945ms
2018/3/10 上午 05:04:49:背景流程花費:12001.2752ms
2018/3/10 上午 05:05:06:背景流程花費:11938.7204ms
2018/3/10 上午 05:05:23:背景流程花費:12016.9034ms
2018/3/10 上午 05:05:40:背景流程花費:12001.3058ms
2018/3/10 上午 05:05:57:背景流程花費:12016.9071ms
2018/3/10 上午 05:06:14:背景流程花費:12016.8775ms
2018/3/10 上午 05:06:31:背景流程花費:11891.9021ms
2018/3/10 上午 05:06:48:背景流程花費:12001.282ms
2018/3/10 上午 05:07:05:背景流程花費:12016.8974ms
2018/3/10 上午 05:07:22:背景流程花費:12001.2769ms
2018/3/10 上午 05:07:39:背景流程花費:12001.2754ms
2018/3/10 上午 05:07:56:背景流程花費:11876.263ms
2018/3/10 上午 05:08:13:背景流程花費:12001.2826ms
2018/3/10 上午 05:08:30:背景流程花費:12001.2769ms
2018/3/10 上午 05:08:47:背景流程花費:12001.2763ms
2018/3/10 上午 05:09:04:背景流程花費:12001.2408ms
2018/3/10 上午 05:09:21:背景流程花費:11923.1437ms
2018/3/10 上午 05:09:38:背景流程花費:12001.2931ms
2018/3/10 上午 05:09:55:背景流程花費:12001.2763ms
2018/3/10 上午 05:10:12:背景流程花費:12001.2763ms
2018/3/10 上午 05:10:29:背景流程花費:12001.3045ms
2018/3/10 上午 05:10:46:背景流程花費:11954.3962ms
2018/3/10 上午 05:11:03:背景流程花費:12001.2775ms
2018/3/10 上午 05:11:20:背景流程花費:12001.245ms
2018/3/10 上午 05:11:36:背景流程花費:11048.0495ms
2018/3/10 上午 05:11:53:背景流程花費:12001.276ms
2018/3/10 上午 05:12:10:背景流程花費:12001.2751ms
2018/3/10 上午 05:12:27:背景流程花費:12001.2669ms
2018/3/10 上午 05:12:44:背景流程花費:12001.2504ms
2018/3/10 上午 05:13:01:背景流程花費:11923.1604ms
2018/3/10 上午 05:13:18:背景流程花費:12001.2825ms
2018/3/10 上午 05:13:35:背景流程花費:12001.2479ms
2018/3/10 上午 05:13:52:背景流程花費:12001.2788ms
2018/3/10 上午 05:14:09:背景流程花費:12001.2553ms
2018/3/10 上午 05:14:26:背景流程花費:11907.5422ms
2018/3/10 上午 05:14:43:背景流程花費:12016.909ms
2018/3/10 上午 05:15:00:背景流程花費:12001.3139ms
2018/3/10 上午 05:15:17:背景流程花費:12001.2794ms
2018/3/10 上午 05:15:34:背景流程花費:12001.2123ms
2018/3/10 上午 05:15:51:背景流程花費:11907.5104ms
2018/3/10 上午 05:16:08:背景流程花費:12016.9031ms
2018/3/10 上午 05:16:25:背景流程花費:12001.2729ms
2018/3/10 上午 05:16:42:背景流程花費:12001.2826ms
2018/3/10 上午 05:16:59:背景流程花費:12001.2433ms
2018/3/10 上午 05:17:16:背景流程花費:11923.1482ms
2018/3/10 上午 05:17:33:背景流程花費:12001.247ms
2018/3/10 上午 05:17:50:背景流程花費:12001.3036ms
2018/3/10 上午 05:18:07:背景流程花費:12001.3679ms
2018/3/10 上午 05:18:24:背景流程花費:12001.2143ms
2018/3/10 上午 05:18:41:背景流程花費:11923.1429ms
2018/3/10 上午 05:18:58:背景流程花費:12001.2763ms
2018/3/10 上午 05:19:15:背景流程花費:12001.245ms
2018/3/10 上午 05:19:32:背景流程花費:12001.2757ms
2018/3/10 上午 05:19:49:背景流程花費:12001.2744ms
2018/3/10 上午 05:20:06:背景流程花費:11907.4367ms
2018/3/10 上午 05:20:23:背景流程花費:12001.2732ms
2018/3/10 上午 05:20:40:背景流程花費:12001.2857ms
2018/3/10 上午 05:20:56:背景流程花費:11079.3025ms
2018/3/10 上午 05:21:13:背景流程花費:12001.2652ms
2018/3/10 上午 05:21:30:背景流程花費:12001.2723ms
2018/3/10 上午 05:21:47:背景流程花費:12001.2766ms
2018/3/10 上午 05:22:04:背景流程花費:12001.2507ms
2018/3/10 上午 05:22:21:背景流程花費:11954.3626ms
2018/3/10 上午 05:22:38:背景流程花費:12001.2945ms
2018/3/10 上午 05:22:55:背景流程花費:12001.2766ms
2018/3/10 上午 05:23:11:背景流程花費:11032.4298ms
2018/3/10 上午 05:23:28:背景流程花費:12001.282ms
2018/3/10 上午 05:23:45:背景流程花費:12001.2772ms
2018/3/10 上午 05:24:02:背景流程花費:12001.2769ms
2018/3/10 上午 05:24:20:背景流程花費:12001.2203ms
2018/3/10 上午 05:24:36:背景流程花費:11938.77ms
2018/3/10 上午 05:24:53:背景流程花費:12001.2825ms
2018/3/10 上午 05:25:10:背景流程花費:12001.2695ms
2018/3/10 上午 05:25:27:背景流程花費:11063.6692ms
2018/3/10 上午 05:25:44:背景流程花費:12001.2487ms
2018/3/10 上午 05:26:01:背景流程花費:12001.2707ms
2018/3/10 上午 05:26:18:背景流程花費:12001.2771ms
2018/3/10 上午 05:26:35:背景流程花費:12001.2425ms
2018/3/10 上午 05:26:52:背景流程花費:11923.1414ms
2018/3/10 上午 05:27:09:背景流程花費:12001.2766ms
2018/3/10 上午 05:27:26:背景流程花費:12001.2698ms
2018/3/10 上午 05:27:43:背景流程花費:12001.2706ms
2018/3/10 上午 05:28:00:背景流程花費:12001.2468ms
2018/3/10 上午 05:28:17:背景流程花費:11938.7677ms
2018/3/10 上午 05:28:34:背景流程花費:12001.2769ms
2018/3/10 上午 05:28:51:背景流程花費:12001.276ms
2018/3/10 上午 05:29:07:背景流程花費:11048.0561ms
2018/3/10 上午 05:29:24:背景流程花費:12016.9022ms
2018/3/10 上午 05:29:41:背景流程花費:12001.2831ms
2018/3/10 上午 05:29:58:背景流程花費:12001.2837ms
2018/3/10 上午 05:30:15:背景流程花費:12001.2524ms
2018/3/10 上午 05:30:32:背景流程花費:11891.8912ms
2018/3/10 上午 05:30:49:背景流程花費:12016.9034ms
2018/3/10 上午 05:31:06:背景流程花費:12001.2765ms
2018/3/10 上午 05:31:23:背景流程花費:12001.2766ms
2018/3/10 上午 05:31:40:背景流程花費:12001.2421ms
2018/3/10 上午 05:31:57:背景流程花費:11907.5135ms
2018/3/10 上午 05:32:14:背景流程花費:12001.2057ms
2018/3/10 上午 05:32:31:背景流程花費:12001.2763ms
2018/3/10 上午 05:32:48:背景流程花費:12001.276ms
2018/3/10 上午 05:33:05:背景流程花費:12001.259ms
2018/3/10 上午 05:33:22:背景流程花費:12001.2766ms
2018/3/10 上午 05:33:39:背景流程花費:12001.2751ms
2018/3/10 上午 05:33:56:背景流程花費:12001.2751ms
2018/3/10 上午 05:34:13:背景流程花費:12001.2501ms
2018/3/10 上午 05:34:30:背景流程花費:12001.2552ms
2018/3/10 上午 05:34:47:背景流程花費:11938.7787ms
2018/3/10 上午 05:35:04:背景流程花費:12001.2812ms
2018/3/10 上午 05:35:21:背景流程花費:12001.2774ms
2018/3/10 上午 05:35:38:背景流程花費:12001.2835ms
2018/3/10 上午 05:35:55:背景流程花費:12001.2421ms
2018/3/10 上午 05:36:12:背景流程花費:11923.146ms
2018/3/10 上午 05:36:29:背景流程花費:12001.2769ms
2018/3/10 上午 05:36:46:背景流程花費:12001.2778ms
2018/3/10 上午 05:37:03:背景流程花費:12001.2789ms
2018/3/10 上午 05:37:20:背景流程花費:12001.2766ms
2018/3/10 上午 05:37:37:背景流程花費:12001.2766ms
2018/3/10 上午 05:37:54:背景流程花費:12001.2766ms
2018/3/10 上午 05:38:11:背景流程花費:12001.2766ms
2018/3/10 上午 05:38:27:背景流程花費:11032.4306ms
2018/3/10 上午 05:38:44:背景流程花費:12001.2828ms
2018/3/10 上午 05:39:01:背景流程花費:12001.2823ms
2018/3/10 上午 05:39:17:背景流程花費:11032.419ms
2018/3/10 上午 05:39:34:背景流程花費:12001.2772ms
2018/3/10 上午 05:39:51:背景流程花費:12001.2769ms
2018/3/10 上午 05:40:08:背景流程花費:12001.2757ms
2018/3/10 上午 05:40:25:背景流程花費:12001.28ms
2018/3/10 上午 05:40:42:背景流程花費:11907.5166ms
2018/3/10 上午 05:40:59:背景流程花費:12001.2703ms
2018/3/10 上午 05:41:16:背景流程花費:12001.323ms
2018/3/10 上午 05:41:33:背景流程花費:12001.3039ms
2018/3/10 上午 05:41:50:背景流程花費:12001.2436ms
2018/3/10 上午 05:42:07:背景流程花費:11907.5158ms
2018/3/10 上午 05:42:24:背景流程花費:12016.9361ms
2018/3/10 上午 05:42:41:背景流程花費:12001.2766ms
2018/3/10 上午 05:42:58:背景流程花費:12001.2752ms
2018/3/10 上午 05:43:15:背景流程花費:12001.2382ms
2018/3/10 上午 05:43:32:背景流程花費:12001.2828ms
2018/3/10 上午 05:43:49:背景流程花費:12001.274ms
2018/3/10 上午 05:44:06:背景流程花費:12001.2763ms
2018/3/10 上午 05:44:23:背景流程花費:12001.2714ms
2018/3/10 上午 05:44:40:背景流程花費:12001.2598ms
2018/3/10 上午 05:44:57:背景流程花費:11954.3979ms
2018/3/10 上午 05:45:14:背景流程花費:12016.9282ms
2018/3/10 上午 05:45:31:背景流程花費:12001.278ms
2018/3/10 上午 05:45:48:背景流程花費:12001.3054ms
2018/3/10 上午 05:46:05:背景流程花費:12001.2467ms
2018/3/10 上午 05:46:22:背景流程花費:11907.5175ms
2018/3/10 上午 05:46:39:背景流程花費:12016.9386ms
2018/3/10 上午 05:46:56:背景流程花費:12001.2766ms
2018/3/10 上午 05:47:13:背景流程花費:12001.2766ms
2018/3/10 上午 05:47:30:背景流程花費:12001.2783ms
2018/3/10 上午 05:47:47:背景流程花費:11891.8906ms
2018/3/10 上午 05:48:04:背景流程花費:12001.3059ms
2018/3/10 上午 05:48:21:背景流程花費:12001.3061ms
2018/3/10 上午 05:48:37:背景流程花費:11079.2803ms
2018/3/10 上午 05:48:54:背景流程花費:12001.2763ms
2018/3/10 上午 05:49:11:背景流程花費:12001.27ms
2018/3/10 上午 05:49:28:背景流程花費:12001.2775ms
2018/3/10 上午 05:49:45:背景流程花費:12001.2399ms
2018/3/10 上午 05:50:02:背景流程花費:11907.509ms
2018/3/10 上午 05:50:19:背景流程花費:12001.2771ms
2018/3/10 上午 05:50:36:背景流程花費:12001.2831ms
2018/3/10 上午 05:50:53:背景流程花費:12001.2749ms
2018/3/10 上午 05:51:10:背景流程花費:12001.2644ms
2018/3/10 上午 05:51:27:背景流程花費:11985.6498ms
2018/3/10 上午 05:51:44:背景流程花費:12001.2778ms
2018/3/10 上午 05:52:01:背景流程花費:12001.2692ms
2018/3/10 上午 05:52:18:背景流程花費:12001.2766ms
2018/3/10 上午 05:52:35:背景流程花費:12001.2583ms
2018/3/10 上午 05:52:52:背景流程花費:11970.0232ms
2018/3/10 上午 05:53:09:背景流程花費:12001.2778ms
2018/3/10 上午 05:53:26:背景流程花費:12001.2772ms
2018/3/10 上午 05:53:44:背景流程花費:12001.2766ms
2018/3/10 上午 05:54:01:背景流程花費:12001.2533ms
2018/3/10 上午 05:54:18:背景流程花費:11970.0226ms
2018/3/10 上午 05:54:35:背景流程花費:12001.2689ms
2018/3/10 上午 05:54:52:背景流程花費:12001.2695ms
2018/3/10 上午 05:55:08:背景流程花費:11016.797ms
2018/3/10 上午 05:55:25:背景流程花費:12001.2772ms
2018/3/10 上午 05:55:42:背景流程花費:12001.2769ms
2018/3/10 上午 05:55:58:背景流程花費:11048.0785ms
2018/3/10 上午 05:56:15:背景流程花費:12001.276ms
2018/3/10 上午 05:56:32:背景流程花費:12016.9085ms
2018/3/10 上午 05:56:49:背景流程花費:12001.2763ms
2018/3/10 上午 05:57:06:背景流程花費:12001.2786ms
2018/3/10 上午 05:57:23:背景流程花費:12001.2763ms
2018/3/10 上午 05:57:40:背景流程花費:12001.2823ms
2018/3/10 上午 05:57:57:背景流程花費:12001.2768ms
2018/3/10 上午 05:58:14:背景流程花費:12001.2772ms
2018/3/10 上午 05:58:31:背景流程花費:12001.268ms
2018/3/10 上午 05:58:48:背景流程花費:11970.023ms
2018/3/10 上午 05:59:05:背景流程花費:12001.2763ms
2018/3/10 上午 05:59:22:背景流程花費:12001.2814ms
2018/3/10 上午 05:59:38:背景流程花費:11032.4238ms
2018/3/10 上午 05:59:55:背景流程花費:12001.2774ms
2018/3/10 上午 06:00:12:背景流程花費:12001.2763ms
2018/3/10 上午 06:00:29:背景流程花費:12001.2768ms
