^E:\HADI\BELAJAR\VB.NET\MODBUS SAMPLE VB\MODBUS SAMPLE VB\FORM1.RESX|E:\HADI\BELAJAR\VB.NET\MODBUS SAMPLE VB\MODBUS SAMPLE VB\FRMSTART.RESX|E:\HADI\BELAJAR\VB.NET\MODBUS SAMPLE VB\MODBUS SAMPLE VB\MY PROJECT\RESOURCES.RESX
E:\HADI\BELAJAR\VB.NET\MODBUS SAMPLE VB\MODBUS SAMPLE VB\OBJ\X86\DEBUG\MODBUS_SAMPLE_VB.MODBUS.FRMSTART.RESOURCES
E:\HADI\BELAJAR\VB.NET\MODBUS SAMPLE VB\MODBUS SAMPLE VB\OBJ\X86\DEBUG\MODBUS_SAMPLE_VB.RESOURCES.RESOURCES
^E:\HADI\BELAJAR\VB.NET\MODBUS SAMPLE VB\MODBUS SAMPLE VB\FRMSTART2.RESX|E:\HADI\BELAJAR\VB.NET\MODBUS SAMPLE VB\MODBUS SAMPLE VB\MY PROJECT\RESOURCES.RESX
E:\HADI\BELAJAR\VB.NET\MODBUS SAMPLE VB\MODBUS SAMPLE VB\OBJ\X86\DEBUG\MODBUS_SAMPLE_VB.MODBUS.FRMSTART2.RESOURCES
E:\HADI\BELAJAR\VB.NET\MODBUS SAMPLE VB\MODBUS SAMPLE VB\OBJ\X86\DEBUG\MODBUS_SAMPLE_VB.RESOURCES.RESOURCES
^E:\HADI\BELAJAR\VB.NET\MODBUS SAMPLE VB\MODBUS SAMPLE VB\FRMSTART.RESX|E:\HADI\BELAJAR\VB.NET\MODBUS SAMPLE VB\MODBUS SAMPLE VB\MY PROJECT\RESOURCES.RESX
E:\HADI\BELAJAR\VB.NET\MODBUS SAMPLE VB\MODBUS SAMPLE VB\OBJ\X86\DEBUG\MODBUS_SAMPLE_VB.MODBUS.FRMSTART.RESOURCES
E:\HADI\BELAJAR\VB.NET\MODBUS SAMPLE VB\MODBUS SAMPLE VB\OBJ\X86\DEBUG\MODBUS_SAMPLE_VB.RESOURCES.RESOURCES
E:\HADI\BELAJAR\VB.NET\MODBUS SAMPLE VB\MODBUS SAMPLE VB\OBJ\X86\DEBUG\MODBUS_SAMPLE_VB.FRMSTART.RESOURCES
^E:\HADI\BELAJAR\VB.NET\MODBUS SAMPLE VB\MODBUS SAMPLE VB\FRMSTART.RESX|E:\HADI\BELAJAR\VB.NET\MODBUS SAMPLE VB\MODBUS SAMPLE VB\FRMSTART2.RESX|E:\HADI\BELAJAR\VB.NET\MODBUS SAMPLE VB\MODBUS SAMPLE VB\MY PROJECT\RESOURCES.RESX
E:\HADI\BELAJAR\VB.NET\MODBUS SAMPLE VB\MODBUS SAMPLE VB\OBJ\X86\DEBUG\MODBUS_SAMPLE_VB.FRMSTART.RESOURCES
E:\HADI\BELAJAR\VB.NET\MODBUS SAMPLE VB\MODBUS SAMPLE VB\OBJ\X86\DEBUG\MODBUS_SAMPLE_VB.FRMSTART2.RESOURCES
E:\HADI\BELAJAR\VB.NET\MODBUS SAMPLE VB\MODBUS SAMPLE VB\OBJ\X86\DEBUG\MODBUS_SAMPLE_VB.RESOURCES.RESOURCES
^H:\HADI\BELAJAR\VB.NET\MODBUS SAMPLE VB\MODBUS SAMPLE VB\FRMSTART.RESX|H:\HADI\BELAJAR\VB.NET\MODBUS SAMPLE VB\MODBUS SAMPLE VB\MY PROJECT\RESOURCES.RESX
H:\HADI\BELAJAR\VB.NET\MODBUS SAMPLE VB\MODBUS SAMPLE VB\OBJ\X86\DEBUG\MODBUS_SAMPLE_VB.RESOURCES.RESOURCES
H:\HADI\BELAJAR\VB.NET\MODBUS SAMPLE VB\MODBUS SAMPLE VB\OBJ\X86\DEBUG\MODBUS_SAMPLE_VB.FRMSTART.RESOURCES
