                    SECURITY CONFIGURATION REPORT

Date: 2007/05/16
Time: 10:17:09
Userbased: ENABLED
Use Global Security Paths: DISABLED

Security Area Names
Area: 1,F1FP_SE
Area: 2,F1FP_OP
Area: 3,C1CR_SE
Area: 4,C1CR_OP
Area: 5,F1MEP_SE
Area: 6,F1MEP_OP
Area: 7,F1WW_SE
Area: 8,F1WW_OP
Area: 9,F1UPW_SE
Area: 10,F1UPW_OP
Area: 11,C1CML_SE
Area: 12,C1CML_OP
Area: 13,F1VOC_SE
Area: 14,F1VOC_OP
Area: 15,F1CHR_SE
Area: 16,F1CHR_OP
Area: 17,F1PWR_SE
Area: 18,F1PWR_OP
Area: 19,FAC
Area: 20,LEVEL1
Area: 21,LEVEL2
Area: 22,LEVEL3
Area: 23,LEVEL4
Area: 24,LEVEL21
Area: 25,LEVEL22
Area: 26,LEVEL23
Area: 27,LEVEL24
Area: 28,F1PLU_SE
Area: 29,F1PLU_OP
Area: 30
Area: 31,F2FP_SE
Area: 32,F2FP_OP
Area: 33,C2CR_SE
Area: 34,C2CR_OP
Area: 35,F2MEP_SE
Area: 36,F2MEP_OP
Area: 37
Area: 38
Area: 39,F2UPW_SE
Area: 40,F2UPW_OP
Area: 41,C2CML_SE
Area: 42,C2CML_OP
Area: 43,F2VOC_SE
Area: 44,F2VOC_OP
Area: 45,F2CHR_SE
Area: 46,F2CHR_OP
Area: 47,F2PWR_SE
Area: 48,F2PWR_OP
Area: 49, 
Area: 50,  
Area: 51
Area: 52
Area: 53
Area: 54
Area: 55
Area: 56
Area: 57
Area: 58,F2PLU_SE
Area: 59,F2PLU_OP
Area: 60
Area: 61
Area: 62
Area: 63
Area: 64
Area: 65
Area: 66
Area: 67
Area: 68
Area: 69
Area: 70
Area: 71
Area: 72
Area: 73
Area: 74
Area: 75
Area: 76
Area: 77
Area: 78
Area: 79
Area: 80
Area: 81
Area: 82
Area: 83
Area: 84
Area: 85
Area: 86
Area: 87
Area: 88
Area: 89
Area: 90
Area: 91
Area: 92
Area: 93
Area: 94
Area: 95
Area: 96
Area: 97
Area: 98
Area: 99
Area: 100
Area: 101
Area: 102
Area: 103
Area: 104
Area: 105
Area: 106
Area: 107
Area: 108
Area: 109
Area: 110
Area: 111
Area: 112
Area: 113
Area: 114
Area: 115
Area: 116
Area: 117
Area: 118
Area: 119
Area: 120
Area: 121
Area: 122
Area: 123
Area: 124
Area: 125
Area: 126
Area: 127
Area: 128
Area: 129
Area: 130
Area: 131
Area: 132
Area: 133
Area: 134
Area: 135
Area: 136
Area: 137
Area: 138
Area: 139
Area: 140
Area: 141
Area: 142
Area: 143
Area: 144
Area: 145
Area: 146
Area: 147
Area: 148
Area: 149
Area: 150
Area: 151
Area: 152
Area: 153
Area: 154
Area: 155
Area: 156
Area: 157
Area: 158
Area: 159
Area: 160
Area: 161
Area: 162
Area: 163
Area: 164
Area: 165
Area: 166
Area: 167
Area: 168
Area: 169
Area: 170
Area: 171
Area: 172
Area: 173
Area: 174
Area: 175
Area: 176
Area: 177
Area: 178
Area: 179
Area: 180
Area: 181
Area: 182
Area: 183
Area: 184
Area: 185
Area: 186
Area: 187
Area: 188
Area: 189
Area: 190
Area: 191
Area: 192
Area: 193
Area: 194
Area: 195
Area: 196
Area: 197
Area: 198
Area: 199
Area: 200
Area: 201
Area: 202
Area: 203
Area: 204
Area: 205
Area: 206
Area: 207
Area: 208
Area: 209
Area: 210
Area: 211
Area: 212
Area: 213
Area: 214
Area: 215
Area: 216
Area: 217
Area: 218
Area: 219
Area: 220
Area: 221
Area: 222
Area: 223
Area: 224
Area: 225
Area: 226
Area: 227
Area: 228
Area: 229
Area: 230
Area: 231
Area: 232
Area: 233
Area: 234
Area: 235
Area: 236
Area: 237
Area: 238
Area: 239
Area: 240
Area: 241
Area: 242
Area: 243
Area: 244
Area: 245
Area: 246
Area: 247
Area: 248
Area: 249
Area: 250
Area: 251
Area: 252
Area: 253
Area: 254

Group: FAC
Area: FAC
Feature: WorkSpace Runtime
Feature: Manual Failover

Group: SUPERVISORS
Area: F1FP_OP
Area: C1CR_OP
Area: F1MEP_OP
Area: F1WW_OP
Area: F1UPW_OP
Area: C1CML_OP
Area: F1VOC_OP
Area: F1CHR_OP
Area: F1PWR_SE
Area: F1PWR_OP
Area: FAC
Area: LEVEL2
Area: LEVEL4
Area: LEVEL22
Area: LEVEL24
Area: F1PLU_OP
Area: F2FP_OP
Area: C2CR_OP
Area: F2MEP_OP
Area: F2UPW_OP
Area: C2CML_OP
Area: F2VOC_OP
Area: F2CHR_OP
Area: F2PWR_SE
Area: F2PWR_OP
Area: F2PLU_OP
Feature: Database Manager
Feature: WorkSpace Runtime
Feature: WorkSpace Configure
Feature: Fix32 - Report Creator
Feature: Background Task Exit
Feature: Fix32 - Key Macro Editor
Feature: Fix32 - Operating System Window
Feature: Historical Trend Assign
Feature: Security Synchronizer
Feature: System Configuration
Feature: Security Configuration
Feature: Manual Failover
Feature: Project Backup-Restore
Feature: Runtime Visual Basic Editor Access
Feature: iFIX - System Shutdown
Feature: Fix32 - Alarm Summary Display
Feature: Fix32 - Historical Trend Display
Feature: Tag Group Editor
Feature: Fix32 - Run a Task from View
Feature: System User Login
Feature: Recipe Load
Feature: Recipe Save
Feature: Fix32 - Report Generator
Feature: Historical Trend Collection
Feature: Fix32 - Historical Display Configuration
Feature: WorkSpace Runtime Exit
Feature: Database Reload
Feature: Database Save
Feature: Database Block Add-Delete
Feature: System User Logout
Feature: Recipe Builder Operations Window
Feature: Recipe Builder Development Window
Feature: Recipe Save from Recipe Builder
Feature: Recipe Download from Recipe Builder
Feature: Recipe Upload from Recipe Builder
Feature: Recipe Text Output from Recipe Builder
Feature: Enable Task Switching
Feature: Enable Ctrl-Alt-Del
Feature: Fix32 - Historical Trend Display View Only
Feature: Intellution OEM Reserved 1
Feature: Intellution OEM Reserved 2
Feature: Intellution OEM Reserved 3
Feature: Intellution OEM Reserved 4
Feature: Intellution OEM Reserved 5
Feature: Intellution OEM Reserved 6
Feature: Intellution OEM Reserved 7
Feature: Intellution OEM Reserved 8
Feature: Intellution OEM Reserved 9
Feature: Intellution OEM Reserved 10
Feature: Intellution OEM Reserved 11
Feature: Intellution OEM Reserved 12
Feature: Historical Trend Export
Feature: Electronic Signature - Perform By
Feature: Electronic Signature - Verify By
Feature: Application Validator - Run-time Access
Feature: Application Validator - Creation of Baselines
Feature: Startup Profile Manager
Feature: iBatch - Configuration
Feature: iBatch - Server Startup
Feature: iBatch - Server Shutdown
Feature: iBatch - Recipe Editor Startup
Feature: iBatch - Save Recipes
Feature: iBatch - Create Recipes
Feature: iBatch - Remove Recipes
Feature: iBatch - Release Recipes to Production
Feature: iBatch - Rebuild Recipe Directory
Feature: iBatch - Equipment Editor Startup
Feature: iBatch - Save Equipment Configuration
Feature: iBatch - Create Equipment Configuration
Feature: iBatch - Client Startup
Feature: iBatch - Client Shutdown
Feature: iBatch - Configure the Client
Feature: iBatch - Start Batch
Feature: iBatch - Stop Batch
Feature: iBatch - Hold Batch
Feature: iBatch - Restart Batch
Feature: iBatch - Abort Batch
Feature: iBatch - Add Batch
Feature: iBatch - Remove Batch
Feature: iBatch - Change to Auto-Manual Mode
Feature: iBatch - Allow Phase Control
Feature: iBatch - Go to HMI
Feature: iBatch - Clear All Failures
Feature: iBatch - Archiver Startup
Feature: iBatch - Simulator Startup
Feature: iBatch - Allow Help from Client
Feature: iBatch - Allow Demo Mode
Feature: iBatch - Intellution Workspace Startup
Feature: iBatch - Save from Intellution Workspace
Feature: iBatch - Misc Item Deletion from Intellution Workspace
Feature: iBatch - Create New Project in Intellution Workspace
Feature: iBatch - Archiver Startup From Mgr
Feature: iBatch - Archiver Shutdown From Mgr
Feature: iBatch - Rebind Unit Procedure
Feature: iBatch - Acknowledge Prompts
Feature: iBatch - Allow Arbitration View
Feature: iBatch - Acquire and Release Resources
Feature: iBatch - Acquire Phase for Manual Control
Feature: iBatch - Start SoftPhase Server
Feature: iBatch - Stop SoftPhase Server
Feature: iBatch - Start iWorkInstruction Editor
Feature: EDA Feature  1
Feature: EDA Feature  2
Feature: EDA Feature  3
Feature: EDA Feature  4
Feature: EDA Feature  5
Feature: EDA Feature  6
Feature: EDA Feature  7
Feature: EDA Feature  8
Feature: EDA Feature  9
Feature: EDA Feature 10
Feature: EDA Feature 11
Feature: EDA Feature 12
Feature: EDA Feature 13
Feature: EDA Feature 14
Feature: EDA Feature 15
Feature: EDA Feature 16
Feature: EDA Feature 17
Feature: EDA Feature 18
Feature: EDA Feature 19
Feature: EDA Feature 20
Feature: EDA Feature 21
Feature: EDA Feature 22
Feature: EDA Feature 23
Feature: EDA Feature 24
Feature: EDA Feature 25
Feature: EDA Feature 26
Feature: EDA Feature 27
Feature: EDA Feature 28
Feature: EDA Feature 29
Feature: EDA Feature 30
Feature: EDA Feature 31
Feature: EDA Feature 32
Feature: EDA Feature 33
Feature: EDA Feature 34
Feature: EDA Feature 35
Feature: EDA Feature 36
Feature: EDA Feature 37
Feature: EDA Feature 38
Feature: EDA Feature 39
Feature: EDA Feature 40
Feature: EDA Feature 41
Feature: EDA Feature 42
Feature: EDA Feature 43
Feature: EDA Feature 44
Feature: EDA Feature 45
Feature: EDA Feature 46
Feature: EDA Feature 47
Feature: EDA Feature 48
Feature: EDA Feature 49
Feature: EDA Feature 50
Feature: EDA Feature 51
Feature: EDA Feature 52
Feature: EDA Feature 53
Feature: EDA Feature 54
Feature: EDA Feature 55

Group: B311SE
Area: F1FP_SE
Area: F1FP_OP
Area: C1CR_SE
Area: C1CR_OP
Area: F1MEP_SE
Area: F1MEP_OP
Area: F1WW_OP
Area: F1UPW_OP
Area: C1CML_OP
Area: F1VOC_SE
Area: F1VOC_OP
Area: F1CHR_SE
Area: F1CHR_OP
Area: F1PWR_OP
Area: FAC
Area: LEVEL2
Area: LEVEL4
Area: LEVEL22
Area: LEVEL24
Area: F1PLU_OP
Area: F2FP_SE
Area: F2FP_OP
Area: C2CR_SE
Area: C2CR_OP
Area: F2MEP_SE
Area: F2MEP_OP
Area: F2UPW_OP
Area: C2CML_OP
Area: F2VOC_SE
Area: F2VOC_OP
Area: F2CHR_SE
Area: F2CHR_OP
Area: F2PWR_OP
Area: F2PLU_OP
Feature: WorkSpace Runtime
Feature: Background Task Exit
Feature: Historical Trend Assign
Feature: Manual Failover
Feature: iFIX - System Shutdown
Feature: Historical Trend Collection
Feature: WorkSpace Runtime Exit
Feature: Database Save
Feature: Enable Task Switching
Feature: Enable Ctrl-Alt-Del

Group: B312SE
Area: F1FP_SE
Area: F1FP_OP
Area: C1CR_SE
Area: C1CR_OP
Area: F1MEP_SE
Area: F1MEP_OP
Area: F1WW_OP
Area: F1UPW_OP
Area: C1CML_OP
Area: F1VOC_SE
Area: F1VOC_OP
Area: F1CHR_SE
Area: F1CHR_OP
Area: F1PWR_OP
Area: FAC
Area: LEVEL2
Area: LEVEL4
Area: LEVEL22
Area: LEVEL24
Area: F1PLU_OP
Area: F2FP_SE
Area: F2FP_OP
Area: C2CR_SE
Area: C2CR_OP
Area: F2MEP_SE
Area: F2MEP_OP
Area: F2UPW_OP
Area: C2CML_OP
Area: F2VOC_SE
Area: F2VOC_OP
Area: F2CHR_SE
Area: F2CHR_OP
Area: F2PWR_OP
Area: F2PLU_OP
Feature: WorkSpace Runtime
Feature: Background Task Exit
Feature: Historical Trend Assign
Feature: Manual Failover
Feature: iFIX - System Shutdown
Feature: Historical Trend Collection
Feature: WorkSpace Runtime Exit
Feature: Database Save
Feature: Enable Task Switching
Feature: Enable Ctrl-Alt-Del

Group: UPWSE
Area: F1FP_OP
Area: C1CR_OP
Area: F1MEP_OP
Area: F1WW_SE
Area: F1WW_OP
Area: F1UPW_SE
Area: F1UPW_OP
Area: C1CML_OP
Area: F1VOC_OP
Area: F1CHR_OP
Area: F1PWR_OP
Area: FAC
Area: LEVEL2
Area: LEVEL4
Area: LEVEL22
Area: LEVEL24
Area: F1PLU_OP
Area: F2FP_OP
Area: C2CR_OP
Area: F2MEP_OP
Area: F2UPW_SE
Area: F2UPW_OP
Area: C2CML_OP
Area: F2VOC_OP
Area: F2CHR_OP
Area: F2PWR_OP
Area: F2PLU_OP
Feature: WorkSpace Runtime
Feature: Background Task Exit
Feature: Historical Trend Assign
Feature: Manual Failover
Feature: iFIX - System Shutdown
Feature: Historical Trend Collection
Feature: WorkSpace Runtime Exit
Feature: Database Save
Feature: Enable Task Switching
Feature: Enable Ctrl-Alt-Del

Group: WWTSE
Area: F1FP_OP
Area: C1CR_OP
Area: F1MEP_OP
Area: F1WW_SE
Area: F1WW_OP
Area: F1UPW_SE
Area: F1UPW_OP
Area: C1CML_OP
Area: F1VOC_OP
Area: F1CHR_OP
Area: F1PWR_OP
Area: FAC
Area: LEVEL2
Area: LEVEL4
Area: LEVEL22
Area: LEVEL24
Area: F1PLU_OP
Area: F2FP_OP
Area: C2CR_OP
Area: F2MEP_OP
Area: F2UPW_SE
Area: F2UPW_OP
Area: C2CML_OP
Area: F2VOC_OP
Area: F2CHR_OP
Area: F2PWR_OP
Area: F2PLU_OP
Feature: WorkSpace Runtime
Feature: Background Task Exit
Feature: Historical Trend Assign
Feature: Manual Failover
Feature: iFIX - System Shutdown
Feature: Historical Trend Collection
Feature: WorkSpace Runtime Exit
Feature: Database Save
Feature: Enable Task Switching
Feature: Enable Ctrl-Alt-Del

Group: B341OP
Area: F1FP_OP
Area: C1CR_OP
Area: F1MEP_OP
Area: F1WW_SE
Area: F1WW_OP
Area: F1UPW_SE
Area: F1UPW_OP
Area: C1CML_SE
Area: C1CML_OP
Area: F1VOC_OP
Area: F1CHR_OP
Area: F1PWR_OP
Area: FAC
Area: LEVEL2
Area: LEVEL4
Area: LEVEL22
Area: LEVEL24
Area: F1PLU_OP
Area: F2FP_OP
Area: C2CR_OP
Area: F2MEP_OP
Area: F2UPW_SE
Area: F2UPW_OP
Area: C2CML_SE
Area: C2CML_OP
Area: F2VOC_OP
Area: F2CHR_OP
Area: F2PWR_OP
Area: F2PLU_OP
Feature: WorkSpace Runtime
Feature: Background Task Exit
Feature: Manual Failover
Feature: iFIX - System Shutdown
Feature: WorkSpace Runtime Exit
Feature: Database Save
Feature: Enable Task Switching
Feature: Enable Ctrl-Alt-Del

Group: B342OP
Area: F1FP_OP
Area: C1CR_OP
Area: F1MEP_OP
Area: F1WW_SE
Area: F1WW_OP
Area: F1UPW_SE
Area: F1UPW_OP
Area: C1CML_SE
Area: C1CML_OP
Area: F1VOC_OP
Area: F1CHR_OP
Area: F1PWR_OP
Area: FAC
Area: LEVEL1
Area: LEVEL2
Area: LEVEL4
Area: LEVEL21
Area: LEVEL22
Area: LEVEL24
Area: F1PLU_OP
Area: F2FP_OP
Area: C2CR_OP
Area: F2MEP_OP
Area: F2UPW_SE
Area: F2UPW_OP
Area: C2CML_SE
Area: C2CML_OP
Area: F2VOC_OP
Area: F2CHR_OP
Area: F2PWR_OP
Area: F2PLU_OP
Feature: WorkSpace Runtime
Feature: Background Task Exit
Feature: Manual Failover
Feature: iFIX - System Shutdown
Feature: WorkSpace Runtime Exit
Feature: Database Save
Feature: Enable Task Switching
Feature: Enable Ctrl-Alt-Del

Group: B343OP
Area: F1FP_OP
Area: C1CR_OP
Area: F1MEP_OP
Area: F1WW_SE
Area: F1WW_OP
Area: F1UPW_SE
Area: F1UPW_OP
Area: C1CML_SE
Area: C1CML_OP
Area: F1VOC_OP
Area: F1CHR_OP
Area: F1PWR_OP
Area: FAC
Area: LEVEL2
Area: LEVEL4
Area: LEVEL22
Area: LEVEL24
Area: F1PLU_OP
Area: F2FP_OP
Area: C2CR_OP
Area: F2MEP_OP
Area: F2UPW_SE
Area: F2UPW_OP
Area: C2CML_SE
Area: C2CML_OP
Area: F2VOC_OP
Area: F2CHR_OP
Area: F2PWR_OP
Area: F2PLU_OP
Feature: WorkSpace Runtime
Feature: Background Task Exit
Feature: Manual Failover
Feature: iFIX - System Shutdown
Feature: WorkSpace Runtime Exit
Feature: Database Save
Feature: Enable Task Switching
Feature: Enable Ctrl-Alt-Del

Group: LEVEL1
Area: F1FP_OP
Area: C1CR_OP
Area: F1MEP_OP
Area: F1WW_OP
Area: F1UPW_OP
Area: C1CML_OP
Area: F1VOC_OP
Area: F1CHR_OP
Area: F1PWR_OP
Area: FAC
Area: LEVEL1
Area: LEVEL2
Area: LEVEL3
Area: LEVEL4
Area: LEVEL21
Area: LEVEL22
Area: LEVEL23
Area: LEVEL24
Area: F1PLU_OP
Area: F2FP_OP
Area: C2CR_OP
Area: F2MEP_OP
Area: F2UPW_OP
Area: C2CML_OP
Area: F2VOC_OP
Area: F2CHR_OP
Area: F2PWR_OP
Area: F2PLU_OP
Feature: Database Manager
Feature: WorkSpace Runtime
Feature: WorkSpace Configure
Feature: Fix32 - Report Creator
Feature: Background Task Exit
Feature: Fix32 - Key Macro Editor
Feature: Fix32 - Operating System Window
Feature: Historical Trend Assign
Feature: System Configuration
Feature: Manual Failover
Feature: Project Backup-Restore
Feature: Runtime Visual Basic Editor Access
Feature: iFIX - System Shutdown
Feature: Fix32 - Alarm Summary Display
Feature: Fix32 - Historical Trend Display
Feature: Tag Group Editor
Feature: Fix32 - Run a Task from View
Feature: System User Login
Feature: Recipe Load
Feature: Recipe Save
Feature: Fix32 - Report Generator
Feature: Historical Trend Collection
Feature: Fix32 - Historical Display Configuration
Feature: WorkSpace Runtime Exit
Feature: Database Reload
Feature: Database Save
Feature: Database Block Add-Delete
Feature: System User Logout
Feature: Recipe Builder Operations Window
Feature: Recipe Builder Development Window
Feature: Recipe Save from Recipe Builder
Feature: Recipe Download from Recipe Builder
Feature: Recipe Upload from Recipe Builder
Feature: Recipe Text Output from Recipe Builder
Feature: Enable Task Switching
Feature: Enable Ctrl-Alt-Del
Feature: Fix32 - Historical Trend Display View Only
Feature: Intellution OEM Reserved 1
Feature: Intellution OEM Reserved 2
Feature: Intellution OEM Reserved 3
Feature: Intellution OEM Reserved 4
Feature: Intellution OEM Reserved 5
Feature: Intellution OEM Reserved 6
Feature: Intellution OEM Reserved 7
Feature: Intellution OEM Reserved 8
Feature: Intellution OEM Reserved 9
Feature: Intellution OEM Reserved 10
Feature: Intellution OEM Reserved 11
Feature: Intellution OEM Reserved 12
Feature: Historical Trend Export
Feature: Electronic Signature - Perform By
Feature: Electronic Signature - Verify By
Feature: Application Validator - Run-time Access
Feature: Application Validator - Creation of Baselines
Feature: Startup Profile Manager
Feature: iBatch - Configuration
Feature: iBatch - Server Startup
Feature: iBatch - Server Shutdown
Feature: iBatch - Recipe Editor Startup
Feature: iBatch - Save Recipes
Feature: iBatch - Create Recipes
Feature: iBatch - Remove Recipes
Feature: iBatch - Release Recipes to Production
Feature: iBatch - Rebuild Recipe Directory
Feature: iBatch - Equipment Editor Startup
Feature: iBatch - Save Equipment Configuration
Feature: iBatch - Create Equipment Configuration
Feature: iBatch - Client Startup
Feature: iBatch - Client Shutdown
Feature: iBatch - Configure the Client
Feature: iBatch - Start Batch
Feature: iBatch - Stop Batch
Feature: iBatch - Hold Batch
Feature: iBatch - Restart Batch
Feature: iBatch - Abort Batch
Feature: iBatch - Add Batch
Feature: iBatch - Remove Batch
Feature: iBatch - Change to Auto-Manual Mode
Feature: iBatch - Allow Phase Control
Feature: iBatch - Go to HMI
Feature: iBatch - Clear All Failures
Feature: iBatch - Archiver Startup
Feature: iBatch - Simulator Startup
Feature: iBatch - Allow Help from Client
Feature: iBatch - Allow Demo Mode
Feature: iBatch - Intellution Workspace Startup
Feature: iBatch - Save from Intellution Workspace
Feature: iBatch - Misc Item Deletion from Intellution Workspace
Feature: iBatch - Create New Project in Intellution Workspace
Feature: iBatch - Archiver Startup From Mgr
Feature: iBatch - Archiver Shutdown From Mgr
Feature: iBatch - Rebind Unit Procedure
Feature: iBatch - Acknowledge Prompts
Feature: iBatch - Allow Arbitration View
Feature: iBatch - Acquire and Release Resources
Feature: iBatch - Acquire Phase for Manual Control
Feature: iBatch - Start SoftPhase Server
Feature: iBatch - Stop SoftPhase Server
Feature: iBatch - Start iWorkInstruction Editor
Feature: EDA Feature  1
Feature: EDA Feature  2
Feature: EDA Feature  3
Feature: EDA Feature  4
Feature: EDA Feature  5
Feature: EDA Feature  6
Feature: EDA Feature  7
Feature: EDA Feature  8
Feature: EDA Feature  9
Feature: EDA Feature 10
Feature: EDA Feature 11
Feature: EDA Feature 12
Feature: EDA Feature 13
Feature: EDA Feature 14
Feature: EDA Feature 15
Feature: EDA Feature 16
Feature: EDA Feature 17
Feature: EDA Feature 18
Feature: EDA Feature 19
Feature: EDA Feature 20
Feature: EDA Feature 21
Feature: EDA Feature 22
Feature: EDA Feature 23
Feature: EDA Feature 24
Feature: EDA Feature 25
Feature: EDA Feature 26
Feature: EDA Feature 27
Feature: EDA Feature 28
Feature: EDA Feature 29
Feature: EDA Feature 30
Feature: EDA Feature 31
Feature: EDA Feature 32
Feature: EDA Feature 33
Feature: EDA Feature 34
Feature: EDA Feature 35
Feature: EDA Feature 36
Feature: EDA Feature 37
Feature: EDA Feature 38
Feature: EDA Feature 39
Feature: EDA Feature 40
Feature: EDA Feature 41
Feature: EDA Feature 42
Feature: EDA Feature 43
Feature: EDA Feature 44
Feature: EDA Feature 45
Feature: EDA Feature 46
Feature: EDA Feature 47
Feature: EDA Feature 48
Feature: EDA Feature 49
Feature: EDA Feature 50
Feature: EDA Feature 51
Feature: EDA Feature 52
Feature: EDA Feature 53
Feature: EDA Feature 54
Feature: EDA Feature 55

Group: LEVEL3
Area: FAC
Area: LEVEL3
Area: LEVEL23
Feature: WorkSpace Runtime
Feature: Background Task Exit
Feature: Manual Failover
Feature: iFIX - System Shutdown
Feature: WorkSpace Runtime Exit
Feature: Database Save
Feature: Enable Task Switching
Feature: Enable Ctrl-Alt-Del

Group: LEVEL2
Area: FAC
Area: LEVEL2
Area: LEVEL22
Feature: WorkSpace Runtime
Feature: Manual Failover
Feature: Database Save

Group: LEVEL4
Area: FAC
Area: LEVEL4
Area: LEVEL24
Feature: WorkSpace Runtime
Feature: Manual Failover
Feature: Database Save

Group: B342SE
Area: F1FP_OP
Area: C1CR_OP
Area: F1MEP_OP
Area: F1WW_OP
Area: F1UPW_OP
Area: C1CML_SE
Area: C1CML_OP
Area: F1VOC_OP
Area: F1CHR_OP
Area: F1PWR_OP
Area: FAC
Area: LEVEL2
Area: LEVEL4
Area: LEVEL22
Area: LEVEL24
Area: F1PLU_OP
Area: F2FP_OP
Area: C2CR_OP
Area: F2MEP_OP
Area: F2UPW_OP
Area: C2CML_SE
Area: C2CML_OP
Area: F2VOC_OP
Area: F2CHR_OP
Area: F2PWR_OP
Area: F2PLU_OP
Feature: WorkSpace Runtime
Feature: Background Task Exit
Feature: Historical Trend Assign
Feature: Manual Failover
Feature: iFIX - System Shutdown
Feature: Historical Trend Collection
Feature: WorkSpace Runtime Exit
Feature: Database Save
Feature: Enable Task Switching
Feature: Enable Ctrl-Alt-Del

Group: B313SE
Area: F1FP_OP
Area: C1CR_OP
Area: F1MEP_OP
Area: F1WW_OP
Area: F1UPW_OP
Area: C1CML_OP
Area: F1VOC_OP
Area: F1CHR_OP
Area: F1PWR_SE
Area: F1PWR_OP
Area: FAC
Area: LEVEL2
Area: LEVEL4
Area: LEVEL22
Area: LEVEL24
Area: F1PLU_OP
Area: F2FP_OP
Area: C2CR_OP
Area: F2MEP_OP
Area: F2UPW_OP
Area: C2CML_OP
Area: F2VOC_OP
Area: F2CHR_OP
Area: F2PWR_SE
Area: F2PWR_OP
Area: F2PLU_OP
Feature: WorkSpace Runtime
Feature: Background Task Exit
Feature: Historical Trend Assign
Feature: Manual Failover
Feature: iFIX - System Shutdown
Feature: Historical Trend Collection
Feature: WorkSpace Runtime Exit
Feature: Database Save
Feature: Enable Task Switching
Feature: Enable Ctrl-Alt-Del

Group: B321SE
Area: F1FP_OP
Area: C1CR_OP
Area: F1MEP_SE
Area: F1MEP_OP
Area: F1WW_OP
Area: F1UPW_OP
Area: C1CML_OP
Area: F1VOC_OP
Area: F1CHR_OP
Area: F1PWR_OP
Area: FAC
Area: LEVEL2
Area: LEVEL4
Area: LEVEL22
Area: LEVEL24
Area: F1PLU_OP
Area: F2FP_OP
Area: C2CR_OP
Area: F2MEP_SE
Area: F2MEP_OP
Area: F2UPW_OP
Area: C2CML_OP
Area: F2VOC_OP
Area: F2CHR_OP
Area: F2PWR_OP
Area: F2PLU_OP
Feature: WorkSpace Runtime
Feature: Background Task Exit
Feature: Historical Trend Assign
Feature: Manual Failover
Feature: iFIX - System Shutdown
Feature: Historical Trend Collection
Feature: WorkSpace Runtime Exit
Feature: Database Save
Feature: Enable Task Switching
Feature: Enable Ctrl-Alt-Del

Group: B312OP
Area: F1FP_SE
Area: F1FP_OP
Area: C1CR_SE
Area: C1CR_OP
Area: F1MEP_SE
Area: F1MEP_OP
Area: F1WW_OP
Area: F1UPW_OP
Area: C1CML_OP
Area: F1VOC_SE
Area: F1VOC_OP
Area: F1CHR_SE
Area: F1CHR_OP
Area: F1PWR_OP
Area: FAC
Area: LEVEL2
Area: LEVEL4
Area: LEVEL22
Area: LEVEL24
Area: F1PLU_OP
Area: F2FP_SE
Area: F2FP_OP
Area: C2CR_SE
Area: C2CR_OP
Area: F2MEP_SE
Area: F2MEP_OP
Area: F2UPW_OP
Area: C2CML_OP
Area: F2VOC_SE
Area: F2VOC_OP
Area: F2CHR_SE
Area: F2CHR_OP
Area: F2PWR_OP
Area: F2PLU_OP
Feature: WorkSpace Runtime
Feature: Background Task Exit
Feature: Manual Failover
Feature: iFIX - System Shutdown
Feature: WorkSpace Runtime Exit
Feature: Database Save
Feature: Enable Task Switching
Feature: Enable Ctrl-Alt-Del

Group: B322OP
Area: F1FP_OP
Area: C1CR_OP
Area: F1MEP_OP
Area: F1WW_OP
Area: F1UPW_OP
Area: C1CML_OP
Area: F1VOC_OP
Area: F1CHR_OP
Area: F1PWR_OP
Area: FAC
Area: LEVEL2
Area: LEVEL4
Area: LEVEL22
Area: LEVEL24
Area: F1PLU_OP
Area: F2FP_OP
Area: C2CR_OP
Area: F2MEP_OP
Area: F2UPW_OP
Area: C2CML_OP
Area: F2VOC_OP
Area: F2CHR_OP
Area: F2PWR_OP
Area: F2PLU_OP
Feature: WorkSpace Runtime
Feature: Background Task Exit
Feature: Manual Failover
Feature: iFIX - System Shutdown
Feature: WorkSpace Runtime Exit
Feature: Database Save
Feature: Enable Task Switching
Feature: Enable Ctrl-Alt-Del

Group: B313OP
Area: F1FP_OP
Area: C1CR_OP
Area: F1MEP_OP
Area: F1WW_OP
Area: F1UPW_OP
Area: C1CML_OP
Area: F1VOC_OP
Area: F1CHR_OP
Area: F1PWR_SE
Area: F1PWR_OP
Area: FAC
Area: LEVEL2
Area: LEVEL4
Area: LEVEL22
Area: LEVEL24
Area: F1PLU_OP
Area: F2FP_OP
Area: C2CR_OP
Area: F2MEP_OP
Area: F2UPW_OP
Area: C2CML_OP
Area: F2VOC_OP
Area: F2CHR_OP
Area: F2PWR_SE
Area: F2PWR_OP
Area: F2PLU_OP
Feature: WorkSpace Runtime
Feature: Background Task Exit
Feature: Manual Failover
Feature: iFIX - System Shutdown
Feature: WorkSpace Runtime Exit
Feature: Database Save
Feature: Enable Task Switching
Feature: Enable Ctrl-Alt-Del

Group: B311OP
Area: F1FP_SE
Area: F1FP_OP
Area: C1CR_SE
Area: C1CR_OP
Area: F1MEP_SE
Area: F1MEP_OP
Area: F1WW_OP
Area: F1UPW_OP
Area: C1CML_OP
Area: F1VOC_SE
Area: F1VOC_OP
Area: F1CHR_SE
Area: F1CHR_OP
Area: F1PWR_OP
Area: FAC
Area: LEVEL2
Area: LEVEL4
Area: LEVEL22
Area: LEVEL24
Area: F1PLU_OP
Area: F2FP_SE
Area: F2FP_OP
Area: C2CR_SE
Area: C2CR_OP
Area: F2MEP_SE
Area: F2MEP_OP
Area: F2UPW_OP
Area: C2CML_OP
Area: F2VOC_SE
Area: F2VOC_OP
Area: F2CHR_SE
Area: F2CHR_OP
Area: F2PWR_OP
Area: F2PLU_OP
Feature: WorkSpace Runtime
Feature: Background Task Exit
Feature: Manual Failover
Feature: iFIX - System Shutdown
Feature: WorkSpace Runtime Exit
Feature: Database Save
Feature: Enable Task Switching
Feature: Enable Ctrl-Alt-Del

Group: B300OP
Area: F1FP_OP
Area: C1CR_OP
Area: F1MEP_OP
Area: F1WW_OP
Area: F1UPW_OP
Area: C1CML_OP
Area: F1VOC_OP
Area: F1CHR_OP
Area: F1PWR_OP
Area: FAC
Area: LEVEL2
Area: LEVEL4
Area: LEVEL22
Area: LEVEL24
Area: F1PLU_OP
Area: F2FP_OP
Area: C2CR_OP
Area: F2MEP_OP
Area: F2UPW_OP
Area: C2CML_OP
Area: F2VOC_OP
Area: F2CHR_OP
Area: F2PWR_OP
Area: F2PLU_OP
Feature: WorkSpace Runtime
Feature: Background Task Exit
Feature: Manual Failover
Feature: iFIX - System Shutdown
Feature: WorkSpace Runtime Exit
Feature: Database Save
Feature: Enable Task Switching
Feature: Enable Ctrl-Alt-Del

Group: PLUSE
Area: F1FP_OP
Area: C1CR_OP
Area: F1MEP_OP
Area: F1WW_OP
Area: F1UPW_OP
Area: C1CML_OP
Area: F1VOC_OP
Area: F1CHR_OP
Area: F1PWR_OP
Area: FAC
Area: LEVEL2
Area: LEVEL4
Area: LEVEL22
Area: LEVEL24
Area: F1PLU_SE
Area: F1PLU_OP
Area: F2FP_OP
Area: C2CR_OP
Area: F2MEP_OP
Area: F2UPW_OP
Area: C2CML_OP
Area: F2VOC_OP
Area: F2CHR_OP
Area: F2PWR_OP
Area: F2PLU_SE
Area: F2PLU_OP
Feature: WorkSpace Runtime
Feature: Background Task Exit
Feature: Historical Trend Assign
Feature: Manual Failover
Feature: iFIX - System Shutdown
Feature: Historical Trend Collection
Feature: WorkSpace Runtime Exit
Feature: Database Save
Feature: Database Block Add-Delete
Feature: Enable Task Switching

Group: SUPERVISOR
Area: F1FP_SE
Area: F1FP_OP
Area: C1CR_SE
Area: C1CR_OP
Area: F1MEP_SE
Area: F1MEP_OP
Area: F1WW_SE
Area: F1WW_OP
Area: F1UPW_SE
Area: F1UPW_OP
Area: C1CML_SE
Area: C1CML_OP
Area: F1VOC_SE
Area: F1VOC_OP
Area: F1CHR_SE
Area: F1CHR_OP
Area: F1PWR_SE
Area: F1PWR_OP
Area: FAC
Area: LEVEL1
Area: LEVEL2
Area: LEVEL3
Area: LEVEL4
Area: LEVEL21
Area: LEVEL22
Area: LEVEL23
Area: LEVEL24
Area: F1PLU_SE
Area: F1PLU_OP
Area: F2FP_SE
Area: F2FP_OP
Area: C2CR_SE
Area: C2CR_OP
Area: F2MEP_SE
Area: F2MEP_OP
Area: F2UPW_SE
Area: F2UPW_OP
Area: C2CML_SE
Area: C2CML_OP
Area: F2VOC_SE
Area: F2VOC_OP
Area: F2CHR_SE
Area: F2CHR_OP
Area: F2PWR_SE
Area: F2PWR_OP
Area:  
Area:   
Area: F2PLU_SE
Area: F2PLU_OP
Feature: Database Manager
Feature: WorkSpace Runtime
Feature: WorkSpace Configure
Feature: Fix32 - Report Creator
Feature: Background Task Exit
Feature: Fix32 - Key Macro Editor
Feature: Fix32 - Operating System Window
Feature: Historical Trend Assign
Feature: Security Synchronizer
Feature: System Configuration
Feature: Security Configuration
Feature: Manual Failover
Feature: Project Backup-Restore
Feature: Runtime Visual Basic Editor Access
Feature: iFIX - System Shutdown
Feature: Fix32 - Alarm Summary Display
Feature: Fix32 - Historical Trend Display
Feature: Tag Group Editor
Feature: Fix32 - Run a Task from View
Feature: System User Login
Feature: Recipe Load
Feature: Recipe Save
Feature: Fix32 - Report Generator
Feature: Historical Trend Collection
Feature: Fix32 - Historical Display Configuration
Feature: WorkSpace Runtime Exit
Feature: Database Reload
Feature: Database Save
Feature: Database Block Add-Delete
Feature: System User Logout
Feature: Recipe Builder Operations Window
Feature: Recipe Builder Development Window
Feature: Recipe Save from Recipe Builder
Feature: Recipe Download from Recipe Builder
Feature: Recipe Upload from Recipe Builder
Feature: Recipe Text Output from Recipe Builder
Feature: Enable Task Switching
Feature: Enable Ctrl-Alt-Del
Feature: Fix32 - Historical Trend Display View Only
Feature: Intellution OEM Reserved 1
Feature: Intellution OEM Reserved 2
Feature: Intellution OEM Reserved 3
Feature: Intellution OEM Reserved 4
Feature: Intellution OEM Reserved 5
Feature: Intellution OEM Reserved 6
Feature: Intellution OEM Reserved 7
Feature: Intellution OEM Reserved 8
Feature: Intellution OEM Reserved 9
Feature: Intellution OEM Reserved 10
Feature: Intellution OEM Reserved 11
Feature: Intellution OEM Reserved 12
Feature: Historical Trend Export
Feature: Electronic Signature - Perform By
Feature: Electronic Signature - Verify By
Feature: Application Validator - Run-time Access
Feature: Application Validator - Creation of Baselines
Feature: Startup Profile Manager
Feature: iBatch - Configuration
Feature: iBatch - Server Startup
Feature: iBatch - Server Shutdown
Feature: iBatch - Recipe Editor Startup
Feature: iBatch - Save Recipes
Feature: iBatch - Create Recipes
Feature: iBatch - Remove Recipes
Feature: iBatch - Release Recipes to Production
Feature: iBatch - Rebuild Recipe Directory
Feature: iBatch - Equipment Editor Startup
Feature: iBatch - Save Equipment Configuration
Feature: iBatch - Create Equipment Configuration
Feature: iBatch - Client Startup
Feature: iBatch - Client Shutdown
Feature: iBatch - Configure the Client
Feature: iBatch - Start Batch
Feature: iBatch - Stop Batch
Feature: iBatch - Hold Batch
Feature: iBatch - Restart Batch
Feature: iBatch - Abort Batch
Feature: iBatch - Add Batch
Feature: iBatch - Remove Batch
Feature: iBatch - Change to Auto-Manual Mode
Feature: iBatch - Allow Phase Control
Feature: iBatch - Go to HMI
Feature: iBatch - Clear All Failures
Feature: iBatch - Archiver Startup
Feature: iBatch - Simulator Startup
Feature: iBatch - Allow Help from Client
Feature: iBatch - Allow Demo Mode
Feature: iBatch - Intellution Workspace Startup
Feature: iBatch - Save from Intellution Workspace
Feature: iBatch - Misc Item Deletion from Intellution Workspace
Feature: iBatch - Create New Project in Intellution Workspace
Feature: iBatch - Archiver Startup From Mgr
Feature: iBatch - Archiver Shutdown From Mgr
Feature: iBatch - Rebind Unit Procedure
Feature: iBatch - Acknowledge Prompts
Feature: iBatch - Allow Arbitration View
Feature: iBatch - Acquire and Release Resources
Feature: iBatch - Acquire Phase for Manual Control
Feature: iBatch - Start SoftPhase Server
Feature: iBatch - Stop SoftPhase Server
Feature: iBatch - Start iWorkInstruction Editor
Feature: EDA Feature  1
Feature: EDA Feature  2
Feature: EDA Feature  3
Feature: EDA Feature  4
Feature: EDA Feature  5
Feature: EDA Feature  6
Feature: EDA Feature  7
Feature: EDA Feature  8
Feature: EDA Feature  9
Feature: EDA Feature 10
Feature: EDA Feature 11
Feature: EDA Feature 12
Feature: EDA Feature 13
Feature: EDA Feature 14
Feature: EDA Feature 15
Feature: EDA Feature 16
Feature: EDA Feature 17
Feature: EDA Feature 18
Feature: EDA Feature 19
Feature: EDA Feature 20
Feature: EDA Feature 21
Feature: EDA Feature 22
Feature: EDA Feature 23
Feature: EDA Feature 24
Feature: EDA Feature 25
Feature: EDA Feature 26
Feature: EDA Feature 27
Feature: EDA Feature 28
Feature: EDA Feature 29
Feature: EDA Feature 30
Feature: EDA Feature 31
Feature: EDA Feature 32
Feature: EDA Feature 33
Feature: EDA Feature 34
Feature: EDA Feature 35
Feature: EDA Feature 36
Feature: EDA Feature 37
Feature: EDA Feature 38
Feature: EDA Feature 39
Feature: EDA Feature 40
Feature: EDA Feature 41
Feature: EDA Feature 42
Feature: EDA Feature 43
Feature: EDA Feature 44
Feature: EDA Feature 45
Feature: EDA Feature 46
Feature: EDA Feature 47
Feature: EDA Feature 48
Feature: EDA Feature 49
Feature: EDA Feature 50
Feature: EDA Feature 51
Feature: EDA Feature 52
Feature: EDA Feature 53
Feature: EDA Feature 54
Feature: EDA Feature 55

User: ARESHUANG
Login-name: 789
NTSecurity: NO
NO
Timeout: 00:00:00
Feature: WorkSpace Runtime
Member: B342OP

User: JLCHANG
Login-name: 60034
NTSecurity: NO
NO
Timeout: 00:00:00
Feature: WorkSpace Runtime
Member: B312SE

User: CHWSEN
Login-name: 60210
NTSecurity: NO
NO
Timeout: 00:00:00
Feature: WorkSpace Runtime
Member: B342OP

User: CHIAYU
Login-name: 60339
NTSecurity: NO
NO
Timeout: 00:00:00
Feature: WorkSpace Runtime
Member: LEVEL1

User: JEFFCHEN
Login-name: 60436
NTSecurity: NO
NO
Timeout: 00:00:00
Feature: WorkSpace Runtime
Member: LEVEL1

User: ADIYA-LIN
Login-name: ADIYA
NTSecurity: NO
NO
Timeout: 00:00:00
Feature: WorkSpace Runtime
Member: B341OP

User: ALAN-LIN
Login-name: ALAN
NTSecurity: NO
NO
Timeout: 00:00:00
Feature: WorkSpace Runtime
Member: LEVEL3

User: ALANTO
Login-name: ALANTO
NTSecurity: NO
NO
Timeout: 00:00:00
Feature: WorkSpace Runtime
Member: SUPERVISORS

User: ALLEN-HSIEH
Login-name: ALLEN
NTSecurity: NO
NO
Timeout: 00:00:00
Feature: WorkSpace Runtime
Member: SUPERVISOR

User: BANSON-GU
Login-name: BANSON
NTSecurity: NO
NO
Timeout: 00:00:00
Feature: WorkSpace Runtime
Member: B341OP

User: LINK-HUANG
Login-name: BOG
NTSecurity: NO
NO
Timeout: 00:00:00
Feature: WorkSpace Runtime
Member: B312OP

User: BRIAN-YEN
Login-name: BRIAN
NTSecurity: NO
NO
Timeout: 00:00:00
Feature: WorkSpace Runtime
Member: B322OP

User: BRUCE-HUANG
Login-name: BRUCE
NTSecurity: NO
NO
Timeout: 00:00:00
Feature: WorkSpace Runtime
Member: FAC

User: BYRON-HUANG
Login-name: BYRON
NTSecurity: NO
NO
Timeout: 00:00:00
Feature: WorkSpace Runtime
Member: LEVEL3

User: ARESCHU
Login-name: C
NTSecurity: NO
NO
Timeout: 00:00:00
Feature: WorkSpace Runtime
Member: B341OP

User: SGM CB
Login-name: CB
NTSecurity: NO
NO
Timeout: 00:00:00
Feature: WorkSpace Runtime
Member: LEVEL2

User: FENGLONGCHEN
Login-name: CFL
NTSecurity: NO
NO
Timeout: 00:00:00
Feature: WorkSpace Runtime
Member: LEVEL3

User: JS-CHEN
Login-name: CHEN
NTSecurity: NO
NO
Timeout: 00:00:00
Feature: WorkSpace Runtime
Member: B313SE

User: CHENCHIA-HSU
Login-name: CHIA
NTSecurity: NO
NO
Timeout: 00:00:00
Feature: WorkSpace Runtime
Member: B321SE

User: CHING-LIN
Login-name: CHING
NTSecurity: NO
NO
Timeout: 00:00:00
Feature: WorkSpace Runtime
Member: B322OP

User: CHLIN
Login-name: CHLIN
NTSecurity: NO
NO
Timeout: 00:00:00
Feature: WorkSpace Runtime
Member: B311SE

User: CCCHOU
Login-name: CHOU
NTSecurity: NO
NO
Timeout: 00:00:00
Feature: WorkSpace Runtime
Member: B311SE

User: CHRIS-CHENG
Login-name: CHRIS
NTSecurity: NO
NO
Timeout: 00:00:00
Feature: WorkSpace Runtime
Member: B322OP

User: CHRIS
Login-name: CHRIS-
NTSecurity: NO
NO
Timeout: 00:00:00
Feature: WorkSpace Runtime
Member: B322OP

User: CHTSAI
Login-name: CHTSAI
NTSecurity: NO
NO
Timeout: 00:00:00
Feature: WorkSpace Runtime
Member: B321SE

User: CHUNCHI-LIN
Login-name: CHUN
NTSecurity: NO
NO
Timeout: 00:00:00
Feature: WorkSpace Runtime
Member: LEVEL3

User: CHUNWEI
Login-name: CHUN07
NTSecurity: NO
NO
Timeout: 00:00:00
Feature: WorkSpace Runtime
Member: B341OP

User: CJLIN
Login-name: CJLIN
NTSecurity: NO
NO
Timeout: 00:00:00
Feature: WorkSpace Runtime
Member: LEVEL1

User: CKTANG
Login-name: CKTANG
NTSecurity: NO
NO
Timeout: 00:00:00
Feature: WorkSpace Runtime
Member: B300OP

User: CHENLIN
Login-name: CLIN
NTSecurity: NO
NO
Timeout: 00:00:00
Feature: WorkSpace Runtime
Member: SUPERVISOR

User: CLTSAI
Login-name: CLTSAI
NTSecurity: NO
NO
Timeout: 00:00:00
Feature: WorkSpace Runtime
Member: B300OP

User: CLYEH
Login-name: CLYEH
NTSecurity: NO
NO
Timeout: 00:00:00
Feature: WorkSpace Runtime
Member: LEVEL3

User: CYCHUNG
Login-name: CYC
NTSecurity: NO
NO
Timeout: 00:00:00
Feature: WorkSpace Runtime
Member: FAC

User: DANNY-LIAO
Login-name: DANNY
NTSecurity: NO
NO
Timeout: 00:00:00
Feature: WorkSpace Runtime
Member: SUPERVISORS

User: DANY-LIN
Login-name: DANY
NTSecurity: NO
NO
Timeout: 00:00:00
Feature: WorkSpace Runtime
Member: FAC

User: DAVID
Login-name: DAVID
NTSecurity: NO
NO
Timeout: 00:00:00
Feature: WorkSpace Runtime
Member: B322OP

User: DAVIDHSIAO
Login-name: DH
NTSecurity: NO
NO
Timeout: 00:00:00
Feature: WorkSpace Runtime
Member: B342OP

User: DOLO-CHEN
Login-name: DOLO
NTSecurity: NO
NO
Timeout: 00:00:00
Feature: WorkSpace Runtime
Member: LEVEL3

User: YHCHIANG
Login-name: DUKE
NTSecurity: NO
NO
Timeout: 00:00:00
Feature: WorkSpace Runtime
Member: B313SE

User: EDWARD-WU
Login-name: EDWARD
NTSecurity: NO
NO
Timeout: 00:00:00
Feature: WorkSpace Runtime
Member: FAC

User: FRANKLIU
Login-name: F
NTSecurity: NO
NO
Timeout: 00:00:00
Feature: WorkSpace Runtime
Member: PLUSE

User: FAC
Login-name: FAC
NTSecurity: NO
NO
Timeout: 00:00:00
Feature: WorkSpace Runtime
Member: FAC

User: CHIAWEIMAI
Login-name: FBI
NTSecurity: NO
NO
Timeout: 00:00:00
Feature: WorkSpace Runtime
Member: LEVEL3

User: FCHU
Login-name: FCHU
NTSecurity: NO
NO
Timeout: 00:00:00
Feature: WorkSpace Runtime
Member: SUPERVISORS

User: MICROJERRY
Login-name: FOX
NTSecurity: NO
NO
Timeout: 00:00:00
Feature: WorkSpace Runtime
Member: LEVEL3

User: GAS
Login-name: GAS
NTSecurity: NO
NO
Timeout: 00:00:00
Feature: WorkSpace Runtime
Member: LEVEL1

User: HANS
Login-name: HANS
NTSecurity: NO
NO
Timeout: 00:00:00
Feature: WorkSpace Runtime
Member: B300OP

User: BRUCE
Login-name: HAW
NTSecurity: NO
NO
Timeout: 00:00:00
Feature: WorkSpace Runtime
Member: B311OP

User: HC-KUO
Login-name: HC
NTSecurity: NO
NO
Timeout: 00:00:00
Feature: WorkSpace Runtime
Member: B342OP

User: TGM HCC
Login-name: HCC
NTSecurity: NO
NO
Timeout: 00:00:00
Feature: WorkSpace Runtime
Member: LEVEL4

User: HFXU
Login-name: HFXU
NTSecurity: NO
NO
Timeout: 00:00:00
Feature: WorkSpace Runtime
Member: UPWSE

User: NEIL-HO
Login-name: HO
NTSecurity: NO
NO
Timeout: 00:00:00
Feature: WorkSpace Runtime
Member: B341OP

User: HSUCY
Login-name: HSUCY
NTSecurity: NO
NO
Timeout: 00:00:00
Feature: WorkSpace Runtime
Member: B312SE

User: VERNON-HUNG
Login-name: HUNG
NTSecurity: NO
NO
Timeout: 00:00:00
Feature: WorkSpace Runtime
Member: B321SE

User: IKE
Login-name: IKE
NTSecurity: NO
NO
Timeout: 00:00:00
Feature: WorkSpace Runtime
Member: B311SE

User: JACHEN
Login-name: JACHEN
NTSecurity: NO
NO
Timeout: 00:00:00
Feature: WorkSpace Runtime
Member: LEVEL1

User: JACKY-AI
Login-name: JACKY
NTSecurity: NO
NO
Timeout: 00:00:00
Feature: WorkSpace Runtime
Member: LEVEL3

User: CHICHENG
Login-name: JAMES
NTSecurity: NO
NO
Timeout: 00:00:00
Feature: WorkSpace Runtime
Member: B311SE

User: SHIHJAY-LIN
Login-name: JAY
NTSecurity: NO
NO
Timeout: 00:00:00
Feature: WorkSpace Runtime
Member: B312OP

User: CHIEH2035
Login-name: JJ
NTSecurity: NO
NO
Timeout: 00:00:00
Feature: WorkSpace Runtime
Member: B312SE

User: JLTSAI
Login-name: JLTSAI
NTSecurity: NO
NO
Timeout: 00:00:00
Feature: WorkSpace Runtime
Member: B311SE

User: SGM JM
Login-name: JM
NTSecurity: NO
NO
Timeout: 00:00:00
Feature: WorkSpace Runtime
Member: LEVEL2

User: JODY-WEI
Login-name: JODY
NTSecurity: NO
NO
Timeout: 00:00:00
Feature: WorkSpace Runtime
Member: B312OP

User: JONAS-CHEN
Login-name: JONAS
NTSecurity: NO
NO
Timeout: 00:00:00
Feature: WorkSpace Runtime
Member: B342OP

User: ERICH-HSU
Login-name: JS
NTSecurity: NO
NO
Timeout: 00:00:00
Feature: WorkSpace Runtime
Member: B311OP

User: YANG-J-TOM
Login-name: JTOM
NTSecurity: NO
NO
Timeout: 00:00:00
Feature: WorkSpace Runtime
Member: LEVEL3

User: JUDGEYEH
Login-name: JUDGE
NTSecurity: NO
NO
Timeout: 00:00:00
Feature: WorkSpace Runtime
Member: FAC

User: JUO
Login-name: JUO
NTSecurity: NO
NO
Timeout: 00:00:00
Feature: WorkSpace Runtime
Member: B342SE

User: KANTO
Login-name: KANTO
NTSecurity: NO
NO
Timeout: 00:00:00
Feature: WorkSpace Runtime
Member: SUPERVISOR

User: KERRY-HSU
Login-name: KC
NTSecurity: NO
NO
Timeout: 00:00:00
Feature: WorkSpace Runtime
Member: B311OP

User: KENNEYTH
Login-name: KEN
NTSecurity: NO
NO
Timeout: 00:00:00
Feature: WorkSpace Runtime
Member: B313SE

User: KEN-LIN
Login-name: KEN1
NTSecurity: NO
NO
Timeout: 00:00:00
Feature: WorkSpace Runtime
Member: LEVEL2

User: SGM KENLIN
Login-name: KENLIN
NTSecurity: NO
NO
Timeout: 00:00:00
Feature: WorkSpace Runtime
Member: LEVEL2

User: SOUNTH
Login-name: KK
NTSecurity: NO
NO
Timeout: 00:00:00
Feature: WorkSpace Runtime
Member: UPWSE

User: KOLIN-CHANG
Login-name: KOLIN
NTSecurity: NO
NO
Timeout: 00:00:00
Feature: WorkSpace Runtime
Member: B321SE

User: LAI
Login-name: LAI
NTSecurity: NO
NO
Timeout: 00:00:00
Feature: WorkSpace Runtime
Member: SUPERVISOR

User: SGM LAN
Login-name: LAN
NTSecurity: NO
NO
Timeout: 00:00:00
Feature: WorkSpace Runtime
Member: LEVEL2

User: LEE66
Login-name: LEE
NTSecurity: NO
NO
Timeout: 00:00:00
Feature: WorkSpace Runtime
Member: B313SE

User: TOM-LIAN
Login-name: LIAN
NTSecurity: NO
NO
Timeout: 00:00:00
Feature: WorkSpace Runtime
Member: FAC

User: JASONJL-LIN
Login-name: LIN
NTSecurity: NO
NO
Timeout: 00:00:00
Feature: WorkSpace Runtime
Member: B321SE

User: SGM LIU
Login-name: LIU
NTSecurity: NO
NO
Timeout: 00:00:00
Feature: WorkSpace Runtime
Member: LEVEL2

User: TGM LIU4
Login-name: LIU4
NTSecurity: NO
NO
Timeout: 00:00:00
Feature: WorkSpace Runtime
Member: LEVEL4

User: LSCHOU
Login-name: LSCHOU
NTSecurity: NO
NO
Timeout: 00:00:00
Feature: WorkSpace Runtime
Member: FAC

User: LSP620324-LEE
Login-name: LSP
NTSecurity: NO
NO
Timeout: 00:00:00
Feature: WorkSpace Runtime
Member: B313OP

User: RUNCHIHLUO
Login-name: LUO
NTSecurity: NO
NO
Timeout: 00:00:00
Feature: WorkSpace Runtime
Member: B313OP

User: MORRIS-TSAI
Login-name: M
NTSecurity: NO
NO
Timeout: 00:00:00
Feature: WorkSpace Runtime
Member: B312OP

User: TGM MAKOTO
Login-name: MAKOTO
NTSecurity: NO
NO
Timeout: 00:00:00
Feature: WorkSpace Runtime
Member: LEVEL4

User: MARKHUANG
Login-name: MARK
NTSecurity: NO
NO
Timeout: 00:00:00
Feature: WorkSpace Runtime
Member: B341OP

User: CHUNMEI
Login-name: MEI
NTSecurity: NO
NO
Timeout: 00:00:00
Feature: WorkSpace Runtime
Member: B300OP

User: MEIFEN-LU
Login-name: MEIFEN
NTSecurity: NO
NO
Timeout: 00:00:00
Feature: WorkSpace Runtime
Member: FAC

User: MING0329
Login-name: MING
NTSecurity: NO
NO
Timeout: 00:00:00
Feature: WorkSpace Runtime
Member: WWTSE

User: MW-LAU
Login-name: MW
NTSecurity: NO
NO
Timeout: 00:00:00
Feature: WorkSpace Runtime
Member: B311OP

User: OUNCE
Login-name: OUNCE
NTSecurity: NO
NO
Timeout: 00:00:00
Feature: WorkSpace Runtime
Member: B341OP

User: LAIBING-LAI
Login-name: PIN
NTSecurity: NO
NO
Timeout: 00:00:00
Feature: WorkSpace Runtime
Member: LEVEL3

User: SEVEN-LU
Login-name: PSPS
NTSecurity: NO
NO
Timeout: 00:00:00
Feature: WorkSpace Runtime
Member: LEVEL3

User: QAZ
Login-name: QAZ
NTSecurity: NO
NO
Timeout: 00:00:00
Feature: WorkSpace Runtime
Member: SUPERVISOR

User: YICHUNG-LAI
Login-name: QWERT
NTSecurity: NO
NO
Timeout: 00:00:00
Feature: WorkSpace Runtime
Member: LEVEL3

User: RENHAU-JUNG
Login-name: RENHAU
NTSecurity: NO
NO
Timeout: 00:00:00
Feature: WorkSpace Runtime
Member: B342OP

User: RICKYKUANG
Login-name: RICKY
NTSecurity: NO
NO
Timeout: 00:00:00
Feature: WorkSpace Runtime
Member: B342SE

User: RZCHEN
Login-name: ROGER
NTSecurity: NO
NO
Timeout: 00:00:00
Feature: WorkSpace Runtime
Member: B311SE

User: SAN-W
Login-name: SAM
NTSecurity: NO
NO
Timeout: 00:00:00
Feature: WorkSpace Runtime
Member: B313SE

User: TGM SEVEN
Login-name: SEVEN
NTSecurity: NO
NO
Timeout: 00:00:00
Feature: WorkSpace Runtime
Member: LEVEL4

User: SJMAU
Login-name: SJMAU
NTSecurity: NO
NO
Timeout: 00:00:00
Feature: WorkSpace Runtime
Member: B300OP

User: SS-CHANGCHIEN
Login-name: SS
NTSecurity: NO
NO
Timeout: 00:00:00
Feature: WorkSpace Runtime
Member: FAC

User: MONKEY-SHI
Login-name: STA
NTSecurity: NO
NO
Timeout: 00:00:00
Feature: WorkSpace Runtime
Member: LEVEL3

User: STEVENLEE
Login-name: STEVEN
NTSecurity: NO
NO
Timeout: 00:00:00
Feature: WorkSpace Runtime
Member: LEVEL1

User: BANIAN-SU
Login-name: SU
NTSecurity: NO
NO
Timeout: 00:00:00
Feature: WorkSpace Runtime
Member: B313OP

User: SYNDI-CHEN
Login-name: SYNDI
NTSecurity: NO
NO
Timeout: 00:00:00
Feature: WorkSpace Runtime
Member: FAC

User: SIMON-TANG
Login-name: TANG
NTSecurity: NO
NO
Timeout: 00:00:00
Feature: WorkSpace Runtime
Member: B311OP

User: TCWANG
Login-name: TCWANG
NTSecurity: NO
NO
Timeout: 00:00:00
Feature: WorkSpace Runtime
Member: SUPERVISORS

User: JACK-DON
Login-name: TIM
NTSecurity: NO
NO
Timeout: 00:00:00
Feature: WorkSpace Runtime
Member: B311OP

User: TMJU
Login-name: TMJU
NTSecurity: NO
NO
Timeout: 00:00:00
Feature: WorkSpace Runtime
Member: B343OP

User: TGM TOM
Login-name: TOM
NTSecurity: NO
NO
Timeout: 00:00:00
Feature: WorkSpace Runtime
Member: LEVEL4

User: TRENDTEK
Login-name: TREND
NTSecurity: NO
NO
Timeout: 00:00:00
Feature: WorkSpace Runtime
Member: SUPERVISORS
Member: SUPERVISOR

User: ERIC-TSAI
Login-name: TSAI
NTSecurity: NO
NO
Timeout: 00:00:00
Feature: WorkSpace Runtime
Member: LEVEL3

User: VINCENTKO
Login-name: VIN
NTSecurity: NO
NO
Timeout: 00:00:00
Feature: WorkSpace Runtime
Member: SUPERVISOR

User: VINCENT-YANG
Login-name: VINC
NTSecurity: NO
NO
Timeout: 00:00:00
Feature: WorkSpace Runtime
Member: FAC

User: VOC
Login-name: VOC
NTSecurity: NO
NO
Timeout: 00:00:00
Feature: WorkSpace Runtime
Member: SUPERVISOR

User: VINCENTHUANG
Login-name: VV
NTSecurity: NO
NO
Timeout: 00:00:00
Feature: WorkSpace Runtime
Member: B313SE

User: GUANGYU-WANG
Login-name: WANG
NTSecurity: NO
NO
Timeout: 00:00:00
Feature: WorkSpace Runtime
Member: B342SE

User: WCTSENG
Login-name: WCT
NTSecurity: NO
NO
Timeout: 00:00:00
Feature: WorkSpace Runtime
Member: WWTSE

User: MILLWEI
Login-name: WEI
NTSecurity: NO
NO
Timeout: 00:00:00
Feature: WorkSpace Runtime
Member: B311OP

User: PHOENIX-WENG
Login-name: WENG
NTSecurity: NO
NO
Timeout: 00:00:00
Feature: WorkSpace Runtime
Member: LEVEL3

User: WILLIAM-LIN
Login-name: WILL
NTSecurity: NO
NO
Timeout: 00:00:00
Feature: WorkSpace Runtime
Member: B342OP

User: WILSON-HUANG
Login-name: WILSON
NTSecurity: NO
NO
Timeout: 00:00:00
Feature: WorkSpace Runtime
Member: FAC

User: WINSTON
Login-name: WIN
NTSecurity: NO
NO
Timeout: 00:00:00
Feature: WorkSpace Runtime
Member: SUPERVISOR

User: W-WINNIE
Login-name: WINNIE
NTSecurity: NO
NO
Timeout: 00:00:00
Feature: WorkSpace Runtime
Member: FAC

User: WLFU
Login-name: WLFU
NTSecurity: NO
NO
Timeout: 00:00:00
Feature: WorkSpace Runtime
Member: FAC

User: CHIHFENG-WU
Login-name: WU
NTSecurity: NO
NO
Timeout: 00:00:00
Feature: WorkSpace Runtime
Member: B313OP

User: WUBIN
Login-name: WUBIN
NTSecurity: NO
NO
Timeout: 00:00:00
Feature: WorkSpace Runtime
Member: B343OP

User: WYTSAI
Login-name: WYTSAI
NTSecurity: NO
NO
Timeout: 00:00:00
Feature: WorkSpace Runtime
Member: SUPERVISOR

User: YANG-WU
Login-name: YANG
NTSecurity: NO
NO
Timeout: 00:00:00
Feature: WorkSpace Runtime
Member: FAC

User: YASHU
Login-name: YASHU
NTSecurity: NO
NO
Timeout: 00:00:00
Feature: WorkSpace Runtime
Member: FAC

User: VINCENT
Login-name: YCHENG
NTSecurity: NO
NO
Timeout: 00:00:00
Feature: WorkSpace Runtime
Member: LEVEL1

User: YENHUNG-CHEN
Login-name: YEN
NTSecurity: NO
NO
Timeout: 00:00:00
Feature: WorkSpace Runtime
Member: LEVEL3

User: YEONG
Login-name: YEONG
NTSecurity: NO
NO
Timeout: 00:00:00
Feature: WorkSpace Runtime
Member: LEVEL3

User: YFLIN
Login-name: YFLIN
NTSecurity: NO
NO
Timeout: 00:00:00
Feature: WorkSpace Runtime
Member: B322OP

User: YICHUN-HSU
Login-name: YICHUN
NTSecurity: NO
NO
Timeout: 00:00:00
Feature: WorkSpace Runtime
Member: B341OP

User: YUJU-CHEN
Login-name: YUJU
NTSecurity: NO
NO
Timeout: 00:00:00
Feature: WorkSpace Runtime
Member: LEVEL3

User: YUTINGCHEN
Login-name: YUTING
NTSecurity: NO
NO
Timeout: 00:00:00
Feature: WorkSpace Runtime
Member: FAC

User: MINGZHE
Login-name: ZHE
NTSecurity: NO
NO
Timeout: 00:00:00
Feature: WorkSpace Runtime
Member: FAC

Node: C1_CHR
Application User: FAC
System User: 

Node: C1_CMLA
Application User: FAC
System User: 

Node: C1_CMLB
Application User: FAC
System User: 

Node: C1_CRA
Application User: FAC
System User: 

Node: C1_CRAB
Application User: FAC
System User: 

Node: C1_CRB
Application User: FAC
System User: 

Node: C1_CRC
Application User: FAC
System User: 

Node: C1_PWRB
Application User: FAC
System User: 

Node: C1_PWRC
Application User: FAC
System User: 

Node: C1_RPT
Application User: FAC
System User: 

Node: C2_CMLA
Application User: FAC
System User: 

Node: C2_CMLB
Application User: FAC
System User: 

Node: C2_RPT
Application User: FAC
System User: 

Node: CHR_V101
Application User: FAC
System User: 

Node: CHR_V201
Application User: FAC
System User: 

Node: CML_V101
Application User: FAC
System User: 

Node: CML_V102
Application User: FAC
System User: 

Node: CML_V201
Application User: FAC
System User: 

Node: CML_V202
Application User: FAC
System User: 

Node: CR_V101
Application User: FAC
System User: 

Node: CR_V201
Application User: FAC
System User: 

Node: F1_FPA
Application User: FAC
System User: 

Node: F1_FPB
Application User: FAC
System User: 

Node: F1_GASA
Application User: FAC
System User: 

Node: F1_GASB
Application User: FAC
System User: 

Node: F1_GASSR
Application User: FAC
System User: 

Node: F1_MEP
Application User: FAC
System User: 

Node: F1_UPWA
Application User: FAC
System User: 

Node: F1_UPWAB
Application User: ADMIN
System User: ADMIN

Node: F1_UPWB
Application User: FAC
System User: 

Node: F1_UPWVA
Application User: FAC
System User: 

Node: F1_VOC
Application User: FAC
System User: 

Node: F1_WWA
Application User: FAC
System User: 

Node: F1_WWB
Application User: FAC
System User: 

Node: F1_WWNBA
Application User: FAC
System User: 

Node: F2_FMCS
Application User: FAC
System User: 

Node: F2_GASA
Application User: FAC
System User: 

Node: F2_GASB
Application User: FAC
System User: 

Node: F2_GASSR
Application User: FAC
System User: 

Node: F2_MEP
Application User: FAC
System User: 

Node: F2_VOC
Application User: FAC
System User: 

Node: FILE_101
Application User: FAC
System User: 

Node: FIX
Application User: FAC
System User: 

Node: FIX_2
Application User: FAC
System User: 

Node: FIX1
Application User: FAC
System User: 

Node: FP_V101
Application User: FAC
System User: 

Node: FP_V201
Application User: FAC
System User: 

Node: GAS_V101
Application User: FAC
System User: 

Node: GAS_V102
Application User: FAC
System User: 

Node: GAS_V103
Application User: FAC
System User: 

Node: GAS_V104
Application User: FAC
System User: 

Node: GAS_V201
Application User: FAC
System User: 

Node: GAS_V202
Application User: FAC
System User: 

Node: GAS_V203
Application User: FAC
System User: 

Node: ISA_101
Application User: FAC
System User: 

Node: MANT
Application User: FAC
System User: 

Node: MEP_V101
Application User: FAC
System User: 

Node: MEP_V201
Application User: FAC
System User: 

Node: P0_PWRA
Application User: FAC
System User: 

Node: PWR_V101
Application User: FAC
System User: 

Node: PWR_V201
Application User: FAC
System User: 

Node: PWR_V713
Application User: FAC
System User: 

Node: PWR_V715
Application User: FAC
System User: 

Node: PWR_V72
Application User: FAC
System User: 

Node: PWR10
Application User: FAC
System User: 

Node: PWR20
Application User: FAC
System User: 

Node: PWR30
Application User: FAC
System User: 

Node: PWR34
Application User: FAC
System User: 

Node: PWR36
Application User: FAC
System User: 

Node: PWR713
Application User: FAC
System User: 

Node: PWR715
Application User: FAC
System User: 

Node: PWR72
Application User: FAC
System User: 

Node: RPT_V101
Application User: FAC
System User: 

Node: TSWEB
Application User: GUEST
System User: 

Node: TSWEB1
Application User: GUEST
System User: 

Node: UPW_H101
Application User: FAC
System User: 

Node: UPW_H102
Application User: FAC
System User: 

Node: UPW_V101
Application User: FAC
System User: 

Node: UPW_V102
Application User: FAC
System User: 

Node: UPW_V103
Application User: FAC
System User: 

Node: UPW_V201
Application User: FAC
System User: 

Node: UPW_V202
Application User: FAC
System User: 

Node: V101
Application User: FAC
System User: 

Node: VOC_V101
Application User: FAC
System User: 

Node: VOC_V102
Application User: FAC
System User: 

Node: VOC_V201
Application User: FAC
System User: 

Node: VOC_V202
Application User: FAC
System User: 

Node: WEB_101
Application User: FAC
System User: 

Node: WW_H101
Application User: FAC
System User: 

Node: WW_H102
Application User: FAC
System User: 

Node: WW_V101
Application User: FAC
System User: 

Node: WW_V102
Application User: FAC
System User: 

Node: WW_V201
Application User: FAC
System User: 

