$Date,$Time,DNP1FL1_CR_TET_03,DNP1FL1_CR_TET_06,DNP1FL1_KLA_DCC_CC_CV_01_MO,DNP1FL1_CR_MET_07,DNP1FL1_CR_TET_01,DNP1FL1_CR_MET_01,DNP_NONE
07/13/17,05:11:39,23.95961,22.43495,2.446389,43.8368,23.5537,49.92801,
07/13/17,13:21:53,24.06088,22.43495,3.988029,53.67477,23.56817,49.98588,
07/13/17,21:32:07,24.3647,22.44942,3.145727,52.69097,23.58264,49.95694,
07/14/17,05:42:21,24.04641,22.47836,2.850832,43.8368,23.69838,49.43611,
07/14/17,13:52:35,24.03194,22.50729,2.691662,53.99306,23.49583,50.36204,
07/14/17,22:02:48,24.03194,22.31921,3.275721,43.22916,23.71285,49.55185,
07/15/17,06:13:02,24.01748,22.50729,2.86555,44.53125,23.52477,50.21736,
07/15/17,14:23:16,24.01748,22.40602,3.000174,54.13773,23.4235,50.07269,
07/15/17,22:33:30,24.11875,22.50729,2.812123,66.40625,23.52477,50.21736,
07/16/17,06:43:43,24.03194,22.52176,5.859957,45.05209,23.65498,49.58079,
07/16/17,14:53:57,24.03194,22.5507,1.810532,53.79051,23.5537,49.8412,
07/16/17,23:04:11,24.13322,22.36262,3.161154,47.04861,23.56817,49.52292,
07/17/17,07:14:25,24.06088,22.49282,1.905385,44.2419,23.65498,49.58079,
07/17/17,15:24:39,24.06088,22.42049,3.135682,52.95139,23.77072,50.27523,
07/17/17,23:34:52,24.03194,22.42049,3.109814,44.93634,23.52477,50.04375,
07/18/17,07:45:06,24.03194,22.40602,2.739073,45.05209,23.75625,49.98588,
07/18/17,15:55:20,24.03194,22.43495,3.41528,53.58796,23.36563,52.24282,
07/19/17,00:05:34,24.03194,22.53623,2.697983,43.31597,23.5537,49.95694,
07/19/17,08:15:47,24.06088,22.5507,2.954355,44.93634,23.49583,50.27523,
07/19/17,16:26:01,24.16215,22.49282,2.930461,54.31134,23.38009,51.46157,
07/20/17,00:36:15,24.03194,22.52176,2.816447,49.85532,23.4235,50.13056,
07/20/17,08:46:29,24.06088,22.37708,1.531745,42.93982,23.56817,49.72546,
07/20/17,16:56:43,24.19109,22.50729,1.868278,54.60069,23.39456,50.47778,
07/21/17,01:06:56,24.10428,22.42049,2.811226,44.84954,23.49583,49.98588,
07/21/17,09:17:10,24.06088,22.50729,3.170534,44.70486,23.58264,49.55185,
07/21/17,17:27:24,24.19109,22.50729,2.105091,53.7037,23.56817,49.69653,
07/22/17,01:37:38,24.10428,22.52176,2.05204,45.34143,23.4669,49.89907,
07/22/17,09:47:51,24.10428,22.47836,2.434575,52.80671,23.56817,49.55185,
07/22/17,17:58:05,24.08982,22.49282,2.566586,53.41435,23.4669,49.46505,
07/23/17,02:08:19,23.12049,22.47836,0.7911172,44.84954,23.85752,49.8412,
07/23/17,10:18:33,24.08982,22.49282,1.514112,54.1956,23.45243,51.11435,
07/23/17,18:28:47,24.06088,22.49282,2.737368,53.58796,23.39456,50.73819,
07/24/17,02:39:00,24.16215,22.39155,3.02274,68.34491,23.49583,51.08542,
07/24/17,10:49:14,24.16215,22.47836,2.090127,55.29514,23.74178,51.57731,
07/24/17,18:59:28,24.06088,22.47836,3.504708,52.69097,23.56817,49.81227,
07/25/17,03:09:42,24.16215,22.39155,2.115564,49.76852,23.49583,49.78333,
07/25/17,11:19:55,24.27789,22.47836,2.593735,55.00579,23.90093,49.52292,
07/25/17,19:30:09,24.14768,22.47836,2.961989,54.02199,23.65498,49.46505,
07/26/17,03:40:23,24.04641,22.49282,3.309568,45.2257,23.65498,49.49398,
07/26/17,11:50:37,24.14768,22.44942,3.450308,55.41088,23.52477,50.36204,
07/26/17,20:00:51,24.14768,22.46389,2.825068,53.90625,23.62604,49.49398,
07/27/17,04:11:04,24.14768,22.5507,5.734815,44.35764,23.52477,49.8412,
07/27/17,12:21:18,24.14768,22.5507,1.686886,55.00579,23.4669,49.7544,
07/27/17,20:31:32,24.13322,22.44942,2.878503,53.87731,23.5537,49.72546,
07/28/17,04:41:46,24.14768,22.46389,2.091501,74.53704,23.5537,49.58079,
07/28/17,12:52:00,24.14768,22.56516,3.070657,54.51389,23.4669,49.32037,
