﻿資料筆數 , 轉速 , 左不平衡量 , 左不平衡角度 , 右不平衡量 , 右不平衡角度 , 日期 , 左面結果 , 右面結果
1 , 789 , +0.0320 , 27 , +0.0442 , 217 , 2017/8/17   13:11:37 , GO , GO
2 , 801 , +0.0438 , 83 , +0.0617 , 261 , 2017/8/17   13:12:18 , GO , GO
