  Information: -1 : 	2019/06/26	15:33:17	1	Expert Version: 8.1.1711.10.15.07
  Information: -1 : 	2019/06/26	15:33:17	1	Current Culture:   zh-TW
  Information: -1 : 	2019/06/26	15:33:17	1	Entering Program.cs Main(args)
  Information: -1 : 	2019/06/26	15:33:17	1	Checking the version of .Net installed on this PC...
  Information: -1 : 	2019/06/26	15:33:17	1	Successfully opened "SOFTWARE\Microsoft\NET Framework Setup\NDP" Key
  Information: -1 : 	2019/06/26	15:33:17	1	Found version: v2.0.50727
  Information: -1 : 	2019/06/26	15:33:17	1	    -Full Version: 2.0.50727.4927
  Information: -1 : 	2019/06/26	15:33:17	1	    -Installed: 1
  Information: -1 : 	2019/06/26	15:33:17	1	    -Service pack installed: 2
  Information: -1 : 	2019/06/26	15:33:17	1	    -InstallPath: 
  Information: -1 : 	2019/06/26	15:33:17	1	Found version: v3.0
  Information: -1 : 	2019/06/26	15:33:17	1	    -Full Version: 3.0.30729.4926
  Information: -1 : 	2019/06/26	15:33:17	1	    -Installed: 1
  Information: -1 : 	2019/06/26	15:33:17	1	    -Service pack installed: 2
  Information: -1 : 	2019/06/26	15:33:17	1	    -InstallPath: 
  Information: -1 : 	2019/06/26	15:33:17	1	Found version: v3.5
  Information: -1 : 	2019/06/26	15:33:17	1	Successfully parsed out 3.5 version name
  Information: -1 : 	2019/06/26	15:33:17	1	    -Full Version: 3.5.30729.4926
  Information: -1 : 	2019/06/26	15:33:17	1	    -Installed: 1
  Information: -1 : 	2019/06/26	15:33:17	1	    -Service pack installed: 1
  Information: -1 : 	2019/06/26	15:33:17	1	    -InstallPath: C:\Windows\Microsoft.NET\Framework\v3.5\
  Information: -1 : 	2019/06/26	15:33:17	1	Found version: v4
  Information: -1 : 	2019/06/26	15:33:17	1	    -Full Version: 
  Information: -1 : 	2019/06/26	15:33:17	1	    -Installed: 
  Information: -1 : 	2019/06/26	15:33:17	1	    -Service pack installed: 
  Information: -1 : 	2019/06/26	15:33:17	1	    -InstallPath: 
  Information: -1 : 	2019/06/26	15:33:17	1	Found version: v4.0
  Information: -1 : 	2019/06/26	15:33:17	1	    -Full Version: 
  Information: -1 : 	2019/06/26	15:33:17	1	    -Installed: 
  Information: -1 : 	2019/06/26	15:33:17	1	    -Service pack installed: 
  Information: -1 : 	2019/06/26	15:33:17	1	    -InstallPath: 
  Information: -1 : 	2019/06/26	15:33:17	1	Checking for configuration file
  Information: -1 : 	2019/06/26	15:33:17	1	Configuration file was found.  Attempting to load the custom sections..
  Information: -1 : 	2019/06/26	15:33:17	1	Getting the Excel separator
  Information: -1 : 	2019/06/26	15:33:17	1	Setting the excel separator for: zh-TW
  Information: -1 : 	2019/06/26	15:33:17	1	Saving the excel separator: ","
  Information: -1 : 	6/26/2019	3:33:17 PM	1	Arguments are empty
  Information: -1 : 	6/26/2019	3:33:17 PM	1	Running as: WORK_PC\Work_PC
  Information: -1 : 	6/26/2019	3:33:17 PM	1	Initiating the options menu..
  Information: 2 : 	2019/06/26	15:33:17	3	Entering StartUAServer
  Information: -1 : 	6/26/2019	3:33:17 PM	1	Figure out the OS on the computer
  Information: -1 : 	6/26/2019	3:33:17 PM	1	Operating System is: Microsoft Windows 10 專業版
  Information: -1 : 	6/26/2019	3:33:17 PM	1	Version is: 6.2
  Information: -1 : 	6/26/2019	3:33:17 PM	1	Bit: 64-bit operating system
  Error: 2 : 		6/26/2019	3:33:17 PM	1	OPC Expert is not running as an administrator.
  Information: -1 : 	2019/06/26	15:33:19	3	Computer "WORK_PC (This Computer)" has changed state to ServerArePresent
  Information: -1 : 	2019/06/26	15:33:19	3	Computer "WORK_PC (This Computer)" is connected.
  Information: -1 : 	2019/06/26	15:33:19	3	Server State : Disconnected
  Information: -1 : 	2019/06/26	15:33:19	3	Computer "WORK_PC (This Computer)" has changed state to ServerArePresent
  Information: -1 : 	2019/06/26	15:33:19	3	Computer "WORK_PC (This Computer)" is connected.
  Information: -1 : 	2019/06/26	15:33:19	3	Server State : Disconnected
  Information: -1 : 	2019/06/26	15:33:19	3	Server State : Disconnected
  Information: -1 : 	2019/06/26	15:33:19	3	Computer "WORK_PC (This Computer)" has changed state to ServerArePresent
  Information: -1 : 	2019/06/26	15:33:19	3	Computer "WORK_PC (This Computer)" is connected.
  Information: -1 : 	2019/06/26	15:33:19	3	Server State : Disconnected
  Information: -1 : 	2019/06/26	15:33:19	3	Server State : Disconnected
  Information: -1 : 	2019/06/26	15:33:19	3	Server State : Disconnected
  Information: -1 : 	2019/06/26	15:33:19	3	Computer "WORK_PC (This Computer)" has changed state to ServerArePresent
  Information: -1 : 	2019/06/26	15:33:19	3	Computer "WORK_PC (This Computer)" is connected.
  Information: -1 : 	2019/06/26	15:33:19	3	Server State : Disconnected
  Information: -1 : 	2019/06/26	15:33:19	3	Server State : Disconnected
  Information: -1 : 	2019/06/26	15:33:19	3	Server State : Disconnected
  Information: -1 : 	2019/06/26	15:33:19	3	Server State : Disconnected
  Information: -1 : 	2019/06/26	15:33:19	3	Computer "WORK_PC (This Computer)" has changed state to ServerArePresent
  Information: -1 : 	2019/06/26	15:33:19	3	Computer "WORK_PC (This Computer)" is connected.
  Information: -1 : 	2019/06/26	15:33:19	3	Server State : Disconnected
  Information: -1 : 	2019/06/26	15:33:19	3	Server State : Disconnected
  Information: -1 : 	2019/06/26	15:33:19	3	Server State : Disconnected
  Information: -1 : 	2019/06/26	15:33:19	3	Server State : Disconnected
  Information: -1 : 	2019/06/26	15:33:19	3	Server State : Disconnected
  Information: -1 : 	2019/06/26	15:33:19	3	Computer "WORK_PC (This Computer)" has changed state to ServerArePresent
  Information: -1 : 	2019/06/26	15:33:19	3	Computer "WORK_PC (This Computer)" is connected.
  Information: -1 : 	2019/06/26	15:33:19	3	Server State : Disconnected
  Information: -1 : 	2019/06/26	15:33:19	3	Server State : Disconnected
  Information: -1 : 	2019/06/26	15:33:19	3	Server State : Disconnected
  Information: -1 : 	2019/06/26	15:33:19	3	Server State : Disconnected
  Information: -1 : 	2019/06/26	15:33:19	3	Server State : Disconnected
  Information: -1 : 	2019/06/26	15:33:19	3	Server State : Disconnected
  Information: -1 : 	2019/06/26	15:33:19	3	Computer "WORK_PC (This Computer)" has changed state to ServerArePresent
  Information: -1 : 	2019/06/26	15:33:19	3	Computer "WORK_PC (This Computer)" is connected.
  Information: -1 : 	2019/06/26	15:33:19	3	Server State : Disconnected
  Information: -1 : 	2019/06/26	15:33:19	3	Server State : Disconnected
  Information: -1 : 	2019/06/26	15:33:19	3	Server State : Disconnected
  Information: -1 : 	2019/06/26	15:33:19	3	Server State : Disconnected
  Information: -1 : 	2019/06/26	15:33:19	3	Server State : Disconnected
  Information: -1 : 	2019/06/26	15:33:19	3	Server State : Disconnected
  Information: -1 : 	2019/06/26	15:33:19	3	Server State : Disconnected
  Information: -1 : 	2019/06/26	15:33:19	3	Computer "WORK_PC (This Computer)" has changed state to ServerArePresent
  Information: -1 : 	2019/06/26	15:33:19	3	Computer "WORK_PC (This Computer)" is connected.
  Information: -1 : 	2019/06/26	15:33:19	3	Server State : Disconnected
  Information: -1 : 	2019/06/26	15:33:19	3	Server State : Disconnected
  Information: -1 : 	2019/06/26	15:33:19	3	Server State : Disconnected
  Information: -1 : 	2019/06/26	15:33:19	3	Server State : Disconnected
  Information: -1 : 	2019/06/26	15:33:19	3	Server State : Disconnected
  Information: -1 : 	2019/06/26	15:33:19	3	Server State : Disconnected
  Information: -1 : 	2019/06/26	15:33:19	3	Server State : Disconnected
  Information: -1 : 	2019/06/26	15:33:19	3	Server State : Disconnected
  Information: -1 : 	2019/06/26	15:33:19	3	Computer "WORK_PC (This Computer)" has changed state to ServerArePresent
  Information: -1 : 	2019/06/26	15:33:19	3	Computer "WORK_PC (This Computer)" is connected.
  Information: -1 : 	2019/06/26	15:33:19	3	Server State : Disconnected
  Information: -1 : 	2019/06/26	15:33:19	3	Server State : Disconnected
  Information: -1 : 	2019/06/26	15:33:19	3	Server State : Disconnected
  Information: -1 : 	2019/06/26	15:33:19	3	Server State : Disconnected
  Information: -1 : 	2019/06/26	15:33:19	3	Server State : Disconnected
  Information: -1 : 	2019/06/26	15:33:19	3	Server State : Disconnected
  Information: -1 : 	2019/06/26	15:33:19	3	Server State : Disconnected
  Information: -1 : 	2019/06/26	15:33:19	3	Server State : Disconnected
  Information: -1 : 	2019/06/26	15:33:19	3	Server State : Disconnected
  Information: -1 : 	2019/06/26	15:33:19	3	Computer "WORK_PC (This Computer)" has changed state to ServerArePresent
  Information: -1 : 	2019/06/26	15:33:19	3	Computer "WORK_PC (This Computer)" is connected.
  Information: -1 : 	2019/06/26	15:33:19	3	Server State : Disconnected
  Information: -1 : 	2019/06/26	15:33:19	3	Server State : Disconnected
  Information: -1 : 	2019/06/26	15:33:19	3	Server State : Disconnected
  Information: -1 : 	2019/06/26	15:33:19	3	Server State : Disconnected
  Information: -1 : 	2019/06/26	15:33:19	3	Server State : Disconnected
  Information: -1 : 	2019/06/26	15:33:19	3	Server State : Disconnected
  Information: -1 : 	2019/06/26	15:33:19	3	Server State : Disconnected
  Information: -1 : 	2019/06/26	15:33:19	3	Server State : Disconnected
  Information: -1 : 	2019/06/26	15:33:19	3	Server State : Disconnected
  Information: -1 : 	2019/06/26	15:33:19	3	Server State : Disconnected
  Information: -1 : 	2019/06/26	15:33:19	3	Computer "WORK_PC (This Computer)" has changed state to ServerArePresent
  Information: -1 : 	2019/06/26	15:33:19	3	Computer "WORK_PC (This Computer)" is connected.
  Information: -1 : 	2019/06/26	15:33:19	3	Server State : Disconnected
  Information: -1 : 	2019/06/26	15:33:19	3	Server State : Disconnected
  Information: -1 : 	2019/06/26	15:33:19	3	Server State : Disconnected
  Information: -1 : 	2019/06/26	15:33:19	3	Server State : Disconnected
  Information: -1 : 	2019/06/26	15:33:19	3	Server State : Disconnected
  Information: -1 : 	2019/06/26	15:33:19	3	Server State : Disconnected
  Information: -1 : 	2019/06/26	15:33:19	3	Server State : Disconnected
  Information: -1 : 	2019/06/26	15:33:19	3	Server State : Disconnected
  Information: -1 : 	2019/06/26	15:33:19	3	Server State : Disconnected
  Information: -1 : 	2019/06/26	15:33:19	3	Server State : Disconnected
  Information: -1 : 	2019/06/26	15:33:19	3	Server State : Disconnected
  Information: -1 : 	2019/06/26	15:33:19	3	Setting up the options for the resource: DASMBTCP (ArchestrA.DASMBTCP.2)
  Information: -1 : 	2019/06/26	15:33:19	3	Setting up the options for the resource. Automonitor: True
  Information: -1 : 	2019/06/26	15:33:19	3	Setting up the options for the resource: _ServerDiagnostics
  Information: -1 : 	2019/06/26	15:33:19	3	Setting up the options for the resource: LastContact
  Information: -1 : 	2019/06/26	15:33:19	3	Setting up the options for the resource: LastCallback
  Information: -1 : 	2019/06/26	15:33:19	3	Setting up the options for the resource: ReconnectServer
  Information: -1 : 	2019/06/26	15:33:19	3	Setting up the options for the resource: ServerState
  Information: -1 : 	2019/06/26	15:33:19	3	Setting up the options for the resource: SuccessfulConnections
  Information: -1 : 	2019/06/26	15:33:19	3	Setting up the options for the resource: FailedConnections
  Information: -1 : 	2019/06/26	15:33:19	3	Setting up the options for the resource: FSGateway (ArchestrA.FSGateway.3)
  Information: -1 : 	2019/06/26	15:33:19	3	Setting up the options for the resource. Automonitor: True
  Information: -1 : 	2019/06/26	15:33:19	3	Setting up the options for the resource: _ServerDiagnostics
  Information: -1 : 	2019/06/26	15:33:19	3	Setting up the options for the resource: LastContact
  Information: -1 : 	2019/06/26	15:33:19	3	Setting up the options for the resource: LastCallback
  Information: -1 : 	2019/06/26	15:33:19	3	Setting up the options for the resource: ReconnectServer
  Information: -1 : 	2019/06/26	15:33:19	3	Setting up the options for the resource: ServerState
  Information: -1 : 	2019/06/26	15:33:19	3	Setting up the options for the resource: SuccessfulConnections
  Information: -1 : 	2019/06/26	15:33:19	3	Setting up the options for the resource: FailedConnections
  Information: -1 : 	2019/06/26	15:33:19	3	Setting up the options for the resource: iFIX OPC Client Data Access Server (Intellution.iFixOPCClient)
  Information: -1 : 	2019/06/26	15:33:19	3	Setting up the options for the resource. Automonitor: True
  Information: -1 : 	2019/06/26	15:33:19	3	Setting up the options for the resource: _ServerDiagnostics
  Information: -1 : 	2019/06/26	15:33:19	3	Setting up the options for the resource: LastContact
  Information: -1 : 	2019/06/26	15:33:19	3	Setting up the options for the resource: LastCallback
  Information: -1 : 	2019/06/26	15:33:19	3	Setting up the options for the resource: ReconnectServer
  Information: -1 : 	2019/06/26	15:33:19	3	Setting up the options for the resource: ServerState
  Information: -1 : 	2019/06/26	15:33:19	3	Setting up the options for the resource: SuccessfulConnections
  Information: -1 : 	2019/06/26	15:33:19	3	Setting up the options for the resource: FailedConnections
  Information: -1 : 	2019/06/26	15:33:19	3	Setting up the options for the resource: KEPware Enhanced OPC/DDE Server (KEPware.KEPServerEx.V4)
  Information: -1 : 	2019/06/26	15:33:19	3	Setting up the options for the resource. Automonitor: True
  Information: -1 : 	2019/06/26	15:33:19	3	Setting up the options for the resource: _ServerDiagnostics
  Information: -1 : 	2019/06/26	15:33:19	3	Setting up the options for the resource: LastContact
  Information: -1 : 	2019/06/26	15:33:19	3	Setting up the options for the resource: LastCallback
  Information: -1 : 	2019/06/26	15:33:19	3	Setting up the options for the resource: ReconnectServer
  Information: -1 : 	2019/06/26	15:33:19	3	Setting up the options for the resource: ServerState
  Information: -1 : 	2019/06/26	15:33:19	3	Setting up the options for the resource: SuccessfulConnections
  Information: -1 : 	2019/06/26	15:33:19	3	Setting up the options for the resource: FailedConnections
  Information: -1 : 	2019/06/26	15:33:19	3	Setting up the options for the resource: MBEDrv OPC Server (Intellution.MBEOPC.1)
  Information: -1 : 	2019/06/26	15:33:19	3	Setting up the options for the resource. Automonitor: True
  Information: -1 : 	2019/06/26	15:33:19	3	Setting up the options for the resource: _ServerDiagnostics
  Information: -1 : 	2019/06/26	15:33:19	3	Setting up the options for the resource: LastContact
  Information: -1 : 	2019/06/26	15:33:19	3	Setting up the options for the resource: LastCallback
  Information: -1 : 	2019/06/26	15:33:19	3	Setting up the options for the resource: ReconnectServer
  Information: -1 : 	2019/06/26	15:33:19	3	Setting up the options for the resource: ServerState
  Information: -1 : 	2019/06/26	15:33:19	3	Setting up the options for the resource: SuccessfulConnections
  Information: -1 : 	2019/06/26	15:33:19	3	Setting up the options for the resource: FailedConnections
  Information: -1 : 	2019/06/26	15:33:19	3	Setting up the options for the resource: OPC Data Access 2.0 Server for iFix (Intellution.OPCiFIX.1)
  Information: -1 : 	2019/06/26	15:33:19	3	Setting up the options for the resource. Automonitor: True
  Information: -1 : 	2019/06/26	15:33:19	3	Setting up the options for the resource: _ServerDiagnostics
  Information: -1 : 	2019/06/26	15:33:19	3	Setting up the options for the resource: LastContact
  Information: -1 : 	2019/06/26	15:33:19	3	Setting up the options for the resource: LastCallback
  Information: -1 : 	2019/06/26	15:33:19	3	Setting up the options for the resource: ReconnectServer
  Information: -1 : 	2019/06/26	15:33:19	3	Setting up the options for the resource: ServerState
  Information: -1 : 	2019/06/26	15:33:19	3	Setting up the options for the resource: SuccessfulConnections
  Information: -1 : 	2019/06/26	15:33:19	3	Setting up the options for the resource: FailedConnections
  Information: -1 : 	2019/06/26	15:33:19	3	Setting up the options for the resource: Proficy iFIX OPC EDA in-process server (Intellution.OPCEDA.3)
  Information: -1 : 	2019/06/26	15:33:19	3	Setting up the options for the resource. Automonitor: True
  Information: -1 : 	2019/06/26	15:33:19	3	Setting up the options for the resource: _ServerDiagnostics
  Information: -1 : 	2019/06/26	15:33:19	3	Setting up the options for the resource: LastContact
  Information: -1 : 	2019/06/26	15:33:19	3	Setting up the options for the resource: LastCallback
  Information: -1 : 	2019/06/26	15:33:19	3	Setting up the options for the resource: ReconnectServer
  Information: -1 : 	2019/06/26	15:33:19	3	Setting up the options for the resource: ServerState
  Information: -1 : 	2019/06/26	15:33:19	3	Setting up the options for the resource: SuccessfulConnections
  Information: -1 : 	2019/06/26	15:33:19	3	Setting up the options for the resource: FailedConnections
  Information: -1 : 	2019/06/26	15:33:19	3	Setting up the options for the resource: DASMBSerial (ArchestrA.DASMBSerial.2)
  Information: -1 : 	2019/06/26	15:33:19	3	Setting up the options for the resource. Automonitor: True
  Information: -1 : 	2019/06/26	15:33:19	3	Setting up the options for the resource: _ServerDiagnostics
  Information: -1 : 	2019/06/26	15:33:19	3	Setting up the options for the resource: LastContact
  Information: -1 : 	2019/06/26	15:33:19	3	Setting up the options for the resource: LastCallback
  Information: -1 : 	2019/06/26	15:33:19	3	Setting up the options for the resource: ReconnectServer
  Information: -1 : 	2019/06/26	15:33:19	3	Setting up the options for the resource: ServerState
  Information: -1 : 	2019/06/26	15:33:19	3	Setting up the options for the resource: SuccessfulConnections
  Information: -1 : 	2019/06/26	15:33:19	3	Setting up the options for the resource: FailedConnections
  Information: -1 : 	2019/06/26	15:33:19	3	Setting up the options for the resource: Industrial Gateway OPC Server 7.58 (Intellution.IntellutionGatewayOPCServer)
  Information: -1 : 	2019/06/26	15:33:19	3	Setting up the options for the resource. Automonitor: True
  Information: -1 : 	2019/06/26	15:33:19	3	Setting up the options for the resource: _ServerDiagnostics
  Information: -1 : 	2019/06/26	15:33:19	3	Setting up the options for the resource: LastContact
  Information: -1 : 	2019/06/26	15:33:19	3	Setting up the options for the resource: LastCallback
  Information: -1 : 	2019/06/26	15:33:19	3	Setting up the options for the resource: ReconnectServer
  Information: -1 : 	2019/06/26	15:33:19	3	Setting up the options for the resource: ServerState
  Information: -1 : 	2019/06/26	15:33:19	3	Setting up the options for the resource: SuccessfulConnections
  Information: -1 : 	2019/06/26	15:33:19	3	Setting up the options for the resource: FailedConnections
  Information: -1 : 	2019/06/26	15:33:19	3	Setting up the options for the resource: KEPServerEX 6.0 (Kepware.KEPServerEX.V6)
  Information: -1 : 	2019/06/26	15:33:19	3	Setting up the options for the resource. Automonitor: True
  Information: -1 : 	2019/06/26	15:33:19	3	Setting up the options for the resource: _ServerDiagnostics
  Information: -1 : 	2019/06/26	15:33:19	3	Setting up the options for the resource: LastContact
  Information: -1 : 	2019/06/26	15:33:19	3	Setting up the options for the resource: LastCallback
  Information: -1 : 	2019/06/26	15:33:19	3	Setting up the options for the resource: ReconnectServer
  Information: -1 : 	2019/06/26	15:33:19	3	Setting up the options for the resource: ServerState
  Information: -1 : 	2019/06/26	15:33:19	3	Setting up the options for the resource: SuccessfulConnections
  Information: -1 : 	2019/06/26	15:33:19	3	Setting up the options for the resource: FailedConnections
  Information: -1 : 	2019/06/26	15:33:19	3	Setting up the options for the resource: MB1Drv OPC Server (Intellution.MB1OPC.1)
  Information: -1 : 	2019/06/26	15:33:19	3	Setting up the options for the resource. Automonitor: True
  Information: -1 : 	2019/06/26	15:33:19	3	Setting up the options for the resource: _ServerDiagnostics
  Information: -1 : 	2019/06/26	15:33:19	3	Setting up the options for the resource: LastContact
  Information: -1 : 	2019/06/26	15:33:19	3	Setting up the options for the resource: LastCallback
  Information: -1 : 	2019/06/26	15:33:19	3	Setting up the options for the resource: ReconnectServer
  Information: -1 : 	2019/06/26	15:33:19	3	Setting up the options for the resource: ServerState
  Information: -1 : 	2019/06/26	15:33:19	3	Setting up the options for the resource: SuccessfulConnections
  Information: -1 : 	2019/06/26	15:33:19	3	Setting up the options for the resource: FailedConnections
  Information: -1 : 	2019/06/26	15:33:19	3	Setting up the options for the resource: LastKnownError
  Information: -1 : 	2019/06/26	15:33:19	3	Setting up the options for the resource: _System
  Information: -1 : 	2019/06/26	15:33:19	3	Setting up the options for the resource. Automonitor: True
  Information: -1 : 	2019/06/26	15:33:19	3	Setting up the options for the resource: HeartBeat
  Information: 2 : 	2019/06/26	15:33:19	3	Leaving StartUAServer
  Information: -1 : 	6/26/2019	3:33:20 PM	1	Checking for service installation...
  Information: -1 : 	6/26/2019	3:33:20 PM	1	Service is not installed
  Information: -1 : 	6/26/2019	3:33:20 PM	1	Setting up monitoring of the configuration file...
  Error: 2 : 		6/26/2019	3:33:20 PM	1	An error occurred in LoadCacheItems() cacheitem: Resources.InterProcess.xmlComputer . cacheitems: 1. Error: System.NullReferenceException: 並未將物件參考設定為物件的執行個體
							   於 Resources.EComputer.ChangeComputerState()
							   於 Resources.EComputer.OnPropertyChanged(Object sender, PropertyChangedEventArgs edata)
							   於 Resources.EComputer.set_State(ComputerState value)
							   於 Resources.InterProcess.DataPool.GetServerFromXmlServer(EComputer computer, xmlServer serv)
							   於 Resources.InterProcess.DataPool.ProcessCacheItems(EComputer localcomputer, ENetwork entirenetwork)
  Error: 2 : 		6/26/2019	3:33:20 PM	1	An error occurred loading servers from the cache file: System.NullReferenceException: 並未將物件參考設定為物件的執行個體
							   於 Resources.EComputer.ChangeComputerState()
							   於 Resources.EComputer.OnPropertyChanged(Object sender, PropertyChangedEventArgs edata)
							   於 Resources.EComputer.set_State(ComputerState value)
							   於 Resources.InterProcess.DataPool.GetServerFromXmlServer(EComputer computer, xmlServer serv)
							   於 Resources.InterProcess.DataPool.ProcessCacheItems(EComputer localcomputer, ENetwork entirenetwork)
							   於 OPCExpert.MainForm.LoadServersFromXiCache()
  Error: 2 : 		2019/06/26	15:33:31	22	Caught exception, and currently in the Computer.cs CheckException method. Exception : 
							
							System.Net.Sockets.SocketException: 無法連線，因為目標電腦拒絕連線。 192.168.254.254:135
							   於 Resources.EComputer.CheckPort(Int32 iPortNumber)
							   於 Resources.EComputer.PreBrowseChecks()
  Error: 2 : 		2019/06/26	15:33:48	22	Port connection timed out on PES-ACER
  Error: 2 : 		2019/06/26	15:33:48	32	Checkport failed
  Error: 2 : 		2019/06/26	15:35:31	22	Caught exception, and currently in the Computer.cs CheckException method. Exception : 
							
							System.Net.Sockets.SocketException: 無法連線，因為目標電腦拒絕連線。 192.168.254.254:135
							   於 Resources.EComputer.CheckPort(Int32 iPortNumber)
							   於 Resources.EComputer.PreBrowseChecks()
  Error: 2 : 		2019/06/26	15:35:36	22	Port connection timed out on PES-ACER
  Error: 2 : 		2019/06/26	15:35:36	25	Checkport failed
  Error: 2 : 		2019/06/26	16:11:43	22	Caught exception, and currently in the Computer.cs CheckException method. Exception : 
							
							System.Net.Sockets.SocketException: 無法連線，因為目標電腦拒絕連線。 192.168.254.254:135
							   於 Resources.EComputer.CheckPort(Int32 iPortNumber)
							   於 Resources.EComputer.PreBrowseChecks()
  Error: 2 : 		2019/06/26	16:11:48	22	Port connection timed out on PES-ACER
  Error: 2 : 		2019/06/26	16:11:49	31	Checkport failed
  Error: 2 : 		2019/06/26	16:20:53	24	Caught exception, and currently in the Computer.cs CheckException method. Exception : 
							
							System.Net.Sockets.SocketException: 無法連線，因為目標電腦拒絕連線。 192.168.254.254:135
							   於 Resources.EComputer.CheckPort(Int32 iPortNumber)
							   於 Resources.EComputer.PreBrowseChecks()
  Error: 2 : 		2019/06/26	16:20:58	24	Port connection timed out on PES-ACER
  Error: 2 : 		2019/06/26	16:20:58	21	Checkport failed
  Error: 2 : 		2019/06/26	16:22:00	24	Caught exception, and currently in the Computer.cs CheckException method. Exception : 
							
							System.Net.Sockets.SocketException: 無法連線，因為目標電腦拒絕連線。 192.168.254.254:135
							   於 Resources.EComputer.CheckPort(Int32 iPortNumber)
							   於 Resources.EComputer.PreBrowseChecks()
  Error: 2 : 		2019/06/26	16:22:10	24	Port connection timed out on PES-ACER
  Error: 2 : 		2019/06/26	16:22:10	33	Checkport failed
  Error: 2 : 		2019/06/26	16:25:22	22	Caught exception, and currently in the Computer.cs CheckException method. Exception : 
							
							System.Runtime.InteropServices.ExternalException: CoCreateInstanceEx: 伺服器執行失敗
							
							   於 Resources.EComputer.BrowseForDAServers()
							   於 Resources.EComputer.BrowseSpecific(BrowseType type)
  Error: 2 : 		2019/06/26	16:25:22	22	Exception not handled in derived class, checking exception in Resource class. Exception:
							 
							
							System.Runtime.InteropServices.ExternalException: CoCreateInstanceEx: 伺服器執行失敗
							
							   於 Resources.EComputer.BrowseForDAServers()
							   於 Resources.EComputer.BrowseSpecific(BrowseType type)
  Error: 2 : 		2019/06/26	17:26:48	7	Port connection timed out on PES-ACER
  Error: 2 : 		2019/06/26	17:26:49	22	Port connection timed out on PES-ACER
  Error: 2 : 		2019/06/26	17:26:49	42	Checkport failed
  Error: 2 : 		2019/06/26	17:26:50	43	Checkport failed
  Error: 2 : 		2019/06/26	17:28:03	66	Item: $sys$gatewayconnectionstatus is not a valid item.
  Error: 2 : 		2019/06/26	17:28:03	66	Item: $sys$gatewayconnectionstatusstring is not a valid item.
  Error: 2 : 		2019/06/26	17:28:03	66	Item: $sys$reconnect is not a valid item.
  Error: 2 : 		2019/06/26	17:28:03	66	Item: EC1 is not a valid item.
